----ABSORBING PHASE----


---Initial Block---

0000000000017070  0000000000000000  0000000000000000  0000000000000000  0000000000000000  
0000000000000000  0000000000000000  0000000000000000  0000000000000000  0000000000000000  
0000000000000000  0000000000000000  0000000000000000  0000000000000000  0000000000000000  
0000000000000000  0000000000000000  0000000000000000  0000000000000000  0000000000000000  
0000000000000000  0000000000000000  0000000000000000  0000000000000000  0000000000000000  



---Input to Keccak_f---

0000000000017070  0000000000000000  0000000000000000  0000000000000000  0000000000000000  
0000000000000000  0000000000000000  0000000000000000  0000000000000000  0000000000000000  
0000000000000000  0000000000000000  0000000000000000  0000000000000000  0000000000000000  
0000000000000000  8000000000000000  0000000000000000  0000000000000000  0000000000000000  
0000000000000000  0000000000000000  0000000000000000  0000000000000000  0000000000000000  



---Keccak_f---

	--Round 0--

		-Teta-

		0000000000017071  0000000000017070  8000000000000000  0000000000000000  000000000002e0e0  
		0000000000000001  0000000000017070  8000000000000000  0000000000000000  000000000002e0e0  
		0000000000000001  0000000000017070  8000000000000000  0000000000000000  000000000002e0e0  
		0000000000000001  8000000000017070  8000000000000000  0000000000000000  000000000002e0e0  
		0000000000000001  0000000000017070  8000000000000000  0000000000000000  000000000002e0e0  



		-Rho-

		0000000000017071  000000000002e0e0  2000000000000000  0000000000000000  0000170700000000  
		0000001000000000  1707000000000000  0000000000000020  0000000000000000  0000002e0e000000  
		0000000000000008  0000000005c1c000  0000040000000000  0000000000000000  0170700000000000  
		0000020000000000  2e0e100000000000  0000000000004000  0000000000000000  0000000002e0e000  
		0000000000040000  000000000005c1c0  1000000000000000  0000000000000000  00000000b8380000  



		-Pi-

		0000000000017071  1707000000000000  0000040000000000  0000000000000000  00000000b8380000  
		0000000000000000  0000002e0e000000  0000000000000008  2e0e100000000000  1000000000000000  
		000000000002e0e0  0000000000000020  0000000000000000  0000000002e0e000  0000000000040000  
		0000170700000000  0000001000000000  0000000005c1c000  0000000000004000  0000000000000000  
		2000000000000000  0000000000000000  0170700000000000  0000020000000000  000000000005c1c0  



		-Chi-

		0000040000017071  1707000000000000  00000400b8380000  0000000000017071  17070000b8380000  
		0000000000000008  2e0e102e0e000000  1000000000000008  2e0e100000000000  1000002e0e000000  
		000000000002e0e0  0000000002e0e020  0000000000040000  0000000002e200e0  0000000000040000  
		0000170705c1c000  0000001000000000  0000000005c1c000  0000170700004000  0000001000000000  
		2170700000000000  0000020000000000  017070000005c1c0  2000020000000000  000000000005c1c0  



		-Iota-

		0000040000017070  1707000000000000  00000400b8380000  0000000000017071  17070000b8380000  
		0000000000000008  2e0e102e0e000000  1000000000000008  2e0e100000000000  1000002e0e000000  
		000000000002e0e0  0000000002e0e020  0000000000040000  0000000002e200e0  0000000000040000  
		0000170705c1c000  0000001000000000  0000000005c1c000  0000170700004000  0000001000000000  
		2170700000000000  0000020000000000  017070000005c1c0  2000020000000000  000000000005c1c0  



	--Round 1--

		-Teta-

		75152042aff971f0  14978b067e325308  25151c30b11e8102  1f7e747dd18af239  5be9c309b15f91a1  
		75152442aff80188  2d9e9b2870325308  351518300926810a  3170647dd18b8248  5ceec327076791a1  
		75152442affae160  03908b067cd2b328  2515183009228102  1f7e747dd36982a8  4ceec309096391a1  
		75153345aa39c180  03908b167e325308  251518300ce74102  1f7e637ad18bc248  4ceec319096791a1  
		54655442aff80180  039089067e325308  24656830092340c2  3f7e767dd18b8248  4ceec30909625061  



		-Rho-

		75152042aff971f0  292f160cfc64a610  8945470c2c47a040  dd18af2391f7e747  4d8afc8d0adf4e18  
		ff8018875152442a  253082d9e9b28703  45460c0249a0428d  2418b8323ee8c5c1  327076791a15ceec  
		a8a922157fd70b03  422c19f34acca00e  14081128a8c18049  fba6d305503efce8  b1c8d0a677618484  
		738300ea2a668b54  4a6100721162cfc6  8c180673a081128a  6f5a31784903efcc  eec319096791a14c  
		510abfe006015195  0e422419f8c94c20  448cad0601246818  483f7e767dd18b82  b0c242589418533b  



		-Pi-

		75152042aff971f0  253082d9e9b28703  14081128a8c18049  6f5a31784903efcc  b0c242589418533b  
		dd18af2391f7e747  327076791a15ceec  a8a922157fd70b03  4a6100721162cfc6  448cad0601246818  
		292f160cfc64a610  45460c0249a0428d  fba6d305503efce8  eec319096791a14c  510abfe006015195  
		4d8afc8d0adf4e18  ff8018875152442a  422c19f34acca00e  8c180673a081128a  483f7e767dd18b82  
		8945470c2c47a040  2418b8323ee8c5c1  b1c8d0a677618484  738300ea2a668b54  0e422419f8c94c20  



		-Chi-

		651d3162afb871b8  4e62a289a8b0e887  848853283cd9907a  2a4f117a62e2cf0c  b0e2c0c1d41ad538  
		5591af27f435e644  7030761b1a350a28  ac258f117fd32b1b  d371025381b14881  66ecfd5e0b2460b0  
		938fc509ec7a1a70  4107040a6e214389  eaae75e5503eac79  c6e619059ff5074c  154ab7e207811118  
		4da6fdfd0053ee1c  73901e87f15356aa  020b61f7179c290e  899886faa28f5692  fa3f7e742cd18ba0  
		188507886d46a044  661bb87a36eece91  bd88f4b7a7e8c0a4  f28643ee2e602b14  2a5a9c2bea6109a1  



		-Iota-

		651d3162afb8f13a  4e62a289a8b0e887  848853283cd9907a  2a4f117a62e2cf0c  b0e2c0c1d41ad538  
		5591af27f435e644  7030761b1a350a28  ac258f117fd32b1b  d371025381b14881  66ecfd5e0b2460b0  
		938fc509ec7a1a70  4107040a6e214389  eaae75e5503eac79  c6e619059ff5074c  154ab7e207811118  
		4da6fdfd0053ee1c  73901e87f15356aa  020b61f7179c290e  899886faa28f5692  fa3f7e742cd18ba0  
		188507886d46a044  661bb87a36eece91  bd88f4b7a7e8c0a4  f28643ee2e602b14  2a5a9c2bea6109a1  



	--Round 2--

		-Teta-

		a380b58a8785a591  43427a8934d356b5  67dbbb3cc75353e9  718dfda2fdbc7c9c  18654d8a9197aed2  
		930c2bcfdc08b2ef  7d10ae1b8656b41a  4f7667058459e888  88b3ee8b1eeffb11  ce6b70154ea91b5a  
		551241e1c4474edb  4c27dc0af242fdbb  09fd9df1abb46fea  9d24f5dd00abb4dc  bdcd3aa9420c6af2  
		8b3b7915286ebab7  7eb0c6876d30e898  e15889e3ec16ea9d  d25a6a223dd1e502  52b8f33f695cf04a  
		de188360457bf4ef  6b3b607aaa8d70a3  5edb1ca35c620337  a944af36b13e9884  82dd1160afec724b  



		-Rho-

		a380b58a8785a591  8684f51269a6ad6a  59f6eecf31d4d4fa  2fdbc7c9c718dfda  548cbd7690c32a6c  
		c08b2ef930c2bcfd  6b41a7d10ae1b865  dd99c161167a2213  88c459f7458f77fd  0154ea91b5ace6b7  
		a8920f0e223a76da  9f702bc90bf6ed30  a37f504fecef8d5d  ba015769b93a49eb  0635795ee69d54a1  
		dd756f1676f22a50  1d130fd618d0eda6  44f1f60b754ef0ac  4447ba3ca05a4b4d  b8f33f695cf04a52  
		0d8115efd3bf7862  aced81eaaa35c28d  ebdb63946b8c4066  84a944af36b13e98  44582bfb1c92e0b7  



		-Pi-

		a380b58a8785a591  6b41a7d10ae1b865  a37f504fecef8d5d  4447ba3ca05a4b4d  44582bfb1c92e0b7  
		2fdbc7c9c718dfda  0154ea91b5ace6b7  a8920f0e223a76da  1d130fd618d0eda6  ebdb63946b8c4066  
		8684f51269a6ad6a  dd99c161167a2213  ba015769b93a49eb  b8f33f695cf04a52  0d8115efd3bf7862  
		548cbd7690c32a6c  c08b2ef930c2bcfd  9f702bc90bf6ed30  44f1f60b754ef0ac  84a944af36b13e98  
		59f6eecf31d4d4fa  88c459f7458f77fd  0635795ee69d54a1  dd756f1676f22a50  aced81eaaa35c28d  



		-Chi-

		23bee584638ba089  2f410de10af1fa65  a367518cf06f2def  e7c72e3c235f4e4d  0c1929aa14f2f8d3  
		8759c2c7c50acf92  1455ea41ad6c6f93  4a5a6f0e4136769a  19138b9f9cc0723e  ebdf4b845b286043  
		a484e31ac0a6e482  dd6be96152ba2003  bf0157ef3a3579cb  3af7df7974f0cf5a  5498158ec5e77a73  
		4bfcbc769bf76b6c  800afafb44caac71  1f782b6d0947e320  14f54f5bf50cf0c8  04aa462616b1aa09  
		5fc7cec793c4d4fa  51845ff755ed5dad  26bdf9b66e98942c  8c67011367323e22  2ced90daee3ee188  



		-Iota-

		a3bee584638b2003  2f410de10af1fa65  a367518cf06f2def  e7c72e3c235f4e4d  0c1929aa14f2f8d3  
		8759c2c7c50acf92  1455ea41ad6c6f93  4a5a6f0e4136769a  19138b9f9cc0723e  ebdf4b845b286043  
		a484e31ac0a6e482  dd6be96152ba2003  bf0157ef3a3579cb  3af7df7974f0cf5a  5498158ec5e77a73  
		4bfcbc769bf76b6c  800afafb44caac71  1f782b6d0947e320  14f54f5bf50cf0c8  04aa462616b1aa09  
		5fc7cec793c4d4fa  51845ff755ed5dad  26bdf9b66e98942c  8c67011367323e22  2ced90daee3ee188  



	--Round 3--

		-Teta-

		57441343d9390133  64eacc64bd83e584  2df49365a6cd1240  be0dd7322a89493a  781970e8918aac1b  
		73a334007fb8eea2  5ffe2bc41a1e7072  c4c9ade717944935  40d9729195167549  9fdf12c6de50348b  
		507e15dd7a14c5b2  96c028e4e5c83fe2  319295066c974664  633d26777d26c82d  20984ccc409f2ebb  
		bf064ab121454a5c  cba13b7ef3b8b390  91ebe9845fe5dc8f  4d3fb655fcdaf7bf  70aa1f6493c9fec1  
		ab3d38002976f5ca  1a2f9e72e29f424c  a82e3b5f383aab83  d5adf81d6ee43955  58edc9986b46b540  



		-Rho-

		57441343d9390133  c9d598c97b07cb08  0b7d24d969b34490  22a89493abe0dd73  448c5560dbc0cb87  
		fb8eea273a334007  e70725ffe2bc41a1  326b79c5e5124d71  a4a06cb948ca8b3a  2c6de50348b9fdf1  
		83f0aeebd0a62d92  00a3939720ff8a5b  ba33218c94a83364  eefa4d905ac67a4c  4f975d904c266620  
		8a94b97e0c956242  16721974276fde77  f4c22ff2ee47c8f5  cabf9b5ef7e9a7f6  aa1f6493c9fec170  
		e000a5dbd72aacf4  68be79cb8a7d0930  7505c76be7075570  55d5adf81d6ee439  72661ad1ad50163b  



		-Pi-

		57441343d9390133  e70725ffe2bc41a1  ba33218c94a83364  cabf9b5ef7e9a7f6  72661ad1ad50163b  
		22a89493abe0dd73  2c6de50348b9fdf1  83f0aeebd0a62d92  16721974276fde77  7505c76be7075570  
		c9d598c97b07cb08  326b79c5e5124d71  eefa4d905ac67a4c  aa1f6493c9fec170  e000a5dbd72aacf4  
		448c5560dbc0cb87  fb8eea273a334007  00a3939720ff8a5b  f4c22ff2ee47c8f5  55d5adf81d6ee439  
		0b7d24d969b34490  a4a06cb948ca8b3a  4f975d904c266620  8a94b97e0c956242  68be79cb8a7d0930  



		-Chi-

		4f741343cd393377  a78bbfad81fdc533  8a73210d9cb8236d  cfbf9a5ca7c0a6f6  d2653e6d8fd456bb  
		a1389e7b3be6dd71  386ff4176ff02f94  e2f568e010a62c92  14da09e42f8f5674  7940a66ba71e75f0  
		05459cd961c3f904  326e59c6642acc41  aefaccd84cc656c8  a3ca7c93e1fb8278  d22ac4df533aa885  
		44ad44f0db0c41df  0fcec647f43300a3  01b6139f31d7ae53  f4ca7ff22cc7c373  eed707ff3d5de439  
		406a35d96d972090  24a0ccd7485b8b78  2fbd1d11ce4e6f10  89d5bd6e6d1726c2  cc3e31eb8a35821a  



		-Iota-

		cf7413434d39b377  a78bbfad81fdc533  8a73210d9cb8236d  cfbf9a5ca7c0a6f6  d2653e6d8fd456bb  
		a1389e7b3be6dd71  386ff4176ff02f94  e2f568e010a62c92  14da09e42f8f5674  7940a66ba71e75f0  
		05459cd961c3f904  326e59c6642acc41  aefaccd84cc656c8  a3ca7c93e1fb8278  d22ac4df533aa885  
		44ad44f0db0c41df  0fcec647f43300a3  01b6139f31d7ae53  f4ca7ff22cc7c373  eed707ff3d5de439  
		406a35d96d972090  24a0ccd7485b8b78  2fbd1d11ce4e6f10  89d5bd6e6d1726c2  cc3e31eb8a35821a  



	--Round 4--

		-Teta-

		995a4856ed3e04e1  18aac8135ef90397  07f7628ffa3ea0c6  9004c47c01b0e558  0849d24be4bf2d6a  
		f716c56e9be16ae7  874e83a9b0f4e930  6f712b627620af39  4b6157c489ff15da  a36c4a4dcc750e21  
		536bc7ccc1c44e92  8d4f2e78bb2e0ae5  237e8f5a2a40d563  fc7122b3478bc1d6  080628f93851d354  
		12831fe57b0bf649  b0efb1f92b37c607  8c32501d57512df8  ab7121d28ab780dd  34fbebd956369fe8  
		16446ecccd909706  9b81bb69975f4ddc  a2395e93a8c8ecbb  d66ee34ecb67656c  1612ddcde15ef9cb  



		-Rho-

		995a4856ed3e04e1  31559026bdf2072e  81fdd8a3fe8fa831  c01b0e5589004c47  5f25f96b50424e92  
		be16ae7f716c56e9  4e930874e83a9b0f  dc4ad89d882bce5b  ed25b0abe244ff8a  a4dcc750e21a36c4  
		9b5e3e660e227492  3cb9e2ecb82b9635  06ab191bf47ad152  668f1783adf8e245  28e9aa0403147c9c  
		17ec9225063fcaf6  f8c0f61df63f2566  280eaba896fc4619  3a5156f01bb56e24  fbebd956369fe834  
		bb3336425c185911  6e06eda65d7d3772  74472bd275191d97  6cd66ee34ecb6765  b7737857be72c584  



		-Pi-

		995a4856ed3e04e1  4e930874e83a9b0f  06ab191bf47ad152  3a5156f01bb56e24  b7737857be72c584  
		c01b0e5589004c47  a4dcc750e21a36c4  9b5e3e660e227492  f8c0f61df63f2566  74472bd275191d97  
		31559026bdf2072e  dc4ad89d882bce5b  668f1783adf8e245  fbebd956369fe834  bb3336425c185911  
		5f25f96b50424e92  be16ae7f716c56e9  3cb9e2ecb82b9635  280eaba896fc4619  6cd66ee34ecb6765  
		81fdd8a3fe8fa831  ed25b0abe244ff8a  28e9aa0403147c9c  17ec9225063fcaf6  6e06eda65d7d3772  



		-Chi-

		9972595df97e44b1  76c34e94e3bfb52b  8389311c503850d2  325956f05ab96e45  f1f27877be725e8a  
		db19367385200c55  c45c0749120737a0  9f5937a40f226c03  78d8f2187e3f6526  5083ead217032f17  
		13d097249822272a  452a10c99a2cc66b  669f3183e5f8f344  fbaf5972977dee1a  77397edb5c119140  
		5f8cb9ebd841ce86  be10a77f77b816e1  7869a6aff028b751  3b2f3aa086fc4e8b  ccc468f76fe7770c  
		8135d2a7ff9fa825  fa21a08ae66f7de8  40ebc7865a54499c  96158224a4bd42f7  0206cdae5d3d60f8  



		-Iota-

		9972595df97ec43a  76c34e94e3bfb52b  8389311c503850d2  325956f05ab96e45  f1f27877be725e8a  
		db19367385200c55  c45c0749120737a0  9f5937a40f226c03  78d8f2187e3f6526  5083ead217032f17  
		13d097249822272a  452a10c99a2cc66b  669f3183e5f8f344  fbaf5972977dee1a  77397edb5c119140  
		5f8cb9ebd841ce86  be10a77f77b816e1  7869a6aff028b751  3b2f3aa086fc4e8b  ccc468f76fe7770c  
		8135d2a7ff9fa825  fa21a08ae66f7de8  40ebc7865a54499c  96158224a4bd42f7  0206cdae5d3d60f8  



	--Round 5--

		-Teta-

		e6f0adb9ca426cc0  7c5b71f601215e7d  0825e5c0890ead31  418092adc552b14f  f3e31be4a88da442  
		a49bc297b61ca4af  cec4382bf099dcf6  14f5e378d61491e0  0b013645e1d4ba2c  5292894101fcd5df  
		6c5263c0ab1e8fd0  4fb22fab78b22d3d  ed33e55f3cce0ea7  88769d2f08963110  75281d484aee6b88  
		200e4d0feb7d667c  b488981d9526fdb7  f3c57273291e4ab2  48f6fefd19179181  ced50b6479188dc4  
		feb72643cca300df  f0b99fe804f196be  cb47135a8362b47f  e5cc46793b569dfd  0017ae3d4bc29a30  



		-Rho-

		e6f0adb9ca426cc0  f8b6e3ec0242bcfa  420979702243ab4c  dc552b14f418092a  25446d22179f18df  
		61ca4afa49bc297b  9dcf6cec4382bf09  3d78de3585247805  1605809b22f0ea5d  94101fcd5df52928  
		62931e0558f47e83  c8beade2c8b4f53e  70753f699f2af9e6  5e112c622110ed3a  7735c43a940ea425  
		faccf8401c9a1fd6  dfb6f6911303b2a4  b939948f255979e2  dfa322f230291edf  d50b6479188dc4ce  
		990f328c037ffadc  c2e67fa013c65afb  f968e26b506c568f  fde5cc46793b569d  eb8f52f0a68c0005  



		-Pi-

		e6f0adb9ca426cc0  9dcf6cec4382bf09  70753f699f2af9e6  dfa322f230291edf  eb8f52f0a68c0005  
		dc552b14f418092a  94101fcd5df52928  62931e0558f47e83  dfb6f6911303b2a4  f968e26b506c568f  
		f8b6e3ec0242bcfa  3d78de3585247805  5e112c622110ed3a  d50b6479188dc4ce  990f328c037ffadc  
		25446d22179f18df  61ca4afa49bc297b  c8beade2c8b4f53e  b939948f255979e2  fde5cc46793b569d  
		420979702243ab4c  1605809b22f0ea5d  7735c43a940ea425  faccf8401c9a1fd6  c2e67fa013c65afb  



		-Chi-

		86c0beb8566a2c26  124d6c7e6383b910  50796f6919aef9e6  dbd38ffb786b721f  f28012b4a70c930c  
		bed62b14f4185fa9  0934ff5d5ef6a90c  42db1e6f18983a88  dba3ff85b713bb84  f968f6a25989768f  
		bab7c3ae225239c0  bc729e2c9da978c1  56153ee62262d72a  b5bba519188dc0ec  9c472e9d865bbad9  
		ad70c822979fccdb  50cb5af76cf521bb  8c7ae5a29096f323  b939b5af23dd71a0  bd6fce9e311b77bd  
		23393d50b64daf6c  9ecdb8db2a60f18f  7717c39a974ae40c  fac5f8103c9bbed2  d6e2ff2b13761aea  



		-Iota-

		86c0beb8d66a2c27  124d6c7e6383b910  50796f6919aef9e6  dbd38ffb786b721f  f28012b4a70c930c  
		bed62b14f4185fa9  0934ff5d5ef6a90c  42db1e6f18983a88  dba3ff85b713bb84  f968f6a25989768f  
		bab7c3ae225239c0  bc729e2c9da978c1  56153ee62262d72a  b5bba519188dc0ec  9c472e9d865bbad9  
		ad70c822979fccdb  50cb5af76cf521bb  8c7ae5a29096f323  b939b5af23dd71a0  bd6fce9e311b77bd  
		23393d50b64daf6c  9ecdb8db2a60f18f  7717c39a974ae40c  fac5f8103c9bbed2  d6e2ff2b13761aea  



	--Round 6--

		-Teta-

		a8f99bc1404a6ff8  61111cbe0b61963e  d51bb1fb6e80cd04  9c4c105fe985156f  1d66cc8c2c5b06fb  
		90ef0e6d62381c76  7a688f9d36148622  c7b9c0fd6fb60e6a  9c3c602126fddcf4  168e289ad2dee378  
		948ee6d7b4727a1f  cf2eeeecf54b57ef  d377e074554ce3c8  f2243abd8963a79c  73a1f0a50d0c2f2e  
		8349ed5b01bf8f04  23972a3704170e95  09183b30e7b8c7c1  fea62a0bb23316d0  528910a6ba4ce24a  
		0d001829206decb3  ed91c81b4282dea1  f2751d08e064d0ee  bd5a67b4ad75d9a2  3904211398218f1d  



		-Rho-

		a8f99bc1404a6ff8  c222397c16c32c7c  3546ec7edba03341  fe985156f9c4c105  6162d837d8eb3664  
		2381c7690ef0e6d6  486227a688f9d361  ee703f5bed839ab1  7a4e1e3010937eee  89ad2dee378168e2  
		a47736bda393d0fc  bbbbb3d52d5fbf3c  671e469bbf03a2aa  7b12c74f39e44875  86179739d0f85286  
		7f1e090693dab603  e1d2a472e546e082  1d9873dc63e0848c  41764662da1fd4c5  8910a6ba4ce24a52  
		60a481b7b2cc3400  b647206d0a0b7a87  de4ea3a11c0c9a1d  a2bd5a67b4ad75d9  0844e60863c74e41  



		-Pi-

		a8f99bc1404a6ff8  486227a688f9d361  671e469bbf03a2aa  41764662da1fd4c5  0844e60863c74e41  
		fe985156f9c4c105  89ad2dee378168e2  a47736bda393d0fc  e1d2a472e546e082  de4ea3a11c0c9a1d  
		c222397c16c32c7c  ee703f5bed839ab1  7b12c74f39e44875  8910a6ba4ce24a52  60a481b7b2cc3400  
		6162d837d8eb3664  2381c7690ef0e6d6  bbbbb3d52d5fbf3c  1d9873dc63e0848c  a2bd5a67b4ad75d9  
		3546ec7edba03341  7a4e1e3010937eee  86179739d0f85286  7f1e090693dab603  b647206d0a0b7a87  



		-Chi-

		8fe5dbd877484f72  480227c6c8e58724  6f1ee6939ec3a8aa  e1cf5fa3da17f57d  4846c22eeb76de40  
		daca434779d65119  c82dadac73c548e0  ba7b353cbb9bcae1  c142f4240486a182  df6b8f091a0db2ff  
		d320f97806a76c38  6e701feba98198b3  1bb6c64a8be87c75  0b129ef248e1422e  4cf487b45bcca681  
		f958e8a3f9e42f4c  278187614c50e656  199ebbf6b952ce6d  5cdaf3cc2ba286a8  a03c5d2fb2bdb54b  
		b1576d771bc83341  034616361391daef  0656b750d8f91a02  7e1ec514427ab743  fc4f326d0a183629  



		-Iota-

		0fe5dbd8f748cff3  480227c6c8e58724  6f1ee6939ec3a8aa  e1cf5fa3da17f57d  4846c22eeb76de40  
		daca434779d65119  c82dadac73c548e0  ba7b353cbb9bcae1  c142f4240486a182  df6b8f091a0db2ff  
		d320f97806a76c38  6e701feba98198b3  1bb6c64a8be87c75  0b129ef248e1422e  4cf487b45bcca681  
		f958e8a3f9e42f4c  278187614c50e656  199ebbf6b952ce6d  5cdaf3cc2ba286a8  a03c5d2fb2bdb54b  
		b1576d771bc83341  034616361391daef  0656b750d8f91a02  7e1ec514427ab743  fc4f326d0a183629  



	--Round 7--

		-Teta-

		1d7f77a57f9a5132  a434f1723cc7fd58  b730e51e2cf38d10  3f810d423128ad95  dd1c09e5c0f524c4  
		c850ef3af104cfd8  241b7b1887e7329c  625536b109abef5b  1f0ca6c5efb9f96a  4a3144c2318e487b  
		c1ba55058e75f2f9  8246c95f5da3e2cf  c398c5c739d859cf  d55ccc13a3de1ac6  d9ae4c7f704f5c05  
		ebc244de7136b18d  cbb751d5b8729c2a  c1b0b87b0b62ebd7  8294a12dc09dde40  356696e4993e4fcf  
		a3cdc10a931aad80  ef70c082e7b3a093  de78b4dd6ac93fb8  a05097f5a945efab  6915f9a6219bccad  



		-Rho-

		1d7f77a57f9a5132  4869e2e4798ffab1  2dcc39478b3ce344  23128ad953f810d4  2e07a92626e8e04f  
		104cfd8c850ef3af  7329c241b7b1887e  954dac426afbd6d8  b50f865362f7dcfc  4c2318e487b4a314  
		0dd2a82c73af97ce  1b257d768f8b3e09  c2ce7e1cc62e39ce  2747bc358daab998  27ae02ecd7263fb8  
		6d631bd78489bce2  53855976ea3ab70e  5c3d85b175ebe0d8  25b813bbc8105294  6696e4993e4fcf35  
		042a4c6ab6028f37  bdc3020b9ece824f  1bcf169bad5927f7  aba05097f5a945ef  7e698866f32b5a45  



		-Pi-

		1d7f77a57f9a5132  7329c241b7b1887e  c2ce7e1cc62e39ce  25b813bbc8105294  7e698866f32b5a45  
		23128ad953f810d4  4c2318e487b4a314  0dd2a82c73af97ce  53855976ea3ab70e  1bcf169bad5927f7  
		4869e2e4798ffab1  954dac426afbd6d8  2747bc358daab998  6696e4993e4fcf35  042a4c6ab6028f37  
		2e07a92626e8e04f  104cfd8c850ef3af  1b257d768f8b3e09  5c3d85b175ebe0d8  aba05097f5a945ef  
		2dcc39478b3ce344  b50f865362f7dcfc  27ae02ecd7263fb8  6d631bd78489bce2  bdc3020b9ece824f  



		-Chi-

		9db94bb93f9460b2  5619c3e2bfa1ca6e  988ff658f505318f  24ae643ac48053a6  1c690826730ad209  
		22c22ad123f3041e  1e2649b60fa48314  0598aea576ee973f  7395d136b89aa70e  57ee06bf295d84f7  
		6a6bf2d1fc8fd3b1  d5ddecca58be90fd  276fb4570daab99a  2ed7461d77c2bfb5  912e4068b4728b7f  
		2526a9542c69ec4f  54547d0df56e337f  b8a52d700f8b3b2e  583a2c9177ab40d8  bbe8041f74af564f  
		2f6c39eb1e3cc044  fd4e9f40627e5cbe  b72e02e4cd603db5  6d6f229385b9dde2  2dc0841bfe0d9ef7  



		-Iota-

		1db94bb93f94e0bb  5619c3e2bfa1ca6e  988ff658f505318f  24ae643ac48053a6  1c690826730ad209  
		22c22ad123f3041e  1e2649b60fa48314  0598aea576ee973f  7395d136b89aa70e  57ee06bf295d84f7  
		6a6bf2d1fc8fd3b1  d5ddecca58be90fd  276fb4570daab99a  2ed7461d77c2bfb5  912e4068b4728b7f  
		2526a9542c69ec4f  54547d0df56e337f  b8a52d700f8b3b2e  583a2c9177ab40d8  bbe8041f74af564f  
		2f6c39eb1e3cc044  fd4e9f40627e5cbe  b72e02e4cd603db5  6d6f229385b9dde2  2dc0841bfe0d9ef7  



	--Round 8--

		-Teta-

		38c98ceaa444990e  62a44698f448e212  350488ac793b2b87  085e3aee41246065  ee64f3382fba3210  
		07b2ed82b8237dab  2a9bcccc444dab68  a813d051fad08d37  5f658fe23d3e94cd  a5e3fda175ed64ee  
		4f1b3582675faa04  e16069b01357b881  8ae4caa38194a392  022718c9f2668c76  6323bb76e8c26b66  
		00566e07b7b995fa  60e9f877be871b03  152e538483b52126  74ca7245f20f731b  49e5ff01281fb656  
		0a1cfeb885ecb9f1  c9f31a3a299774c2  1aa57c10415e27bd  419f7c47001dee21  dfcd7f05a2bd7eee  



		-Rho-

		38c98ceaa444990e  c5488d31e891c424  cd41222b1e4ecae1  e41246065085e3ae  c17dd19087732799  
		8237dab07b2ed82b  dab682a9bcccc444  04f4147eb4234dea  66afb2c7f11e9f4a  da175ed64eea5e3f  
		78d9ac133afd5022  81a6c04d5ee20785  a51c945726551c0c  93e4cd18ec044e31  6135b33191ddbb74  
		732bf400acdc0f6f  e3606c1d3f0ef7d0  29c241da90930a97  48be41ee636e994e  e5ff01281fb65649  
		fae217b2e7c42873  27cc68e8a65dd30b  a354af82082bc4f7  21419f7c47001dee  5fc168af5fbbb7f3  



		-Pi-

		38c98ceaa444990e  dab682a9bcccc444  a51c945726551c0c  48be41ee636e994e  5fc168af5fbbb7f3  
		e41246065085e3ae  da175ed64eea5e3f  78d9ac133afd5022  e3606c1d3f0ef7d0  a354af82082bc4f7  
		c5488d31e891c424  04f4147eb4234dea  93e4cd18ec044e31  e5ff01281fb65649  fae217b2e7c42873  
		c17dd19087732799  8237dab07b2ed82b  81a6c04d5ee20785  29c241da90930a97  21419f7c47001dee  
		cd41222b1e4ecae1  66afb2c7f11e9f4a  6135b33191ddbb74  732bf400acdc0f6f  27cc68e8a65dd30b  



		-Chi-

		1dc198bca6558106  9214c301fde64506  b25dbc563ac43abd  68b6c5aec32a9142  9df76aae4733f3b3  
		c4dae6076090e3ae  59371eda4be8f9ef  78cd2f913adc5005  a7622c196f8ad4d8  b951b7520641d8e6  
		56484431a095c635  60ef145ea7915da2  89e4db8a0c446603  e0f7892917a7924d  fa5607fcf3e621b9  
		c0fdd1dd83b3201d  aa77db22fb3fd039  81a75e6919e212ed  e9fe015a10e02886  2343955c3f0cc5cc  
		cc51231b1e8fead5  74a5f6c7dd1e9b41  65f1bbd993dc6b74  bb2af603b4de078f  0562f82c474dc601  



		-Iota-

		1dc198bca655818c  9214c301fde64506  b25dbc563ac43abd  68b6c5aec32a9142  9df76aae4733f3b3  
		c4dae6076090e3ae  59371eda4be8f9ef  78cd2f913adc5005  a7622c196f8ad4d8  b951b7520641d8e6  
		56484431a095c635  60ef145ea7915da2  89e4db8a0c446603  e0f7892917a7924d  fa5607fcf3e621b9  
		c0fdd1dd83b3201d  aa77db22fb3fd039  81a75e6919e212ed  e9fe015a10e02886  2343955c3f0cc5cc  
		cc51231b1e8fead5  74a5f6c7dd1e9b41  65f1bbd993dc6b74  bb2af603b4de078f  0562f82c474dc601  



	--Round 9--

		-Teta-

		0f2de70c03fddccb  5fae50b60a4ec19c  3cac77b833096132  3e3706b2d0e2f623  e7ff6df0aed2d6d2  
		d63699b7c538bee9  948d8d6dbc407d75  f63ce47f33110b8a  f1e3ef057c42b3b9  c359b00cefa0fd87  
		44a43b81053d9b72  ad5587e95039d938  0715106405893d8c  b6764a35046ff52c  805e00a21a0704d8  
		d211ae6d261b7d5a  67cd48950c9754a3  0f569587102f4962  bf7fc24603284fe7  594b9202d6ede0ad  
		debd5cabbb27b792  b91f65702ab61fdb  eb0070379a1130fb  edab351fa71660ee  7f6aff72aeace360  



		-Rho-

		0f2de70c03fddccb  bf5ca16c149d8338  8f2b1dee0cc2584c  2d0e2f6233e3706b  857696b6973ffb6f  
		538bee9d63699b7c  07d75948d8d6dbc4  8f391fccc442e2bd  dcf8f1f782be2159  00cefa0fd87c359b  
		2521dc0829ecdb92  561fa540e764e2b5  49ec6038a883202c  6a08dfea596cec94  03826c402f00510d  
		36fab5a4235cda4c  ea946cf9a912a192  4ac38817a4b107ab  48c06509fcf7eff8  4b9202d6ede0ad59  
		72aeec9ede4b7af5  e47d95c0aad87f6e  7d600e06f342261f  eeedab351fa71660  bfdcabab38d81fda  



		-Pi-

		0f2de70c03fddccb  07d75948d8d6dbc4  49ec6038a883202c  48c06509fcf7eff8  bfdcabab38d81fda  
		2d0e2f6233e3706b  00cefa0fd87c359b  2521dc0829ecdb92  ea946cf9a912a192  7d600e06f342261f  
		bf5ca16c149d8338  8f391fccc442e2bd  6a08dfea596cec94  4b9202d6ede0ad59  72aeec9ede4b7af5  
		857696b6973ffb6f  538bee9d63699b7c  561fa540e764e2b5  4ac38817a4b107ab  eeedab351fa71660  
		8f2b1dee0cc2584c  dcf8f1f782be2159  03826c402f00510d  36fab5a4235cda4c  e47d95c0aad87f6e  



		-Chi-

		4705c73c23fcfce3  07d75c498ca21414  fef0ea9aa88b302e  48e1210dffd22ff9  bf0eb3ebe0da1cde  
		082f2b621263ba6b  ca5adafe586e159b  3041de0e7bacdd9f  ea9a4d99a9b3f1f2  7da0de0b3b5e238f  
		df5c614e0db18f38  8eab1fd860c2e3f4  5a2433e24b67be30  c6c203b6ed742c51  728ff21e1e091a70  
		816297f6133b9bee  5b4be68a63f89e76  f2338660fc62f2f5  4bd19c9524a9eea4  bc64c33c7fe71670  
		8c2911ee21c20848  e880605382e2ab19  c3876c00a780742f  3df8bd8a275eda4c  b4ad75d128e45e7f  



		-Iota-

		4705c73c23fcfc6b  07d75c498ca21414  fef0ea9aa88b302e  48e1210dffd22ff9  bf0eb3ebe0da1cde  
		082f2b621263ba6b  ca5adafe586e159b  3041de0e7bacdd9f  ea9a4d99a9b3f1f2  7da0de0b3b5e238f  
		df5c614e0db18f38  8eab1fd860c2e3f4  5a2433e24b67be30  c6c203b6ed742c51  728ff21e1e091a70  
		816297f6133b9bee  5b4be68a63f89e76  f2338660fc62f2f5  4bd19c9524a9eea4  bc64c33c7fe71670  
		8c2911ee21c20848  e880605382e2ab19  c3876c00a780742f  3df8bd8a275eda4c  b4ad75d128e45e7f  



	--Round 10--

		-Teta-

		1e37d1431b5b3f6c  d0a98d6c0530e43d  2b3d69578c5a6a5e  9c109e3c196c20ff  97e4ebc645966f51  
		511d3d1d2ac4796c  1d240bdbd1fce5b2  e58c5dc35f7d87ef  3e6bf2a84f0dfef4  554a86269e125000  
		866e773135164c3f  59d5cefde95013dd  8fe9b02f6fb6e440  1233bc870bca2357  5a65aa33bb4569ff  
		d85081892b9c58e9  8c3537afea6a6e5f  27fe05add8b3a885  9f2023a4c217e1a2  948e9b11daab65ff  
		d51b07911965cb4f  3ffeb1760b705b30  164aefcd83512e5f  e90902bbc1e0d54a  9c472dfc8da82df0  



		-Rho-

		1e37d1431b5b3f6c  a1531ad80a61c87b  8acf5a55e3169a97  c196c20ff9c109e3  322cb37a8cbf275e  
		ac4796c511d3d1d2  ce5b21d240bdbd1f  631770d7df61fbf9  7a1f35f9542786ff  6269e125000554a8  
		3373b989a8b261fc  573bf7a5404f7567  b722047f4d817b7d  0e179446ae246779  a2b4ffad32d519dd  
		38b1d3b0a1031257  4dcbf186a6f5fd4d  02d6ec59d44293ff  749842fc3453e404  8e9b11daab65ff94  
		1e4465972d3f546c  fffac5d82dc16cc0  e2c95df9b06a25cb  4ae90902bbc1e0d5  cb7f236a0b7c2711  



		-Pi-

		1e37d1431b5b3f6c  ce5b21d240bdbd1f  b722047f4d817b7d  749842fc3453e404  cb7f236a0b7c2711  
		c196c20ff9c109e3  6269e125000554a8  3373b989a8b261fc  4dcbf186a6f5fd4d  e2c95df9b06a25cb  
		a1531ad80a61c87b  631770d7df61fbf9  0e179446ae246779  8e9b11daab65ff94  1e4465972d3f546c  
		322cb37a8cbf275e  ac4796c511d3d1d2  573bf7a5404f7567  02d6ec59d44293ff  4ae90902bbc1e0d5  
		8acf5a55e3169a97  7a1f35f9542786ff  a2b4ffad32d519dd  38b1d3b0a1031257  fffac5d82dc16cc0  



		-Chi-

		2f17d56e165b7d0c  8ec3635270ef391f  3c45257d46ad786c  609892fd2450fc68  0b3703fa4bd8a702  
		d084da87517328b7  2ee1a1230640c8a9  9173b5f0b8b8617e  4cdd7380ef74f56d  c0a07cd9b06e71c3  
		ad539ed82a65cc7b  e39f714fde20637d  1e53f043aa3e6711  2f880b92a9257787  5c400590f83f67ec  
		6114d25accb3037b  ac839e9d85d3534a  1f12f6a76bce1567  32d25e21d07c94f5  c6aa0d87aa813055  
		0a6f9051c1c68397  621e35e9d52584fd  65fefbe53e15755d  38b4c9b563158040  8feae07039e068a8  



		-Iota-

		2f17d56e965bfd05  8ec3635270ef391f  3c45257d46ad786c  609892fd2450fc68  0b3703fa4bd8a702  
		d084da87517328b7  2ee1a1230640c8a9  9173b5f0b8b8617e  4cdd7380ef74f56d  c0a07cd9b06e71c3  
		ad539ed82a65cc7b  e39f714fde20637d  1e53f043aa3e6711  2f880b92a9257787  5c400590f83f67ec  
		6114d25accb3037b  ac839e9d85d3534a  1f12f6a76bce1567  32d25e21d07c94f5  c6aa0d87aa813055  
		0a6f9051c1c68397  621e35e9d52584fd  65fefbe53e15755d  38b4c9b563158040  8feae07039e068a8  



	--Round 11--

		-Teta-

		ebc072bff6419e2c  246a6b7093379c49  a233c7c01c04e97e  143ed1f8047131f0  71ebd8f45ac1ff7f  
		14537d5631694b9e  8448a901e5986dff  0f05574de211f06c  387b3085cf5538f5  ba7ca7d7a17729be  
		698439094a7faf52  4936796d3df8c62b  802512fef097f603  5b2e48978904ba1f  269cde9ee9263f91  
		a5c3758baca96052  062a96bf660bf61c  8164141a31678475  46741d24f05d596d  bc76d689bb986828  
		ceb83780a1dce0be  c8b73dcb36fd21ab  fb88195864bce44f  4c128ab043344dd8  f5363b7e28f930d5  



		-Rho-

		ebc072bff6419e2c  48d4d6e1266f3892  a88cf1f007013a5f  8047131f0143ed1f  a2d60ffbfb8f5ec7  
		1694b9e14537d563  86dff8448a901e59  c155d378847c1b03  7a9c3d9842e7aa9c  7d7a17729beba7ca  
		4c21c84a53fd7a93  d9e5b4f7e318ad24  bfb01c012897f784  2f1209743eb65c91  931fc8934e6f4f74  
		52c0a54b86eb1759  7ec380c552d7ecc1  0a0d18b3c23ac0b2  a49e0bab2da8ce83  76d689bb986828bc  
		de02877382fb3ae0  22dcf72cdbf486af  ff71032b0c979c89  d84c128ab043344d  8edf8a3e4c357d4d  



		-Pi-

		ebc072bff6419e2c  86dff8448a901e59  bfb01c012897f784  a49e0bab2da8ce83  8edf8a3e4c357d4d  
		8047131f0143ed1f  7d7a17729beba7ca  4c21c84a53fd7a93  7ec380c552d7ecc1  ff71032b0c979c89  
		48d4d6e1266f3892  c155d378847c1b03  2f1209743eb65c91  76d689bb986828bc  de02877382fb3ae0  
		a2d60ffbfb8f5ec7  1694b9e14537d563  d9e5b4f7e318ad24  0a0d18b3c23ac0b2  d84c128ab043344d  
		a88cf1f007013a5f  7a9c3d9842e7aa9c  931fc8934e6f4f74  52c0a54b86eb1759  22dcf72cdbf486af  



		-Chi-

		d2e076bed6467fa8  86d1fbee8fb8165a  b5f19c156882c6c8  c59e7b2a9fe84ca3  8ac0027e44a57d1c  
		8046db174157b50e  4fb817f79be9238a  cd11cb605ffd6a9b  7ec590d153978dd7  8249074b963f9e49  
		66d6dee51ced7c02  919153f304343b2f  a7120f343c254ed1  7602d93bbc6c28ae  5f03866b02eb39e1  
		6bb70bed598776c3  149cb1e1451595f1  09a5b6ffd3599969  289f15c289b68a30  cc4ca28ab473b56d  
		298f31f30b097f3f  3a5c18d0c267ba95  b3039ab7177bcfd2  dac0a59b82ea2f09  70ccfb249b12062f  



		-Iota-

		d2e076be56467fa2  86d1fbee8fb8165a  b5f19c156882c6c8  c59e7b2a9fe84ca3  8ac0027e44a57d1c  
		8046db174157b50e  4fb817f79be9238a  cd11cb605ffd6a9b  7ec590d153978dd7  8249074b963f9e49  
		66d6dee51ced7c02  919153f304343b2f  a7120f343c254ed1  7602d93bbc6c28ae  5f03866b02eb39e1  
		6bb70bed598776c3  149cb1e1451595f1  09a5b6ffd3599969  289f15c289b68a30  cc4ca28ab473b56d  
		298f31f30b097f3f  3a5c18d0c267ba95  b3039ab7177bcfd2  dac0a59b82ea2f09  70ccfb249b12062f  



	--Round 12--

		-Teta-

		d59a81f987785562  3a315aaf483bc17a  bdc48ffc090b7e95  76dfbac2aeb02b77  595612438d0f4f5b  
		873c2c5090699fce  f358b6b65c6af4aa  c524d8893e74d2c6  cd84513962cfea03  51df17765f95ac0e  
		61ac29a2cdd356c2  2d71f2b2c3b7ec0f  af271cdd5dacf68c  c54318d38d344f7a  8c959656cb410ba6  
		6ccdfcaa88b95c03  a87c10a0829642d1  0190a516b2d02134  9bded42ab8eeede4  1fdab2b77dd9872a  
		2ef5c6b4da3755ff  86bcb99105e46db5  bb36895e76f2778f  69816473b3b248dd  a35aeb1952b83468  



		-Rho-

		d59a81f987785562  7462b55e907782f4  6f7123ff0242dfa5  2aeb02b7776dfbac  1c687a7adacab092  
		0699fce873c2c509  af4aaf358b6b65c6  4936224f9d34b1b1  01e6c2289cb167f5  7765f95ac0e51df1  
		0d614d166e9ab613  c7cacb0edfb03cb5  67b4657938e6eaed  a71a689ef58a8631  a085d3464acb2b65  
		72b806d99bf95511  c85a350f82141052  528b5968109a00c8  85571dddbc937bda  dab2b77dd9872a1f  
		1ad368dd57fcbbd7  1af2e6441791b6d6  f766d12bcede4ef1  dd69816473b3b248  bac654ae0d1a28d6  



		-Pi-

		d59a81f987785562  af4aaf358b6b65c6  67b4657938e6eaed  85571dddbc937bda  bac654ae0d1a28d6  
		2aeb02b7776dfbac  7765f95ac0e51df1  0d614d166e9ab613  c85a350f82141052  f766d12bcede4ef1  
		7462b55e907782f4  4936224f9d34b1b1  a71a689ef58a8631  dab2b77dd9872a1f  1ad368dd57fcbbd7  
		1c687a7adacab092  0699fce873c2c509  c7cacb0edfb03cb5  528b5968109a00c8  dd69816473b3b248  
		6f7123ff0242dfa5  01e6c2289cb167f5  a085d3464acb2b65  72b806d99bf95511  1af2e6441791b6d6  



		-Chi-

		952ec1b1b7fcdf4b  2f09b7b10f7a74d4  5d34255b39eeeae9  c04f9c8c3ef32efa  90867aaa05190852  
		22eb06b3597759ae  b77fc95340e11db1  3a458d362250f8b2  c0d3379bb335a15e  a26228634e5e4aa0  
		d26afdcef0fd84f4  1196b52e953199bf  a75b201ef3f217f1  be92227f59842a3f  13c76adc5afc8ad6  
		dd2a797c56fa8826  1698ec8873c8c541  4aaa4b0abc918eb5  528b237298d2005a  dff805e452b3f741  
		cf7032b94008d7a5  53dec6b10d8133e5  a8c733424ecb89a3  17b907629bbb1c30  1a7426448b209686  



		-Iota-

		952ec1b137fc5fc0  2f09b7b10f7a74d4  5d34255b39eeeae9  c04f9c8c3ef32efa  90867aaa05190852  
		22eb06b3597759ae  b77fc95340e11db1  3a458d362250f8b2  c0d3379bb335a15e  a26228634e5e4aa0  
		d26afdcef0fd84f4  1196b52e953199bf  a75b201ef3f217f1  be92227f59842a3f  13c76adc5afc8ad6  
		dd2a797c56fa8826  1698ec8873c8c541  4aaa4b0abc918eb5  528b237298d2005a  dff805e452b3f741  
		cf7032b94008d7a5  53dec6b10d8133e5  a8c733424ecb89a3  17b907629bbb1c30  1a7426448b209686  



	--Round 13--

		-Teta-

		e8cc19efb612fade  1c7326ceb3d2acb5  67eb9e5f335a9f74  2b565bdcb4b47f81  845035c1c33b0b91  
		5f09deedd899fcb0  8405582cfc49c5d0  009a363228e48d2f  2bcaf0cb3972f025  b6b46708887c4963  
		af882590711321ea  22ec2451299941de  9d849b1af946626c  558be52fd3c37b44  071125b79cde8915  
		a0c8a122d7142d38  25e27df7cf601d20  7075f00eb625fb28  b992e42212955121  cb2e4a8f9491f482  
		b292eae7c1e672bb  60a457ceb129eb84  92188846447ffc3e  fca0c03211fc4d4b  0ea2692f4d029545  



		-Rho-

		e8cc19efb612fade  38e64d9d67a5596a  19fae797ccd6a7dd  cb4b47f812b565bd  0e19d85c8c2281ae  
		899fcb05f09deedd  9c5d08405582cfc4  268d8c8a39234bc0  1295e578659cb978  708887c4963b6b46  
		7c412c8388990f55  b09144a66507788b  331364ec24d8d7ca  5fa786f688ab17ca  6f448a838892dbce  
		285a7141914245ae  03a404bc4fbef9ec  f8075b12fd94383a  844252aa2437325c  2e4a8f9491f482cb  
		ab9f0799caeeca4b  82915f3ac4a7ae11  d2431108c88fff87  4bfca0c03211fc4d  9a4bd340a55143a8  



		-Pi-

		e8cc19efb612fade  9c5d08405582cfc4  331364ec24d8d7ca  844252aa2437325c  9a4bd340a55143a8  
		cb4b47f812b565bd  708887c4963b6b46  7c412c8388990f55  03a404bc4fbef9ec  d2431108c88fff87  
		38e64d9d67a5596a  268d8c8a39234bc0  5fa786f688ab17ca  2e4a8f9491f482cb  ab9f0799caeeca4b  
		0e19d85c8c2281ae  899fcb05f09deedd  b09144a66507788b  f8075b12fd94383a  4bfca0c03211fc4d  
		19fae797ccd6a7dd  1295e578659cb978  6f448a838892dbce  285a7141914245ae  82915f3ac4a7ae11  



		-Chi-

		cbce7d43964aead4  181d1a4255a5efd0  291ae5aca598966a  e4c65a0536358a0a  8e5ad340e4d146a8  
		c70a6ffb1a3561ac  732c87f8d11d9bee  ac023d8308980956  0aac424c5d8ef9d4  e2c3910c4c85f5c5  
		61c44fe9e72d4d60  06c5858a2877cbc1  de3286ffc2a15fca  3e2ac790b4f593eb  ad96879bd2ecc8cb  
		3e19dcfe892091ac  c199d015680deeed  b369e4666706bcce  fc06030e71b63998  ca7aa3c1428c921c  
		74baed1444d4e55b  128f943874dcbd58  edc584b9cc3771df  3130d1c499124462  80945f52e5afb631  



		-Iota-

		4bce7d43964aea5f  181d1a4255a5efd0  291ae5aca598966a  e4c65a0536358a0a  8e5ad340e4d146a8  
		c70a6ffb1a3561ac  732c87f8d11d9bee  ac023d8308980956  0aac424c5d8ef9d4  e2c3910c4c85f5c5  
		61c44fe9e72d4d60  06c5858a2877cbc1  de3286ffc2a15fca  3e2ac790b4f593eb  ad96879bd2ecc8cb  
		3e19dcfe892091ac  c199d015680deeed  b369e4666706bcce  fc06030e71b63998  ca7aa3c1428c921c  
		74baed1444d4e55b  128f943874dcbd58  edc584b9cc3771df  3130d1c499124462  80945f52e5afb631  



	--Round 14--

		-Teta-

		bdebfc3c2bec6d41  b4b20ae67a23467a  ad14a3977a5341be  f6821683499338fa  dc6a07249e76bfae  
		312fee84a793e6b2  df83975cfe9b3244  280c7bb8d753de82  18e80eca22284b24  b0f3456836220cc3  
		97e1ce965a8bca7e  aa6a952e07f1626b  5a3cc0c41d6a881e  2c6e8b16cb53211b  ffa653ffa84b31cd  
		c83c5d81348616b2  6d36c0b1478b4747  3767a25db8cd6b1a  ee424f880e108b68  984a77a5382b6b1a  
		829f6c6bf9726245  be20849c5b5a14f2  69cbc28213fca60b  23749d42e6b4f692  d2a48b369f084f37  



		-Rho-

		bdebfc3c2bec6d41  696415ccf4468cf5  ab4528e5de94d06f  3499338faf682168  24f3b5fd76e35039  
		793e6b2312fee84a  b3244df83975cfe9  031eee35d4f7a08a  920c740765111425  56836220cc3b0f34  
		bf0e74b2d45e53f4  aa54b81fc589aea9  5440f2d1e60620eb  2d96a6423658dd16  2598e6ffd329ffd4  
		0c2d659078bb0269  68e8eda6d81628f1  d12edc66b58d1bb3  f101c2116d1dc849  4a77a5382b6b1a98  
		b1afe5c989160a7d  f88212716d6853ca  6d397850427f94c1  9223749d42e6b4f6  22cda7c213cdf4a9  



		-Pi-

		bdebfc3c2bec6d41  b3244df83975cfe9  5440f2d1e60620eb  f101c2116d1dc849  22cda7c213cdf4a9  
		3499338faf682168  56836220cc3b0f34  bf0e74b2d45e53f4  68e8eda6d81628f1  6d397850427f94c1  
		696415ccf4468cf5  031eee35d4f7a08a  2d96a6423658dd16  4a77a5382b6b1a98  b1afe5c989160a7d  
		24f3b5fd76e35039  793e6b2312fee84a  aa54b81fc589aea9  d12edc66b58d1bb3  9223749d42e6b4f6  
		ab4528e5de94d06f  920c740765111425  2598e6ffd329ffd4  0c2d659078bb0269  f88212716d6853ca  



		-Chi-

		f9ab4e3dedee4d43  12254df8306c07e9  568cd713f4c6144b  6c239a2d453dc109  20c9a60203dc7601  
		9d95271dbf2c71a8  1663eb24c43b2735  ba1f64e2d637c7f4  7868ee29751609d9  2f3b3870026c9ad5  
		45e4158ed64ed1e1  417fef0dddd4a202  9c1ee683b64cdd73  0237b53c5f2b9e18  b3b50ff889a72a77  
		a6b325e1b3e25698  28142f4322faf958  a855988687eb0aed  f5fe5d06818c5bba  cb2f3e9f42fa1cb4  
		8ed5aa1d4cbc3bbf  9a2975074d83140c  d51af49ed669ae56  0f684d14ea2f824c  e88a46734c6957ca  



		-Iota-

		79ab4e3dedeecdca  12254df8306c07e9  568cd713f4c6144b  6c239a2d453dc109  20c9a60203dc7601  
		9d95271dbf2c71a8  1663eb24c43b2735  ba1f64e2d637c7f4  7868ee29751609d9  2f3b3870026c9ad5  
		45e4158ed64ed1e1  417fef0dddd4a202  9c1ee683b64cdd73  0237b53c5f2b9e18  b3b50ff889a72a77  
		a6b325e1b3e25698  28142f4322faf958  a855988687eb0aed  f5fe5d06818c5bba  cb2f3e9f42fa1cb4  
		8ed5aa1d4cbc3bbf  9a2975074d83140c  d51af49ed669ae56  0f684d14ea2f824c  e88a46734c6957ca  



	--Round 15--

		-Teta-

		08418071e69e9f02  801dcc7fc1c153a3  785d66d2bb7b65bc  5e24718a8d0b70c5  df5a918cf0dbf876  
		ec7fe951b45c2360  845b6aa33596737f  94ced523998ab603  4a6f058ebd20b815  d0a80ffef16b14a2  
		340edbc2dd3e8329  d3476e8a2c79f648  b2cf5742f9f1ac84  30305e9b971d2fd4  4c2638767aa0a400  
		d759ebadb8920450  ba2caec4d357ad12  86842947c8567b1a  c7f9b6a149baea76  34bc0911b1fd92c3  
		ff3f645147cc6977  0811f480bc2e4046  fbcb455f99d4dfa1  3d6fa6b322193380  171971fdbf6ed9bd  



		-Rho-

		08418071e69e9f02  003b98ff8382a747  1e1759b4aeded96f  a8d0b70c55e24718  6786dfc3b6fad48c  
		45c2360ec7fe951b  6737f845b6aa3359  33b548e662ad80e5  0aa53782c75e905c  ffef16b14a2d0a80  
		a076de16e9f41949  1dba28b1e7d9234d  8d6425967aba17cf  372e3a5fa86060bd  50520026131c3b3d  
		2408a1aeb3d75b71  f5a2574595d89a6a  14a3e42b3d8d4342  d429375d4ed8ff36  bc0911b1fd92c334  
		91451f31a5dffcfd  2047d202f0b90118  3f7968abf33a9bf4  803d6fa6b3221933  5c7f6fdbb66f45c6  



		-Pi-

		08418071e69e9f02  6737f845b6aa3359  8d6425967aba17cf  d429375d4ed8ff36  5c7f6fdbb66f45c6  
		a8d0b70c55e24718  ffef16b14a2d0a80  a076de16e9f41949  f5a2574595d89a6a  3f7968abf33a9bf4  
		003b98ff8382a747  33b548e662ad80e5  372e3a5fa86060bd  bc0911b1fd92c334  91451f31a5dffcfd  
		6786dfc3b6fad48c  45c2360ec7fe951b  1dba28b1e7d9234d  14a3e42b3d8d4342  803d6fa6b3221933  
		1e1759b4aeded96f  0aa53782c75e905c  50520026131c3b3d  2408a1aeb3d75b71  2047d202f0b90118  



		-Chi-

		800185e3ae8e9b84  373eea0cb2eadb69  85326d14ca9d170f  d429b77d0e486536  3b4917dfa64f659f  
		a8c07f0af4325651  aa6f17f05e2588a2  aa2ff6bc8bd618dd  7522c0419118de62  6856681af9379374  
		0431aae60bc2c75f  bbb44946373f03e5  366a345fa82d5c74  bc33917fff92c036  a2c15f31c5f2fc5d  
		7fbed77296fbf6c8  45c3f204dffad519  9da6233565fb3b7c  7321746a395587ce  807d4faaf2261820  
		4e455990bedef24e  2ead960a679dd01c  5015522653343b35  3a18a81abd918316  20e7f400b1b90108  



		-Iota-

		000185e3ae8e1b87  373eea0cb2eadb69  85326d14ca9d170f  d429b77d0e486536  3b4917dfa64f659f  
		a8c07f0af4325651  aa6f17f05e2588a2  aa2ff6bc8bd618dd  7522c0419118de62  6856681af9379374  
		0431aae60bc2c75f  bbb44946373f03e5  366a345fa82d5c74  bc33917fff92c036  a2c15f31c5f2fc5d  
		7fbed77296fbf6c8  45c3f204dffad519  9da6233565fb3b7c  7321746a395587ce  807d4faaf2261820  
		4e455990bedef24e  2ead960a679dd01c  5015522653343b35  3a18a81abd918316  20e7f400b1b90108  



	--Round 16--

		-Teta-

		ca52bfd5b0b5a24f  03bc892874e3f2b9  60bbc9c76106bd50  a2645f2463cb11e5  555f9036b0fe063a  
		6293453cea09ef99  9eed74d4982ca172  4fa6526f204db282  036f2818fc9baab1  0640eff3ef86f0d1  
		ce6290d015f97e97  8f362a62f1362a35  d3e3908c03b6f62b  ca7e79269211b4e5  ccd7d8d8d3439ff8  
		b5eded4488c04f00  7141912019f3fcc9  782f87e6ce609123  056c9c3354d6f31d  ee6bc843e4977b85  
		841663a6a0e54b86  1a2ff52ea194f9cc  b59cf6f5f8af916a  4c554043d012f7c5  4ef173e9a70862ad  



		-Rho-

		ca52bfd5b0b5a24f  07791250e9c7e572  182ef271d841af54  463cb11e5a2645f2  b587f031d2aafc81  
		a09ef996293453ce  ca1729eed74d4982  e9949bc8136ca093  5881b7940c7e4dd5  ff3ef86f0d10640e  
		73148680afcbf4be  d8a98bc4d8a8d63c  b7b15e9f1c84601d  4d242369cb94fcf2  a1cffc666bec6c69  
		809e016bdbda8911  7f992e283224033e  c3f367304891bc17  866a9ade63a0ad93  6bc843e4977b85ee  
		8e9a83952e1a1059  68bfd4ba8653e730  56b39edebf15f22d  c54c554043d012f7  5cfa69c218ab53bc  



		-Pi-

		ca52bfd5b0b5a24f  ca1729eed74d4982  b7b15e9f1c84601d  866a9ade63a0ad93  5cfa69c218ab53bc  
		463cb11e5a2645f2  ff3ef86f0d10640e  73148680afcbf4be  7f992e283224033e  56b39edebf15f22d  
		07791250e9c7e572  e9949bc8136ca093  4d242369cb94fcf2  6bc843e4977b85ee  8e9a83952e1a1059  
		b587f031d2aafc81  a09ef996293453ce  d8a98bc4d8a8d63c  c3f367304891bc17  c54c554043d012f7  
		182ef271d841af54  5881b7940c7e4dd5  a1cffc666bec6c69  809e016bdbda8911  68bfd4ba8653e730  



		-Chi-

		fff2e9c4b8358252  ca5da9aeb46dc400  ef213f9f048f3231  046a0ccbc3b40dd0  5cff69e85fe31a3c  
		463cb79ef8edd542  f3b7d0471d34670e  7336165622da04bf  7f950f28720606ec  efb1d6bfba05d221  
		035932712157b912  cb5cdb4c0707a19f  c936a378e394ece3  6aa953a456be60cc  661e0a1d3c3210d8  
		eda6f271022278b1  a3cc9da629257bcd  dca59b84dbe8d4dc  f370c701d8bb5017  c5545cc66ac411b9  
		b960ba13bbc18f7c  5891b69d9c6cccc5  c9ee28f66fed0a49  909e232a83da8155  283ed13e826da7b1  



		-Iota-

		7ff2e9c4b8350250  ca5da9aeb46dc400  ef213f9f048f3231  046a0ccbc3b40dd0  5cff69e85fe31a3c  
		463cb79ef8edd542  f3b7d0471d34670e  7336165622da04bf  7f950f28720606ec  efb1d6bfba05d221  
		035932712157b912  cb5cdb4c0707a19f  c936a378e394ece3  6aa953a456be60cc  661e0a1d3c3210d8  
		eda6f271022278b1  a3cc9da629257bcd  dca59b84dbe8d4dc  f370c701d8bb5017  c5545cc66ac411b9  
		b960ba13bbc18f7c  5891b69d9c6cccc5  c9ee28f66fed0a49  909e232a83da8155  283ed13e826da7b1  



	--Round 17--

		-Teta-

		541fc24abf6707af  24d8fe618f89543d  03bbded86743f2cc  3474446cd08ad4b2  f2e5951753579314  
		6dd19c10ffbfd0bd  1d32878826d0f733  9facf7114116c442  4f8b478f6138df8e  41ab2a40b6b15b09  
		28b419ff2605bced  25d98c833ce331a2  25ac423f80582c1e  5ab71b034580b9ae  c804f6e2308699f0  
		c64bd9ff05707d4e  4d49ca6912c1ebf0  303f7ac3b8241421  c36e8fa6cb858975  6b4ea03966709891  
		928d919dbc938a83  b614e152a7885cf8  2574c9b10c21cab4  a0806b8d90e45837  86242dc18ed92e99  



		-Rho-

		541fc24abf6707af  49b1fcc31f12a87a  00eef7b619d0fcb3  cd08ad4b23474446  ba9abc98a7972ca8  
		fbfd0bd6dd19c10f  0f7331d32878826d  eb3dc45045b110a7  c727c5a3c7b09c6f  a40b6b15b0941ab2  
		45a0cff9302de769  66320cf38cc68897  c160f12d6211fc02  068b01735cb56e36  434cf864027b7118  
		e0fa9d8c97b3fe0a  3d7e09a9394d2258  bd61dc120a10981f  f4d970b12eb86dd1  4ea039667098916b  
		4676f24e2a0e4a36  d853854a9e2173e2  84ae993621843956  37a0806b8d90e458  0b7063b64ba66189  



		-Pi-

		541fc24abf6707af  0f7331d32878826d  c160f12d6211fc02  f4d970b12eb86dd1  0b7063b64ba66189  
		cd08ad4b23474446  a40b6b15b0941ab2  45a0cff9302de769  3d7e09a9394d2258  84ae993621843956  
		49b1fcc31f12a87a  eb3dc45045b110a7  068b01735cb56e36  4ea039667098916b  4676f24e2a0e4a36  
		ba9abc98a7972ca8  fbfd0bd6dd19c10f  66320cf38cc68897  bd61dc120a10981f  37a0806b8d90e458  
		00eef7b619d0fcb3  c727c5a3c7b09c6f  434cf864027b7118  e0fa9d8c97b3fe0a  d853854a9e2173e2  



		-Chi-

		941f0266fd667bad  3bea314324d083bc  ca40f22b2317fc0a  a0d6f0f99af96bf7  001052274bbee1c9  
		8ca829a3236ea10f  9c556b15b9d41aa2  c5205fef30adfe6f  747e2de03b0e6658  a4addb22b11423e6  
		4d33fde00716c66a  a31dfc5465b981ee  06ddc37b56b32422  472135e765883123  e47af25e6aaf5ab3  
		be98b8b9a7512438  62bcdbd6df09d107  64b20c9a0946ecd7  357be082281790bf  76c5832dd598255f  
		00a6cff2199b9da3  6795c02b5230126d  5b4df8260a7b70f8  e056ef389663721b  1f52854b580173ae  



		-Iota-

		141f0266fd667b2d  3bea314324d083bc  ca40f22b2317fc0a  a0d6f0f99af96bf7  001052274bbee1c9  
		8ca829a3236ea10f  9c556b15b9d41aa2  c5205fef30adfe6f  747e2de03b0e6658  a4addb22b11423e6  
		4d33fde00716c66a  a31dfc5465b981ee  06ddc37b56b32422  472135e765883123  e47af25e6aaf5ab3  
		be98b8b9a7512438  62bcdbd6df09d107  64b20c9a0946ecd7  357be082281790bf  76c5832dd598255f  
		00a6cff2199b9da3  6795c02b5230126d  5b4df8260a7b70f8  e056ef389663721b  1f52854b580173ae  



	--Round 18--

		-Teta-

		3e5804a50bf30274  3cd5a42bcf6d52bf  4682815ca2849bc0  c4349080e7f44d45  91c1f7bffe1c7447  
		a6ef2f60d5fbd856  9b6afe7d5269cba1  49e22c98b13e99a5  109c4d99460340ea  357c7eba04b6b668  
		6774fb23f183bf33  a422693c8e0450ed  8a1fb00cd72043e8  23c3559e18851791  75ab57c6df0dcf3d  
		94dfbe7a51c45d61  65834ebe34b40004  e8707fed88d58b1d  519980fb551ab60d  e71426b5603ab0d1  
		2ae1c931ef0ee4fa  60aa5543b98dc36e  d78f8b518be81732  84b48f41eb6e54a9  8e8320d3eda3e620  



		-Rho-

		3e5804a50bf30274  79ab48579edaa57e  11a0a05728a126f0  0e7f44d45c434908  fff0e3a23c8e0fbd  
		5fbd856a6ef2f60d  9cba19b6afe7d526  788b262c4fa66952  75084e26cca301a0  eba04b6b668357c7  
		3ba7d91f8c1df99b  89a4f2381143b690  021f4450fd8066b9  3c310a2f224786ab  86e79ebad5abe36f  
		88bac329bf7cf4a3  80008cb069d7c696  3ff6c46ac58ef438  1f6aa356c1aa3330  1426b5603ab0d1e7  
		24c7bc3b93e8ab87  82a9550ee6370db9  5af1f16a317d02e6  a984b48f41eb6e54  c834fb68f98823a0  



		-Pi-

		3e5804a50bf30274  9cba19b6afe7d526  021f4450fd8066b9  1f6aa356c1aa3330  c834fb68f98823a0  
		0e7f44d45c434908  eba04b6b668357c7  3ba7d91f8c1df99b  80008cb069d7c696  5af1f16a317d02e6  
		79ab48579edaa57e  788b262c4fa66952  3c310a2f224786ab  1426b5603ab0d1e7  24c7bc3b93e8ab87  
		fff0e3a23c8e0fbd  5fbd856a6ef2f60d  89a4f2381143b690  3ff6c46ac58ef438  a984b48f41eb6e54  
		11a0a05728a126f0  75084e26cca301a0  86e79ebad5abe36f  88bac329bf7cf4a3  82a9550ee6370db9  



		-Chi-

		3c5d40e55bf320ed  81dabab0afcdc426  c20b1c78c5806639  2922a7d3c3d93364  4896e27a5d8cf6a2  
		1e78d4c0d45fe110  6ba04fcb074151c3  6156a8559c35f9fb  840e882425d58f9e  bb71fa4113fd1421  
		7d9b4054be9b23d7  788d936c57163816  1cf00234a30facab  4d0ef52436a2d59f  24c79a13d2cce387  
		7ff091b22d8f0f2d  69ef8128aa7eb625  09a4c2bd1122bcd4  6986874af98af591  a989b0c7039b9e54  
		934730cf39a9c4bf  7d100f27e6f71520  84e68abc95a8ea77  99ba6378b7fcd6e3  e6a11b2e22350cb9  



		-Iota-

		3c5d40e55bf3a0e7  81dabab0afcdc426  c20b1c78c5806639  2922a7d3c3d93364  4896e27a5d8cf6a2  
		1e78d4c0d45fe110  6ba04fcb074151c3  6156a8559c35f9fb  840e882425d58f9e  bb71fa4113fd1421  
		7d9b4054be9b23d7  788d936c57163816  1cf00234a30facab  4d0ef52436a2d59f  24c79a13d2cce387  
		7ff091b22d8f0f2d  69ef8128aa7eb625  09a4c2bd1122bcd4  6986874af98af591  a989b0c7039b9e54  
		934730cf39a9c4bf  7d100f27e6f71520  84e68abc95a8ea77  99ba6378b7fcd6e3  e6a11b2e22350cb9  



	--Round 19--

		-Teta-

		a844b91580c62ee3  570c338c76bca600  643f89a34b23fce1  2bdd0a48c7ce717d  3e9a36838977efd0  
		8a612d300f6a6f14  bd76c6f7de3033e5  c7623d8e12966323  86f125bf21c2cd87  cd7d2eb8c7060d53  
		e982b9a465aeadd3  ae5b1a508e675a30  bac497ef2dac3673  4ff158bf32b59786  52cb4eea0637faf5  
		ebe96842f6ba8129  bf390814730fd403  af9057669f81260c  6b792ad1fd9db788  df85643ed7608726  
		075ec93fe29c4abb  abc6861b3f867706  22d21f671b0b70af  9b45cee3b3eb94fa  90adcfd7f6ce15cb  



		-Rho-

		a844b91580c62ee3  ae186718ed794c00  590fe268d2c8ff38  8c7ce717d2bdd0a4  1c4bbf7e81f4d1b4  
		f6a6f148a612d300  033e5bd76c6f7de3  d88f6384a598c8f1  c3c37892df90e166  eb8c7060d53cd7d2  
		4c15cd232d756e9f  6c6942399d68c2b9  61b39dd624bf796d  7e656b2f0c9fe2b1  1bfd7aa965a77503  
		750253d7d2d085ed  fa8077e721028e61  2bb34fc0930657c8  5a3fb3b6f10d6f25  85643ed7608726df  
		24ff8a712aec1d7b  af1a186cfe19dc1a  e45a43ece3616e15  fa9b45cee3b3eb94  73f5fdb38572e42b  



		-Pi-

		a844b91580c62ee3  033e5bd76c6f7de3  61b39dd624bf796d  5a3fb3b6f10d6f25  73f5fdb38572e42b  
		8c7ce717d2bdd0a4  eb8c7060d53cd7d2  4c15cd232d756e9f  fa8077e721028e61  e45a43ece3616e15  
		ae186718ed794c00  d88f6384a598c8f1  7e656b2f0c9fe2b1  85643ed7608726df  24ff8a712aec1d7b  
		1c4bbf7e81f4d1b4  f6a6f148a612d300  6c6942399d68c2b9  2bb34fc0930657c8  fa9b45cee3b3eb94  
		590fe268d2c8ff38  c3c37892df90e166  1bfd7aa965a77503  750253d7d2d085ed  af1a186cfe19dc1a  



		-Chi-

		c8c53d1580562eef  193279f7bd6f7be3  4073d1d720cdf967  d23fb3b2f18965e5  70cfbf71e95bb52b  
		886d6a14fafcf8a9  590c42a4d53e57b2  484fcd2bef140e8b  f2a4d3f4319e1ec1  87da538ce6616947  
		88786f33e57e6e00  598f7754c598ccbf  5efeeb0f06f7fb91  0f645bdfa59666df  74788af52a6c9d8a  
		1402bd4f989cd10d  f534fc88a414c640  bc614237fdd96aad  2ff3f5f0934247e8  183f05cec5b1e994  
		4133e041f2efeb39  a7c179c44dc0618a  91e5728149ae2d11  2507b1d7d210a6cd  2dda00fef309dc5c  



		-Iota-

		48c53d1500562ee5  193279f7bd6f7be3  4073d1d720cdf967  d23fb3b2f18965e5  70cfbf71e95bb52b  
		886d6a14fafcf8a9  590c42a4d53e57b2  484fcd2bef140e8b  f2a4d3f4319e1ec1  87da538ce6616947  
		88786f33e57e6e00  598f7754c598ccbf  5efeeb0f06f7fb91  0f645bdfa59666df  74788af52a6c9d8a  
		1402bd4f989cd10d  f534fc88a414c640  bc614237fdd96aad  2ff3f5f0934247e8  183f05cec5b1e994  
		4133e041f2efeb39  a7c179c44dc0618a  91e5728149ae2d11  2507b1d7d210a6cd  2dda00fef309dc5c  



	--Round 20--

		-Teta-

		68c4ccbb9b82d483  f25e9241327a6e19  4121e7e02d7747ff  c469b287ab0cc679  6e060ab726c74d05  
		a86c9bba612802cf  b260a9125a2b4248  491dfb1ce2aeb013  e4f2d2c16b1bbd5d  9913e64a29fd9169  
		a8799e9d7eaa9466  b2e39ce24a8dd945  5facdd380b4d4509  19325aeaff13c543  6ab13f33e5f065a4  
		34034ce103482b6b  1e58173e2b01d3ba  bd337400f063d435  39a5f4c5c9c7e474  06f6b0080a2d11ba  
		613211ef693b115f  4cad9272c2d57470  90b744b644149389  3351b0e288950551  3313b5383c952472  



		-Rho-

		68c4ccbb9b82d483  e4bd248264f4dc33  d04879f80b5dd1ff  7ab0cc679c469b28  b9363a682b703055  
		12802cfa86c9bba6  b4248b260a9125a2  477ec738abac04d2  aef2796960b58dde  64a29fd91699913e  
		43ccf4ebf554a335  8e73892a376516cb  6a284afd66e9c05a  d5fe278a863264b5  f832d235589f99f2  
		9056d6680699c206  3a7743cb02e7c560  ba007831ea1ade99  98b938fc8e8734be  f6b0080a2d11ba06  
		47bda4ec457d84c8  32b649cb0b55d1c1  3216e896c8829271  513351b0e2889505  ed4e0f25491c8cc4  



		-Pi-

		68c4ccbb9b82d483  b4248b260a9125a2  6a284afd66e9c05a  98b938fc8e8734be  ed4e0f25491c8cc4  
		7ab0cc679c469b28  64a29fd91699913e  43ccf4ebf554a335  3a7743cb02e7c560  3216e896c8829271  
		e4bd248264f4dc33  477ec738abac04d2  d5fe278a863264b5  f6b0080a2d11ba06  47bda4ec457d84c8  
		b9363a682b703055  12802cfa86c9bba6  8e73892a376516cb  ba007831ea1ade99  513351b0e2889505  
		d04879f80b5dd1ff  aef2796960b58dde  f832d235589f99f2  9056d6680699c206  32b649cb0b55d1c1  



		-Chi-

		22cc8c62ffea14db  24b5bb2682971106  0f6e4dfc27f1481a  9839f8661c0564bd  796e0c21490dade4  
		79fcac457d02b929  5c919cd9143ad57e  43cc5cff3d54b124  72d747aa16a3cc68  3614fb0eca1b9267  
		743d040060e6bc16  657ecf3882ad9ed0  d4f3836ec65e607d  56b008080d91e235  44ff67d4ce758408  
		3545bb681a54341c  22805ceb4ed373b6  cf4088aa37e517cf  12045279e36afec9  53b3552266011ea7  
		8048fbec1357c1df  aeb67d2166b5cfda  da92dbb651db8833  501ee6580691c238  1c0449ca6bf5ddc1  



		-Iota-

		a2cc8c627fea945a  24b5bb2682971106  0f6e4dfc27f1481a  9839f8661c0564bd  796e0c21490dade4  
		79fcac457d02b929  5c919cd9143ad57e  43cc5cff3d54b124  72d747aa16a3cc68  3614fb0eca1b9267  
		743d040060e6bc16  657ecf3882ad9ed0  d4f3836ec65e607d  56b008080d91e235  44ff67d4ce758408  
		3545bb681a54341c  22805ceb4ed373b6  cf4088aa37e517cf  12045279e36afec9  53b3552266011ea7  
		8048fbec1357c1df  aeb67d2166b5cfda  da92dbb651db8833  501ee6580691c238  1c0449ca6bf5ddc1  



	--Round 21--

		-Teta-

		c427926b47b0213e  25b25d669c1078df  628a833ade0f42fd  9ddf213127ee93d8  b32ac6827ddb12b9  
		1f17b24c45580c4d  5d967a990abdbca7  2e289239c4aabbc3  77319efd2d483b0d  fc5031adfecd2d3a  
		12d61a0958bc0972  647929789c2af709  b9174da83fa06a9a  5356d15f367a1550  8ebbad77faa33b55  
		53aea561220e8178  2387baab50541a6f  a2a4466cce1b1d28  17e28b2ed88109ac  99f79f8152d7a1fa  
		e6a3e5e52b0d74bb  afb19b617832a603  b7761570a82582d4  55f83f0f3d7a355d  d64083695f23629c  



		-Rho-

		c427926b47b0213e  4b64bacd3820f1be  58a2a0ceb783d0bf  127ee93d89ddf213  13eed895cd995634  
		5580c4d1f17b24c4  dbca75d967a990ab  8a248e712aaef0cb  86bb98cf7e96a41d  1adfecd2d3afc503  
		96b0d04ac5e04b90  e4a5e270abdc2591  0354d5c8ba6d41fd  be6cf42aa0a6ada2  519daac75dd6bbfd  
		1d02f0a75d4ac244  834de470f7556a0a  2336670d8e945152  65db10213582fc51  f79f8152d7a1fa99  
		9794ac35d2ef9a8f  bec66d85e0ca980e  96eec2ae1504b05a  5d55f83f0f3d7a35  20da57c8d8a73590  



		-Pi-

		c427926b47b0213e  dbca75d967a990ab  0354d5c8ba6d41fd  65db10213582fc51  20da57c8d8a73590  
		127ee93d89ddf213  1adfecd2d3afc503  96b0d04ac5e04b90  834de470f7556a0a  96eec2ae1504b05a  
		4b64bacd3820f1be  8a248e712aaef0cb  be6cf42aa0a6ada2  f79f8152d7a1fa99  9794ac35d2ef9a8f  
		13eed895cd995634  5580c4d1f17b24c4  e4a5e270abdc2591  2336670d8e945152  5d55f83f0f3d7a35  
		58a2a0ceb783d0bf  86bb98cf7e96a41d  519daac75dd6bbfd  1d02f0a75d4ac244  bec66d85e0ca980e  



		-Chi-

		c433126bdff4606a  bf4175f8622b2cab  035492007248407d  a1fe90023292fc7f  3b123258f8aea511  
		965ef9358d9df883  1b92c8e2e1bae509  8212d2c4c5e0dbc0  835dcd617f8c280b  9e6fc66c4726b55a  
		7f2ccac7b820fc9e  cbb78f217dafa2d2  be6cd80fa0e8ada4  bfff939affa19ba9  1794a805d0619ace  
		b3cbfab5c71d5725  5692c1dcf57b7486  b8e47a42aaf50fb4  219c678d4e145552  1955fc7f3f5f5af5  
		09a682ceb6c3cb5f  8ab9c8ef7e9ee41d  f359a7c7fd56a3f7  5d2270ed4a4b82f5  38df7584a8debc0e  



		-Iota-

		4433126bdff4e0ea  bf4175f8622b2cab  035492007248407d  a1fe90023292fc7f  3b123258f8aea511  
		965ef9358d9df883  1b92c8e2e1bae509  8212d2c4c5e0dbc0  835dcd617f8c280b  9e6fc66c4726b55a  
		7f2ccac7b820fc9e  cbb78f217dafa2d2  be6cd80fa0e8ada4  bfff939affa19ba9  1794a805d0619ace  
		b3cbfab5c71d5725  5692c1dcf57b7486  b8e47a42aaf50fb4  219c678d4e145552  1955fc7f3f5f5af5  
		09a682ceb6c3cb5f  8ab9c8ef7e9ee41d  f359a7c7fd56a3f7  5d2270ed4a4b82f5  38df7584a8debc0e  



	--Round 22--

		-Teta-

		b1ceb1b1cc2b7b43  4143a686787b6092  73de1a3b6a528b63  f3ae7ed982a1bed8  f4a858047960cc71  
		63a35aef9e42632a  e5901b9cfbeaa930  f2985affddfa10de  d10d23bacfbf6aac  51d5ac30c6e8dc3a  
		8ad1691dabff6737  35b55c5f67ffeeeb  cee65034b8f266ba  edaf7d414f92d90e  d82ec25951aff3ae  
		4636596fd4c2cc8c  a89012a2ef2b38bf  c86ef279b2efc4aa  73cc8956fe2717f5  d6ef9623be913395  
		fc5b2114a51c50f6  74bb1b9164cea824  83d32ffce54c68e9  0f729e36fa78c052  f7651fd82910d56e  



		-Rho-

		b1ceb1b1cc2b7b43  82874d0cf0f6c124  dcf7868eda94a2d8  982a1bed8f3ae7ed  23cb06638fa542c0  
		e42632a63a35aef9  aa930e5901b9cfbe  a616bff77e8437bc  56688691dd67dfb5  c30c6e8dc3a51d5a  
		568b48ed5ffb39bc  d5717d9fffbbacd6  9335d6773281a5c7  829f25b21ddb5efa  d7f9d76c17612ca8  
		8599188c6cb2dfa9  6717f51202545de5  793cd977e2556437  2adfc4e2feae7991  ef9623be913395d6  
		8452947143dbf16c  d2ec6e45933aa091  307a65ff9ca98d1d  520f729e36fa78c0  47f60a44355bbdd9  



		-Pi-

		b1ceb1b1cc2b7b43  aa930e5901b9cfbe  9335d6773281a5c7  2adfc4e2feae7991  47f60a44355bbdd9  
		982a1bed8f3ae7ed  c30c6e8dc3a51d5a  568b48ed5ffb39bc  6717f51202545de5  307a65ff9ca98d1d  
		82874d0cf0f6c124  a616bff77e8437bc  829f25b21ddb5efa  ef9623be913395d6  8452947143dbf16c  
		23cb06638fa542c0  e42632a63a35aef9  d5717d9fffbbacd6  793cd977e2556437  520f729e36fa78c0  
		dcf7868eda94a2d8  56688691dd67dfb5  d7f9d76c17612ca8  8599188c6cb2dfa9  d2ec6e45933aa091  



		-Chi-

		a0ea6197fe2b5b02  82590ed9cd9797ae  d615dc7333d0218f  9ad77553368e3b93  4de7040c34cb3965  
		8ca91b8d9360c749  e218db9fc3a1591b  46e34800c352b9a4  ef17ef1201463f05  737e01ffdc2c950f  
		820e4d0cf1ad8966  cb16bdfbfea4b6b8  82dfb1f35f133ed2  ed136ab2211795d6  a04226824ddbc7f4  
		329a4b7a4a2f42c6  cc2ab2c63a71eed8  d7725f17eb11b416  58fcdd166b506637  962b421a06ead4f9  
		5d66d7e2d89482d0  56688e11b5f50cb4  859db12d84690cb8  898a98062436dde1  d0e46e549659fdb4  



		-Iota-

		a0ea61977e2b5b03  82590ed9cd9797ae  d615dc7333d0218f  9ad77553368e3b93  4de7040c34cb3965  
		8ca91b8d9360c749  e218db9fc3a1591b  46e34800c352b9a4  ef17ef1201463f05  737e01ffdc2c950f  
		820e4d0cf1ad8966  cb16bdfbfea4b6b8  82dfb1f35f133ed2  ed136ab2211795d6  a04226824ddbc7f4  
		329a4b7a4a2f42c6  cc2ab2c63a71eed8  d7725f17eb11b416  58fcdd166b506637  962b421a06ead4f9  
		5d66d7e2d89482d0  56688e11b5f50cb4  859db12d84690cb8  898a98062436dde1  d0e46e549659fdb4  



	--Round 23--

		-Teta-

		1ad4c67cb5892d12  c2653222c2187e3a  744be3dfffb4eec2  6a39a0979d79a063  8721e6f271c9b986  
		3697bc6658c2b158  a224e764cc2eb08f  e4bd77ac0f3676e9  1ff93ad6aab1a4f5  b9b8e301992e15ec  
		3830eae73a0fff77  8b2a8100f12b5f2c  20818e5f9377f19f  1dfdbf768ae00e26  6a84c47c08d94717  
		88a4ec91818d34d7  8c168e3d35fe074c  752c60bb27757b5b  a81208d2c0a7fdc7  5ceda0e443e8541a  
		e75870091336f4c1  1654b2eaba7ae520  27c38e81480dc3f5  79644dc28fc14611  1a228caad35b7d57  



		-Rho-

		1ad4c67cb5892d12  84ca64458430fc75  9d12f8f7ffed3bb0  79d79a0636a39a09  938e4dcc34390f37  
		8c2b1583697bc665  eb08fa224e764cc2  2f5deb03cd9dba79  7a8ffc9d6b5558d2  301992e15ecb9b8e  
		c1875739d07ffbb9  aa0403c4ad7cb22c  bf8cf9040c72fc9b  ed15c01c4c3bfb7e  6ca38bb542623e04  
		1a69af1149d92303  c0e99182d1c7a6bf  305d93babdadba96  1a5814ffb8f50241  eda0e443e8541a5c  
		c0244cdbd3079d61  5952cbaae9eb9480  a4f871d02901b87e  1179644dc28fc146  a32ab4d6df55c688  



		-Pi-

		1ad4c67cb5892d12  eb08fa224e764cc2  bf8cf9040c72fc9b  1a5814ffb8f50241  a32ab4d6df55c688  
		79d79a0636a39a09  301992e15ecb9b8e  c1875739d07ffbb9  c0e99182d1c7a6bf  a4f871d02901b87e  
		84ca64458430fc75  2f5deb03cd9dba79  ed15c01c4c3bfb7e  eda0e443e8541a5c  c0244cdbd3079d61  
		938e4dcc34390f37  8c2b1583697bc665  aa0403c4ad7cb22c  305d93babdadba96  1179644dc28fc146  
		9d12f8f7ffed3bb0  7a8ffc9d6b5558d2  6ca38bb542623e04  1a69af1149d92303  5952cbaae9eb9480  



		-Chi-

		0e50c778b5899d0b  eb58fed9fef34e82  1eae59044b723813  028c56d7987d2b53  42228cd495238648  
		b851df1eb697fa38  307112635f4b9f88  e5973769f87fe3f9  99ee1b84c765a4be  a4f071316149b9f8  
		44ca64598412bd73  2ffdcf406dd9ba79  ed11c8845f387e5f  e96ac447ec647a48  eb31c7d99a8a9f69  
		b18a4f88b03d3f3f  9c7285b979facef7  ab246781ef7ef36c  b2db9a3a899db4a7  1d58744e8bcd0106  
		9932fbd7ffcf1db4  68c7d89d62cc59d1  2db1cb1fe240aa84  9e699f445fdd0833  3bdfcfa2e9fbd4c2  



		-Iota-

		8e50c77835891d03  eb58fed9fef34e82  1eae59044b723813  028c56d7987d2b53  42228cd495238648  
		b851df1eb697fa38  307112635f4b9f88  e5973769f87fe3f9  99ee1b84c765a4be  a4f071316149b9f8  
		44ca64598412bd73  2ffdcf406dd9ba79  ed11c8845f387e5f  e96ac447ec647a48  eb31c7d99a8a9f69  
		b18a4f88b03d3f3f  9c7285b979facef7  ab246781ef7ef36c  b2db9a3a899db4a7  1d58744e8bcd0106  
		9932fbd7ffcf1db4  68c7d89d62cc59d1  2db1cb1fe240aa84  9e699f445fdd0833  3bdfcfa2e9fbd4c2  



---Output from Keccak_f---

8e50c77835891d03  eb58fed9fef34e82  1eae59044b723813  028c56d7987d2b53  42228cd495238648  
b851df1eb697fa38  307112635f4b9f88  e5973769f87fe3f9  99ee1b84c765a4be  a4f071316149b9f8  
44ca64598412bd73  2ffdcf406dd9ba79  ed11c8845f387e5f  e96ac447ec647a48  eb31c7d99a8a9f69  
b18a4f88b03d3f3f  9c7285b979facef7  ab246781ef7ef36c  b2db9a3a899db4a7  1d58744e8bcd0106  
9932fbd7ffcf1db4  68c7d89d62cc59d1  2db1cb1fe240aa84  9e699f445fdd0833  3bdfcfa2e9fbd4c2  



----SQUEEZING PHASE----

---Block Extraction---

8e50c77835891d03  eb58fed9fef34e82  1eae59044b723813  028c56d7987d2b53  42228cd495238648  








------HASH------

031d893578c7508e
824ef3fed9fe58eb
1338724b0459ae1e
532b7d98d7568c02

