----ABSORBING PHASE----


---Initial Block---

0000000000017070  0000000000000000  0000000000000000  0000000000000000  0000000000000000  
0000000000000000  0000000000000000  0000000000000000  0000000000000000  0000000000000000  
0000000000000000  0000000000000000  0000000000000000  0000000000000000  0000000000000000  
0000000000000000  0000000000000000  0000000000000000  0000000000000000  0000000000000000  
0000000000000000  0000000000000000  0000000000000000  0000000000000000  0000000000000000  



---Input to Keccak_f---

0000000000017070  0000000000000000  0000000000000000  0000000000000000  0000000000000000  
0000000000000000  0000000000000000  0000000000000000  0000000000000000  0000000000000000  
0000000000000000  0000000000000000  8000000000000000  0000000000000000  0000000000000000  
0000000000000000  0000000000000000  0000000000000000  0000000000000000  0000000000000000  
0000000000000000  0000000000000000  0000000000000000  0000000000000000  0000000000000000  



---Keccak_f---

	--Round 0--

		-Teta-

		0000000000017070  0000000000017071  0000000000000000  8000000000000000  000000000002e0e0  
		0000000000000000  0000000000017071  0000000000000000  8000000000000000  000000000002e0e0  
		0000000000000000  0000000000017071  8000000000000000  8000000000000000  000000000002e0e0  
		0000000000000000  0000000000017071  0000000000000000  8000000000000000  000000000002e0e0  
		0000000000000000  0000000000017071  0000000000000000  8000000000000000  000000000002e0e0  



		-Rho-

		0000000000017070  000000000002e0e2  0000000000000000  0000000008000000  0000170700000000  
		0000000000000000  1707100000000000  0000000000000000  0040000000000000  0000002e0e000000  
		0000000000000000  0000000005c1c400  0000040000000000  0000000001000000  0170700000000000  
		0000000000000000  2e0e200000000000  0000000000000000  0000000000100000  0000000002e0e000  
		0000000000000000  000000000005c1c4  0000000000000000  0080000000000000  00000000b8380000  



		-Pi-

		0000000000017070  1707100000000000  0000040000000000  0000000000100000  00000000b8380000  
		0000000008000000  0000002e0e000000  0000000000000000  2e0e200000000000  0000000000000000  
		000000000002e0e2  0000000000000000  0000000001000000  0000000002e0e000  0000000000000000  
		0000170700000000  0000000000000000  0000000005c1c400  0000000000000000  0080000000000000  
		0000000000000000  0040000000000000  0170700000000000  0000000000000000  000000000005c1c4  



		-Chi-

		0000040000017070  1707100000100000  00000400b8280000  0000000000117070  17071000b8380000  
		0000000008000000  2e0e202e0e000000  0000000000000000  2e0e200008000000  0000002e06000000  
		000000000102e0e2  0000000002e0e000  0000000001000000  0000000002e200e2  0000000000000000  
		0000170705c1c400  0000000000000000  0080000005c1c400  0000170700000000  0080000000000000  
		0130700000000000  0040000000000000  017070000005c1c4  0000000000000000  004000000005c1c4  



		-Iota-

		0000040000017071  1707100000100000  00000400b8280000  0000000000117070  17071000b8380000  
		0000000008000000  2e0e202e0e000000  0000000000000000  2e0e200008000000  0000002e06000000  
		000000000102e0e2  0000000002e0e000  0000000001000000  0000000002e200e2  0000000000000000  
		0000170705c1c400  0000000000000000  0080000005c1c400  0000170700000000  0080000000000000  
		0130700000000000  0040000000000000  017070000005c1c4  0000000000000000  004000000005c1c4  



	--Round 1--

		-Teta-

		65557472a7dd71b5  15d79b06750a5f1b  65555a20a13e0124  2e7e545dc086f63c  3b69e109ab4fd9b4  
		65557072afdc01c4  2cdeab287b1a5f1b  65555e2019160124  0070745dc897864c  2c6ef1271577d9b4  
		65557072a6dee126  02d08b0677fabf1b  65555e2018160124  2e7e545dc27586ae  2c6ef1091377d9b4  
		65556775a21dc5c4  02d08b06751a5f1b  65d55e201cd7c524  2e7e435ac097864c  2ceef1091377d9b4  
		64650072a7dc01c4  02908b06751a5f1b  64252e201913c0e0  2e7e545dc097864c  2c2ef10913721870  



		-Rho-

		65557472a7dd71b5  2baf360cea14be36  19555688284f8049  dc086f63c2e7e545  4d5a7ecda1db4f08  
		fdc01c465557072a  a5f1b2cdeab287b1  5557880645804919  2600383a2ee44bc3  1271577d9b42c6ef  
		2aab839536f70933  422c19dfeafc6c0b  b009232aaaf100c0  bb84eb0d5c5cfca8  bbecda1637788489  
		3b8b88caaaceeb44  4be3605a1160cea3  af100e6be29232ea  6b5812f0c985cfc8  eef1091377d9b42c  
		01ca9f7007119194  0a422c19d4697c6c  0c84a5c40322781c  4c2e7e545dc09786  bc4244dc861c0b0b  



		-Pi-

		65557472a7dd71b5  a5f1b2cdeab287b1  b009232aaaf100c0  6b5812f0c985cfc8  bc4244dc861c0b0b  
		dc086f63c2e7e545  1271577d9b42c6ef  2aab839536f70933  4be3605a1160cea3  0c84a5c40322781c  
		2baf360cea14be36  5557880645804919  bb84eb0d5c5cfca8  eef1091377d9b42c  01ca9f7007119194  
		4d5a7ecda1db4f08  fdc01c465557072a  422c19dfeafc6c0b  af100e6be29232ea  4c2e7e545dc09786  
		19555688284f8049  2600383a2ee44bc3  bbecda1637788489  3b8b88caaaceeb44  0a422c19d4697c6c  



		-Chi-

		755d7550a79c71f5  eea1a21dabb648b9  240b6726ace900c3  2a4d22d2e844bf7c  3ce2c651ce3e8d0b  
		f482efe3e652ec55  533137379a42006f  2eaf061134f5392f  9beb2a79d1a54be2  0ef5b5d81a227ab6  
		812f5505f2480a96  112688146601491d  ba8e7d6d5c5cfd38  c4d4291f9fdd9a0e  559a17720291d09d  
		4f767f540b732709  50d01a66555515ca  020269cbf7bce90f  ae400ee242897ae2  fcae7e5609c497a4  
		80b9948c39570441  260338f2a6622087  bbacfe07635990a1  2a9eda4a82c86b45  2c42042bd2c937ee  



		-Iota-

		755d7550a79cf177  eea1a21dabb648b9  240b6726ace900c3  2a4d22d2e844bf7c  3ce2c651ce3e8d0b  
		f482efe3e652ec55  533137379a42006f  2eaf061134f5392f  9beb2a79d1a54be2  0ef5b5d81a227ab6  
		812f5505f2480a96  112688146601491d  ba8e7d6d5c5cfd38  c4d4291f9fdd9a0e  559a17720291d09d  
		4f767f540b732709  50d01a66555515ca  020269cbf7bce90f  ae400ee242897ae2  fcae7e5609c497a4  
		80b9948c39570441  260338f2a6622087  bbacfe07635990a1  2a9eda4a82c86b45  2c42042bd2c937ee  



	--Round 2--

		-Teta-

		76f61483e3981f10  3297915f8b5f06b1  1d37b2b4c4d1ca2a  4d0b9448a3e00cd3  53307b90ab079bc5  
		f7298e30a2560232  8f070475baab4e67  1793d3835ccdf3c6  fcad9ce39a01f84d  612708197f1b6c78  
		828434d6b64ce4f1  cd10bb5646e80715  83b2a8ff346437d1  a3929f85d47929a1  3a48aab367a8c653  
		4cdd1e874f77c96e  8ce6292475bc5bc2  3b3ebc599f8423e6  c906b878092dc94d  937cc3976cfd816a  
		8312f55f7d53ea26  fa350bb0868b6e8f  82902b950b615a48  4dd86cd0c96cd8ea  4390b9eab7f02120  



		-Rho-

		76f61483e3981f10  652f22bf16be0d62  874decad3134728a  8a3e00cd34d0b944  85583cde2a9983dc  
		2560232f7298e30a  b4e678f070475baa  e4f4e0d7337cf185  26fe56ce71cd00fc  8197f1b6c7861270  
		1421a6b5b267278c  42ed591ba01c5734  21be8c1d9547f9a3  0ba8f2534347253f  d463299d245559b3  
		ef92dc99ba3d0e9e  8b78519cc5248eb7  5e2ccfc211f31d9f  0f0125b929b920d7  7cc3976cfd816a93  
		d57df54fa89a0c4b  e8d42ec21a2dba3f  10520572a16c2b49  ea4dd86cd0c96cd8  2e7aadfc084810e4  



		-Pi-

		76f61483e3981f10  b4e678f070475baa  21be8c1d9547f9a3  0f0125b929b920d7  2e7aadfc084810e4  
		8a3e00cd34d0b944  8197f1b6c7861270  1421a6b5b267278c  8b78519cc5248eb7  10520572a16c2b49  
		652f22bf16be0d62  e4f4e0d7337cf185  0ba8f2534347253f  7cc3976cfd816a93  d57df54fa89a0c4b  
		85583cde2a9983dc  2560232f7298e30a  42ed591ba01c5734  5e2ccfc211f31d9f  ea4dd86cd0c96cd8  
		874decad3134728a  26fe56ce71cd00fc  d463299d245559b3  ef92dc99ba3d0e9e  e8d42ec21a2dba3f  



		-Chi-

		77ee908e6698bf11  bae7595058ff5bfe  01c404599507e983  5f8535baca292fc7  ae7ac58c180f504e  
		9e1e06cc04b19cc8  0acfa0be82869a43  0423a2d7922f06c4  01545111d1b41eb3  11d3f440626a2979  
		6e2730bf56bd0958  90b7e5fb8ffcbb05  8a949250435d2177  5cc195dceba56bb3  55ad350f89dafcce  
		c7d564ceaa9d97e8  3960a5ef637beb81  e2ac493760143774  5b3ceb503be39e9b  ca6ddb4d80c90cda  
		574cc5bc35242b89  0d6e82ceebe506f0  d4270bdf2455e992  e89b1cb49b2d4e1e  c8663c805ae4ba4b  



		-Iota-

		f7ee908e66983f9b  bae7595058ff5bfe  01c404599507e983  5f8535baca292fc7  ae7ac58c180f504e  
		9e1e06cc04b19cc8  0acfa0be82869a43  0423a2d7922f06c4  01545111d1b41eb3  11d3f440626a2979  
		6e2730bf56bd0958  90b7e5fb8ffcbb05  8a949250435d2177  5cc195dceba56bb3  55ad350f89dafcce  
		c7d564ceaa9d97e8  3960a5ef637beb81  e2ac493760143774  5b3ceb503be39e9b  ca6ddb4d80c90cda  
		574cc5bc35242b89  0d6e82ceebe506f0  d4270bdf2455e992  e89b1cb49b2d4e1e  c8663c805ae4ba4b  



	--Round 3--

		-Teta-

		36c305e9f53d2361  5e59b2b3f3ba6c39  763b324be9f16acf  36628590993959c0  3151cc001ea3f6d9  
		5f3393ab97148032  ee714b5d29c3ad84  73dc94c5eed98588  68b3e13b82a468b4  8ef8fdcc64c68fee  
		af0aa5d8c51815a2  74090e1824b98cc2  fd6ba4423faba23b  352625f6b8b51db4  ca863c838f765a59  
		06f8f1a939388b12  ddde4e0cc83edc46  95537f251ce2b438  32db5b7a68f3e89c  5546d2c18665aa4d  
		966150dba6813773  e9d0692d40a03137  a3d83dcd58a36ade  817cac9ec83d3819  574d350c5c481cdc  



		-Rho-

		36c305e9f53d2361  bcb36567e774d872  dd8ecc92fa7c5ab3  0993959c03662859  00f51fb6c98a8e60  
		71480325f3393ab9  3ad84ee714b5d29c  f725317bb661621c  5a3459f09dc15234  dcc64c68fee8ef8f  
		78552ec628c0ad15  24386092e63309d0  5d11dfeb5d2211fd  ed716a3b686a4c4b  bb2d2ce5431e41c7  
		7116240df1e35272  db88dbbbc9c19907  bf928e715a1c4aa9  6f4d1e7d13865b6b  46d2c18665aa4d55  
		436e9a04ddce5985  a741a4b50280c4df  d47b07b9ab146d5b  19817cac9ec83d38  4d431712073715d3  



		-Pi-

		36c305e9f53d2361  3ad84ee714b5d29c  5d11dfeb5d2211fd  6f4d1e7d13865b6b  4d431712073715d3  
		0993959c03662859  dcc64c68fee8ef8f  78552ec628c0ad15  db88dbbbc9c19907  d47b07b9ab146d5b  
		bcb36567e774d872  f725317bb661621c  ed716a3b686a4c4b  46d2c18665aa4d55  436e9a04ddce5985  
		00f51fb6c98a8e60  71480325f3393ab9  24386092e63309d0  bf928e715a1c4aa9  19817cac9ec83d38  
		dd8ecc92fa7c5ab3  5a3459f09dc15234  bb2d2ce5431e41c7  7116240df1e35272  a741a4b50280c4df  



		-Chi-

		73c294e1bc3f2200  18944ef31631989e  5d13dee95913156d  5dcd1e94e38e794b  455b5d1407b7c54f  
		2982b71a03662849  5f4e9d513fe9ff8d  7c262ac60ad4c94d  d2084bbfc9a39907  003f4fd9579caadd  
		b4e32f67af7ed431  f5a7b0ffb3e16308  ec5d703bf02e5ccb  fa43a4e5479acd27  006a8a1ccdcf7b89  
		04c57f24cd888f20  eaca8d44eb357890  2439101e62f33cc0  bfe68d631b1ec8e9  68897cadacf90da1  
		7c87e897b8625b70  1a2659f82d204004  3d6cac55411ec54a  29986c0f099f4852  a571b5d50701c4db  



		-Iota-

		f3c294e13c3fa200  18944ef31631989e  5d13dee95913156d  5dcd1e94e38e794b  455b5d1407b7c54f  
		2982b71a03662849  5f4e9d513fe9ff8d  7c262ac60ad4c94d  d2084bbfc9a39907  003f4fd9579caadd  
		b4e32f67af7ed431  f5a7b0ffb3e16308  ec5d703bf02e5ccb  fa43a4e5479acd27  006a8a1ccdcf7b89  
		04c57f24cd888f20  eaca8d44eb357890  2439101e62f33cc0  bfe68d631b1ec8e9  68897cadacf90da1  
		7c87e897b8625b70  1a2659f82d204004  3d6cac55411ec54a  29986c0f099f4852  a571b5d50701c4db  



	--Round 4--

		-Teta-

		fe17aa8ab27b067f  a60fa563f3f4e075  d872484cfb527243  981c85990fb3bae9  8b607be9b31a7ccf  
		245789718d228c36  e1d576c1da2c8766  f947bc63a895ae63  17d9d0b2259e5aa5  ce046924e331135d  
		b936110c213a704e  4b3c5b6f56241be3  693ce69e526f3be5  3f923fe8aba70e85  ce51ace17962c209  
		0910414f43cc2b5f  545166d40ef0007b  a15886bbc0b25bee  7a37166ef7230b4b  a6b25a501854b421  
		7152d6fc3626ff0f  a4bdb268c8e538ef  b80d3af0e35fa264  ec49f702e5a28bf0  6b4a9328b3ac7d5b  



		-Rho-

		fe17aa8ab27b067f  4c1f4ac7e7e9c0eb  f61c92133ed49c90  90fb3bae9981c859  4d98d3e67c5b03df  
		d228c36245789718  c8766e1d576c1da2  51ef18ea256b98fe  528bece85912cf2d  924e331135dce046  
		c9b0886109d38275  f16dbd58906f8d2c  79df2b49e734f293  d1574e1d0a7f247f  b16104e728d670bc  
		9856be1220829e87  000f6a8a2cda81de  435de0592df750ac  cddee461696f46e2  b25a501854b421a6  
		5bf0d89bfc3dc54b  92f6c9a32394e3be  9701a75e1c6bf44c  f0ec49f702e5a28b  a4ca2ceb1f56dad2  



		-Pi-

		fe17aa8ab27b067f  c8766e1d576c1da2  79df2b49e734f293  cddee461696f46e2  a4ca2ceb1f56dad2  
		90fb3bae9981c859  924e331135dce046  c9b0886109d38275  000f6a8a2cda81de  9701a75e1c6bf44c  
		4c1f4ac7e7e9c0eb  51ef18ea256b98fe  d1574e1d0a7f247f  b25a501854b421a6  5bf0d89bfc3dc54b  
		4d98d3e67c5b03df  d228c36245789718  f16dbd58906f8d2c  435de0592df750ac  f0ec49f702e5a28b  
		f61c92133ed49c90  528bece85912cf2d  b16104e728d670bc  9856be1220829e87  92f6c9a32394e3be  



		-Chi-

		cf9eabca126be46e  4c76aa3d5f2719c2  59df23c3f1246a83  97cb6661c94642cf  a4aa68fe5a52c352  
		d94bb3ce9182ca68  9241519b11d4e1cc  5eb00d3519f2f675  00f5722aad5a89cf  9505a74f3837d44a  
		cc0f0cd2edfde4ea  73e708ea71eb997e  98f7c69ea276e036  b655525c57742106  4a10c8b3fc3fdd5f  
		6cddeffeec5c0bfb  d038836368e8c798  41cdb4fe926f2f2f  4e4d725951ed51f8  62cc49f703c5368b  
		577c92141e10ac00  5a9d56f85912412e  b3c145462bc21184  fc5eac023cc28287  9275a54b6296a093  



		-Iota-

		cf9eabca126b64e5  4c76aa3d5f2719c2  59df23c3f1246a83  97cb6661c94642cf  a4aa68fe5a52c352  
		d94bb3ce9182ca68  9241519b11d4e1cc  5eb00d3519f2f675  00f5722aad5a89cf  9505a74f3837d44a  
		cc0f0cd2edfde4ea  73e708ea71eb997e  98f7c69ea276e036  b655525c57742106  4a10c8b3fc3fdd5f  
		6cddeffeec5c0bfb  d038836368e8c798  41cdb4fe926f2f2f  4e4d725951ed51f8  62cc49f703c5368b  
		577c92141e10ac00  5a9d56f85912412e  b3c145462bc21184  fc5eac023cc28287  9275a54b6296a093  



	--Round 5--

		-Teta-

		0a720ddaf0a7f736  7625f0a025657088  585b358c4348ffb6  ec52a8ccc459b81b  f52422cb3ca42112  
		1ca715de734e59bb  a8120b066b968886  5f341b7aab9e6340  7b6cbc87a045731b  c48bed7a5ec1360a  
		09e3aac20f317739  49b452770ba9f034  9973d0d1101a7503  cdcc9cf15a6bdbd2  1b9e82869ac93f1f  
		a93149ee0e909828  ea6bd9fe12aaaed2  4049a2b12003ba1a  35d4bcf45cf2ab2c  334203c26533d4cb  
		92903404fcdc3fd3  60ce0c6523502864  b245530999ae84b1  87c762af31dd7853  c3fbef7e046042d3  



		-Rho-

		0a720ddaf0a7f736  ec4be1404acae110  9616cd6310d23fed  cc459b81bec52a8c  59e5210897a92116  
		34e59bb1ca715de7  68886a8120b066b9  cd06deaae798d017  8dbdb65e43d022b9  d7a5ec1360ac48be  
		4f1d5610798bb9c8  d149dc2ea7c0d126  d3a81ccb9e868880  e2b4d7b7a59b9939  649f8f8dcf41434d  
		213051526293dc1d  55da5d4d7b3fc255  d1589001dd0d2024  9e8b9e556586ba97  4203c26533d4cb33  
		d013f370ff4e4a40  833831948d40a191  3648aa613335d096  5387c762af31dd78  fbdf811810b4f0fe  



		-Pi-

		0a720ddaf0a7f736  68886a8120b066b9  d3a81ccb9e868880  9e8b9e556586ba97  fbdf811810b4f0fe  
		cc459b81bec52a8c  d7a5ec1360ac48be  4f1d5610798bb9c8  55da5d4d7b3fc255  3648aa613335d096  
		ec4be1404acae110  cd06deaae798d017  e2b4d7b7a59b9939  4203c26533d4cb33  d013f370ff4e4a40  
		59e5210897a92116  34e59bb1ca715de7  d149dc2ea7c0d126  d1589001dd0d2024  5387c762af31dd78  
		9616cd6310d23fed  8dbdb65e43d022b9  649f8f8dcf41434d  213051526293dc1d  833831948d40a191  



		-Chi-

		995219906ea17f36  648be89541b054ae  b2fc1dc38eb6c8e8  9eab92978585bd97  9b57e31910a4f077  
		c45d8981a7c69bcc  c767e55e62980aab  6d1df430798ba94a  9ddf4ccdf7ffe85d  25e8ce73731d90a4  
		cefbe0554ac9e838  cd05deeaf5dc9215  72a4e6a769919979  6e4bc26533546a23  d117edda5a5e5a47  
		98ed6506b229a116  34f59bb0927c7de7  d3ce9b4c85f00c7e  d938b009cd850022  77875dd3e7618199  
		f614c4e29cd37ea9  8c9de60c6342bea9  e697af09420162cd  35369d317201c271  8a910388ce40a181  



		-Iota-

		99521990eea17f37  648be89541b054ae  b2fc1dc38eb6c8e8  9eab92978585bd97  9b57e31910a4f077  
		c45d8981a7c69bcc  c767e55e62980aab  6d1df430798ba94a  9ddf4ccdf7ffe85d  25e8ce73731d90a4  
		cefbe0554ac9e838  cd05deeaf5dc9215  72a4e6a769919979  6e4bc26533546a23  d117edda5a5e5a47  
		98ed6506b229a116  34f59bb0927c7de7  d3ce9b4c85f00c7e  d938b009cd850022  77875dd3e7618199  
		f614c4e29cd37ea9  8c9de60c6342bea9  e697af09420162cd  35369d317201c271  8a910388ce40a181  



	--Round 6--

		-Teta-

		a6efda41b1f37b06  a9be4f17de5fab03  661fd15154293cc3  23ca9450fd541ee6  e07d715eb4a7ab34  
		fbe04a50f8949ffd  0a5242dcfd77f506  b9fe38a2a3145d61  20be4a0a8f2e4b2c  5ec25c34d71ecbe7  
		f1462384159bec09  003079686a336db8  a6472a35b30e6d52  d32ac4a24b85c952  aa3d7f9dfe5d0104  
		a750a6d7ed7ba527  f9c03c320d93824a  072d57de5f6ff855  6459b6ceb554a353  0cadcf944362dada  
		c9a90733c3817a98  41a8418efcad4104  3274639b989e96e6  88579bf60ad06100  f1bb91cf6a43fac2  



		-Rho-

		a6efda41b1f37b06  537c9e2fbcbf5607  d987f454550a4f30  0fd541ee623ca945  f5a53d59a703eb8a  
		8949ffdfbe04a50f  7f5060a5242dcfd7  7f8e28a8c517586e  96105f2505479725  c34d71ecbe75ec25  
		8a311c20acdf604f  c1e5a1a8cdb6e000  736a95323951ad98  44970b92a5a65589  2e8082551ebfceff  
		f74a4f4ea14dafda  70495f38078641b2  abef2fb7fc2a8396  d9d6aa946a6c8b36  adcf944362dada0c  
		1ccf0e05ea6326a4  06a1063bf2b50411  c64e8c737313d2dc  0088579bf60ad061  e473da90feb0bc6e  



		-Pi-

		a6efda41b1f37b06  7f5060a5242dcfd7  736a95323951ad98  d9d6aa946a6c8b36  e473da90feb0bc6e  
		0fd541ee623ca945  c34d71ecbe75ec25  8a311c20acdf604f  70495f38078641b2  c64e8c737313d2dc  
		537c9e2fbcbf5607  7f8e28a8c517586e  44970b92a5a65589  adcf944362dada0c  1ccf0e05ea6326a4  
		f5a53d59a703eb8a  8949ffdfbe04a50f  c1e5a1a8cdb6e000  abef2fb7fc2a8396  0088579bf60ad061  
		d987f454550a4f30  96105f2505479725  2e8082551ebfceff  f74a4f4ea14dafda  06a1063bf2b50411  



		-Chi-

		a6c54f53a8a35b0e  f7c44a216601cdf1  574bc532adc199d0  db5aaad56b2fc836  bd63fa34fabc38bf  
		07e54dee62b6a90f  b30532f4bd75ed95  0c379c63dccef203  79d81eb407aa68b3  0646bc73ef5296fc  
		536d9d3d9c1f5386  d6c6bce9874fd26a  549701962d877129  eeff046976468a0f  304d2e85ab632ecc  
		b5013d79e6b1ab8a  a343f1c88e0ca699  c1e5f1a0cfb6b061  5eca07f7fd2ba81c  08c0951dee0ed464  
		f10774044fb207ea  475a122fa407b625  2e2182644c0fcefe  2e4cbf0aa447e4fa  00b10d1af2f09414  



		-Iota-

		26c54f5328a3db8f  f7c44a216601cdf1  574bc532adc199d0  db5aaad56b2fc836  bd63fa34fabc38bf  
		07e54dee62b6a90f  b30532f4bd75ed95  0c379c63dccef203  79d81eb407aa68b3  0646bc73ef5296fc  
		536d9d3d9c1f5386  d6c6bce9874fd26a  549701962d877129  eeff046976468a0f  304d2e85ab632ecc  
		b5013d79e6b1ab8a  a343f1c88e0ca699  c1e5f1a0cfb6b061  5eca07f7fd2ba81c  08c0951dee0ed464  
		f10774044fb207ea  475a122fa407b625  2e2182644c0fcefe  2e4cbf0aa447e4fa  00b10d1af2f09414  



	--Round 7--

		-Teta-

		49e0f02066b1de14  01d1cadba76a885c  58a3f3035cafb7ba  3d46605df0f92dac  ed0f5f3b4700441f  
		68c0f29d2ca4ac94  4510b20e7c1ea838  03dfaa522da0dc69  9fc4d43c9c7c8d29  562a197c52eeea5c  
		3c48224ed20d561d  20d33c13462497c7  5b7f37a7dce95f43  08e3cee1ed906f95  60218b8a16df526c  
		da24820aa8a3ae11  555671324f67e334  ce0dc7913ed89e0b  b8d6cd7f66fd4d86  58ac301253b2a8c4  
		9e22cb7701a00271  b14f92d5656cf388  21c9b455bd61e094  c85075823f910160  50dda8154f4ce8b4  



		-Rho-

		49e0f02066b1de14  03a395b74ed510b8  9628fcc0d72bedee  df0f92dac3d46605  da380220ff687af9  
		ca4ac9468c0f29d2  ea8384510b20e7c1  f7ea948b68371a40  94cfe26a1e4e3e46  97c52eeea5c562a1  
		e2411276906ab0e9  4cf04d18925f1c83  4afa1adbf9bd3ee7  c3db20df2a11c79d  6fa9363010c5c50b  
		475c23b449041551  fc668aaace2649ec  e3c89f6c4f05e706  afecdfa9b0d71ad9  ac301253b2a8c458  
		2ddc068009c6788b  c53e4b5595b3ce22  8439368ab7ac3c12  60c85075823f9101  6a0553d33a2d1437  



		-Pi-

		49e0f02066b1de14  ea8384510b20e7c1  4afa1adbf9bd3ee7  afecdfa9b0d71ad9  6a0553d33a2d1437  
		df0f92dac3d46605  97c52eeea5c562a1  e2411276906ab0e9  fc668aaace2649ec  8439368ab7ac3c12  
		03a395b74ed510b8  f7ea948b68371a40  c3db20df2a11c79d  ac301253b2a8c458  2ddc068009c6788b  
		da380220ff687af9  ca4ac9468c0f29d2  4cf04d18925f1c83  e3c89f6c4f05e706  60c85075823f9101  
		9628fcc0d72bedee  94cfe26a1e4e3e46  6fa9363010c5c50b  475c23b449041551  c53e4b5595b3ce22  



		-Chi-

		4998eaaa962cc632  4f8741710b62e7d9  0afb1a89f3953ac1  ae0c7f89f447d0d9  c8065782332d35f6  
		bf0f82cad3fef64d  8be3a666ebc12ba5  e2582676a1e284fb  a7600afa8e760be9  84f91aae93ad3cb2  
		03b2b5e34cd5d525  dbca868bf89f1a00  c217245f2357ff1e  ae138364f4b9c468  d994068829e472cb  
		de880638ed386ef8  69425b22c10fcad6  4cf00d0912650c82  79f89d6c32458dfe  608a993382389003  
		fd08e8d0d7aa2ce7  949be3ee574e2e16  ef8b7e7184760f29  555c97340b0c349d  c5f9497f9df7dc22  



		-Iota-

		c998eaaa962c463b  4f8741710b62e7d9  0afb1a89f3953ac1  ae0c7f89f447d0d9  c8065782332d35f6  
		bf0f82cad3fef64d  8be3a666ebc12ba5  e2582676a1e284fb  a7600afa8e760be9  84f91aae93ad3cb2  
		03b2b5e34cd5d525  dbca868bf89f1a00  c217245f2357ff1e  ae138364f4b9c468  d994068829e472cb  
		de880638ed386ef8  69425b22c10fcad6  4cf00d0912650c82  79f89d6c32458dfe  608a993382389003  
		fd08e8d0d7aa2ce7  949be3ee574e2e16  ef8b7e7184760f29  555c97340b0c349d  c5f9497f9df7dc22  



	--Round 8--

		-Teta-

		3d6fc3e31c7d14ec  0abca5abf691458a  ff3b3b46126b440a  47f223803e22fd0a  ee97cd1be3c6dd55  
		4bf8ab8359afa49a  ced842bc163289f6  179807b9401cfa30  4e9e56f34413263a  a26880374346d411  
		f7459caac68487f2  9ef16251056cb853  37d70590c2a981d5  47eddf6d3edce9bb  ff059c11f90f9a68  
		2a7f2f7167693c2f  2c79bff83cfc6885  b9302cc6f39b7249  9006c165f820a02d  461b03aa52d378a0  
		09ffc1995dfb7e30  d1a00734aabd8c45  1a4b5fbe658871e2  bca2cb3dc169194e  e368d3e64d1c3481  



		-Rho-

		3d6fc3e31c7d14ec  15794b57ed228b14  bfceced1849ad102  03e22fd0a47f2238  df1e36eaaf74be68  
		9afa49a4bf8ab835  289f6ced842bc163  e601ee50073e8c05  1d274f2b79a20993  0374346d411a2688  
		ba2ce55634243f97  c5894415b2e14e7b  4c0ea9beb82c8615  da7db9d3768fdbbe  87cd347f82ce08fc  
		d2785e54fe5ee2ce  8d10a58f37ff079f  166379cdb924dc98  2cbf041405b200d8  1b03aa52d378a046  
		066577edf8c027ff  46801cd2aaf63117  43496bf7ccb10e3c  4ebca2cb3dc16919  34f993470d2078da  



		-Pi-

		3d6fc3e31c7d14ec  289f6ced842bc163  4c0ea9beb82c8615  2cbf041405b200d8  34f993470d2078da  
		03e22fd0a47f2238  0374346d411a2688  ba2ce55634243f97  8d10a58f37ff079f  43496bf7ccb10e3c  
		15794b57ed228b14  e601ee50073e8c05  da7db9d3768fdbbe  1b03aa52d378a046  066577edf8c027ff  
		df1e36eaaf74be68  9afa49a4bf8ab835  c5894415b2e14e7b  166379cdb924dc98  4ebca2cb3dc16919  
		bfceced1849ad102  1d274f2b79a20993  87cd347f82ce08fc  d2785e54fe5ee2ce  46801cd2aaf63117  



		-Chi-

		796f42f1247912f8  082e68ed81b9c1ab  5c4e3afdb02cfe17  25b944b415ef04fc  3469bf4b8d22b9d9  
		bbeaeec2905b3b2f  066434e442c12680  f865af26fc2437b7  8db2a18f17b1279f  435d7bda8db10abc  
		0d055ad49da3d8ae  e703ec50864eac45  de19ec7e5e0fdc07  0a1ba240d65a2846  e465d3edfadc23fe  
		9a1f32fbaf15f822  8898706cb68e28b5  8d15c617b6206f7a  87616ded3b104af8  4e5cebcf2d4b690c  
		3d06fe8506d6d16e  4d17052b05b2eb91  834d34fd826e19ed  6b369c55fa5622ce  46a11df8d3d63986  



		-Iota-

		796f42f124791272  082e68ed81b9c1ab  5c4e3afdb02cfe17  25b944b415ef04fc  3469bf4b8d22b9d9  
		bbeaeec2905b3b2f  066434e442c12680  f865af26fc2437b7  8db2a18f17b1279f  435d7bda8db10abc  
		0d055ad49da3d8ae  e703ec50864eac45  de19ec7e5e0fdc07  0a1ba240d65a2846  e465d3edfadc23fe  
		9a1f32fbaf15f822  8898706cb68e28b5  8d15c617b6206f7a  87616ded3b104af8  4e5cebcf2d4b690c  
		3d06fe8506d6d16e  4d17052b05b2eb91  834d34fd826e19ed  6b369c55fa5622ce  46a11df8d3d63986  



	--Round 9--

		-Teta-

		bb4e2987ccbec2f7  886244ea4d69df74  ec0792656ca2b07b  668a0d6d3a03e7ef  ab1c7cbb98e56bb4  
		79cb85b4789cebaa  862818e38e11385f  482c07be20aa79db  ce81e856385dc48c  dc28b82a9876d8d1  
		cf2431a27564082b  674fc0574a9eb29a  6e5044e68281926b  4928eb99f9b6cb55  7b10101def1bf193  
		583e598d47d228a7  08d45c6b7a5e366a  3d5c6e8f6aae2116  c452243414fca9eb  d129283f388cbb61  
		ff2795f3ee1101eb  cd5b292cc962f54e  33049c655ee05781  2805d58cd5bac1dd  d9d4de08c611ebeb  



		-Rho-

		bb4e2987ccbec2f7  10c489d49ad3bee9  fb01e4995b28ac1e  d3a03e7ef668a0d6  dcc72b5da558e3e5  
		89cebaa79cb85b47  1385f862818e38e1  0b01ef882a9e76d2  466740f42b1c2ee2  82a9876d8d1dc28b  
		79218d13ab20415e  3f015d2a7aca699d  0c935b7282273414  33f36d96aa9251d7  8df8c9bd88080ef7  
		a4514eb07cb31a8f  c6cd411a8b8d6f4b  3747b557108b1eae  86829f953d788a44  29283f388cbb61d1  
		57cfb84407affc9e  356ca4b3258bd53b  2660938cabdc0af0  dd2805d58cd5bac1  378231847afaf675  



		-Pi-

		bb4e2987ccbec2f7  1385f862818e38e1  0c935b7282273414  86829f953d788a44  378231847afaf675  
		d3a03e7ef668a0d6  82a9876d8d1dc28b  79218d13ab20415e  c6cd411a8b8d6f4b  2660938cabdc0af0  
		10c489d49ad3bee9  0b01ef882a9e76d2  33f36d96aa9251d7  29283f388cbb61d1  57cfb84407affc9e  
		dcc72b5da558e3e5  89cebaa79cb85b47  3f015d2a7aca699d  3747b557108b1eae  dd2805d58cd5bac1  
		fb01e4995b28ac1e  466740f42b1c2ee2  8df8c9bd88080ef7  a4514eb07cb31a8f  356ca4b3258bd53b  



		-Chi-

		b75c2a97ce9fc6e3  91857ce7bcd6b2a1  3d937b72c0a54025  0ece9796b97c8ac6  3703e1e47bface75  
		aaa0366cd448a182  0465c7658d90ec8a  59011f978b7041ee  174d6d68dfadcf4d  2669128da2c948f9  
		203689c21ad3bfec  0309fda02eb756d2  6534edd2a996cdd9  29283ea814eb63b0  5ccede4c27a3bc8c  
		eac66e55c71ac37d  89881af29cb94d65  f7295daaf69ec9dc  37809f5f31835f8a  dc2095779475a2c3  
		72996d90db28ac0b  666646f45faf3eea  9cd469be8900cbc7  6e500eb82693328b  310aa4d7059fd7db  



		-Iota-

		b75c2a97ce9fc66b  91857ce7bcd6b2a1  3d937b72c0a54025  0ece9796b97c8ac6  3703e1e47bface75  
		aaa0366cd448a182  0465c7658d90ec8a  59011f978b7041ee  174d6d68dfadcf4d  2669128da2c948f9  
		203689c21ad3bfec  0309fda02eb756d2  6534edd2a996cdd9  29283ea814eb63b0  5ccede4c27a3bc8c  
		eac66e55c71ac37d  89881af29cb94d65  f7295daaf69ec9dc  37809f5f31835f8a  dc2095779475a2c3  
		72996d90db28ac0b  666646f45faf3eea  9cd469be8900cbc7  6e500eb82693328b  310aa4d7059fd7db  



	--Round 10--

		-Teta-

		e5dc025b182b7f9f  e0a7905c9b5b99c0  9662ca34d616ad27  258913bffa55dafe  155399ad26bdeba8  
		f8201ea002fc1876  75472bdeaa1dc7eb  f2f0aed19dc3acec  3c0ae9419c849f75  04396ac4ff8e6d24  
		72b6a10ecc670618  722b111b093a7db3  cec55c94bf2520db  026fba8157c23388  7e9ea6057ae49951  
		b846469911ae7a89  f8aaf649bb346604  5cd8ecece02d24de  1cc71b7672aa0fb2  fe70ed3ec932871e  
		2019455c0d9c15ff  1744aa4f7822158b  3725d8f89fb326c5  45178a9165ba62b3  135adc9e58d8f206  



		-Rho-

		e5dc025b182b7f9f  c14f20b936b73381  e598b28d3585ab49  ffa55dafe258913b  6935ef5d40aa9ccd  
		2fc1876f8201ea00  dc7eb75472bdeaa1  bc2bb46770eb3b3c  ba9e0574a0ce424f  ac4ff8e6d2404396  
		95b50876633830c3  ac446c24e9f6cdc8  2906de762ae4a5f9  02af84671004df75  724ca8bf4f5302bd  
		5cf513708c8d3223  8cc09f155ec93766  76767016926f2e6c  6ece5541f64398e3  70ed3ec932871efe  
		1570367057fc8065  5d12a93de088562c  a6e4bb1f13f664d8  b345178a9165ba62  b72796363c8184d6  



		-Pi-

		e5dc025b182b7f9f  dc7eb75472bdeaa1  2906de762ae4a5f9  6ece5541f64398e3  b72796363c8184d6  
		ffa55dafe258913b  ac4ff8e6d2404396  95b50876633830c3  8cc09f155ec93766  a6e4bb1f13f664d8  
		c14f20b936b73381  bc2bb46770eb3b3c  02af84671004df75  70ed3ec932871efe  1570367057fc8065  
		6935ef5d40aa9ccd  2fc1876f8201ea00  ac446c24e9f6cdc8  76767016926f2e6c  b345178a9165ba62  
		e598b28d3585ab49  ba9e0574a0ce424f  724ca8bf4f5302bd  5cf513708c8d3223  5d12a93de088562c  



		-Chi-

		c4dc4a79106b7ac7  9ab6b655a6bef2a3  b8275c402264a1ed  2e165508f669e3ea  af0523325e1504f6  
		ee155dbfc360a17a  a40f6fe7ce8144b2  b791287c620e705b  d5c1dbb5bec1a645  a6ae1b5f03f6265c  
		c3cb20b936b3f7c0  cc6b8eef52683bb6  07bf8457557c5f74  b0e23e4012842d7e  2950a23617b48859  
		e931875d295c9905  7df3977d9008c824  2d456bace8f65dca  3e469843d2e52ae1  b58517a81364d862  
		a5d81a067a94abf9  b62f16342042724d  734e00b22f5346b1  fc7d01f099889b62  4714ac4d60c2162a  



		-Iota-

		c4dc4a79906bface  9ab6b655a6bef2a3  b8275c402264a1ed  2e165508f669e3ea  af0523325e1504f6  
		ee155dbfc360a17a  a40f6fe7ce8144b2  b791287c620e705b  d5c1dbb5bec1a645  a6ae1b5f03f6265c  
		c3cb20b936b3f7c0  cc6b8eef52683bb6  07bf8457557c5f74  b0e23e4012842d7e  2950a23617b48859  
		e931875d295c9905  7df3977d9008c824  2d456bace8f65dca  3e469843d2e52ae1  b58517a81364d862  
		a5d81a067a94abf9  b62f16342042724d  734e00b22f5346b1  fc7d01f099889b62  4714ac4d60c2162a  



	--Round 11--

		-Teta-

		64abc7eebda0f1e9  93582a9a35a94759  9335d8c88afa2486  dcc08d015738bf24  6ddc5e3423b5e0b5  
		4e62d028eeabaa5d  ade1f3285d96f148  9c83acf4ca90f530  271703bc1f90fa8b  647766597e56c21f  
		63bcad2e1b78fce7  c5851220c17f8e4c  2cad00dffde2da1f  4234e649b3d571b0  eb89df306a146c1a  
		49460aca04979222  741d0bb2031f7dde  0657ef244068d8a1  cc90404a73b4762f  775c6aae6ec43c21  
		05af9791575fa0de  bfc18afbb355c7b7  585c843a87cdc3da  0eabd9f938d9c7ac  85cdd14b1d62f269  



		-Rho-

		64abc7eebda0f1e9  26b055346b528eb3  a4cd763222be8921  15738bf24dcc08d0  a11daf05ab6ee2f1  
		eabaa5d4e62d028e  6f148ade1f3285d9  20eb3d32a43d4c27  45938b81de0fc87d  6597e56c21f64776  
		1de56970dbc7e73b  14488305fe393316  16d0f9656806ffef  9367aae3608469cc  0a360d75c4ef9835  
		2f2444928c159409  efbbce83a1764063  f79220346c50832b  094e768ec5f99208  5c6aae6ec43c2177  
		5e455d7e837816be  ff062beecd571ede  4b0b908750f9b87b  ac0eabd9f938d9c7  7452c758bc9a6173  



		-Pi-

		64abc7eebda0f1e9  6f148ade1f3285d9  16d0f9656806ffef  094e768ec5f99208  7452c758bc9a6173  
		15738bf24dcc08d0  6597e56c21f64776  1de56970dbc7e73b  efbbce83a1764063  4b0b908750f9b87b  
		26b055346b528eb3  20eb3d32a43d4c27  9367aae3608469cc  5c6aae6ec43c2177  5e455d7e837816be  
		a11daf05ab6ee2f1  eabaa5d4e62d028e  14488305fe393316  f79220346c50832b  ac0eabd9f938d9c7  
		a4cd763222be8921  45938b81de0fc87d  0a360d75c4ef9835  2f2444928c159409  ff062beecd571ede  



		-Chi-

		746bb6cfdda48bcf  661a8c549acb85d9  62c0783550049e9c  09e77628c4d90280  7f46cf48be886563  
		0d1383e297cda8d9  878d63ef01c64736  1de579748b4e5f23  fbcbc5f3ac7240e3  2b8ff48b70cbff5d  
		b5b4d7f52bd2af7b  6ce3393e20054c14  9162fbf363c47f44  7cdaae6eac3ea976  5e0e757c075556ba  
		b55dad04b37ed3e1  092885e4e66d82a7  1c4408cc6f116bd2  f68324306e16a11b  e6acab09bd39d9c9  
		aee97246225e9921  6093cb03d61fcc75  da34261985ad92e3  2fed1082aebd1528  be14a26f11565e82  



		-Iota-

		746bb6cf5da48bc5  661a8c549acb85d9  62c0783550049e9c  09e77628c4d90280  7f46cf48be886563  
		0d1383e297cda8d9  878d63ef01c64736  1de579748b4e5f23  fbcbc5f3ac7240e3  2b8ff48b70cbff5d  
		b5b4d7f52bd2af7b  6ce3393e20054c14  9162fbf363c47f44  7cdaae6eac3ea976  5e0e757c075556ba  
		b55dad04b37ed3e1  092885e4e66d82a7  1c4408cc6f116bd2  f68324306e16a11b  e6acab09bd39d9c9  
		aee97246225e9921  6093cb03d61fcc75  da34261985ad92e3  2fed1082aebd1528  be14a26f11565e82  



	--Round 12--

		-Teta-

		ef8bc1d32e284059  e10d19004e34ccea  293fb259d302e0f9  852e2dfd5c19d2d4  862e9d7b5b81b70a  
		96f3f4fee4416345  009af6bbd5390e05  561ab31808482146  77029e2634b290b7  d2e7a6b895c22d34  
		2e54a0e9585e64e7  ebf4ac6af4fa0527  da9d319fe0c20121  f013f5bb34fe7922  a766274fe25c84d3  
		2ebdda18c0f2187d  8e3f10b03292cb94  57bbc2a0ec1715b7  7a4a7fe5f6d6714f  1fc4f93a58300ba0  
		3509055a51d252bd  e7845e5702e08546  91cbec7506abec86  a3244b57367dc57c  477cf05cf45f8ceb  



		-Rho-

		ef8bc1d32e284059  c21a32009c6999d5  4a4fec9674c0b83e  d5c19d2d4852e2df  dadc0db8543174eb  
		441634596f3f4fee  90e05009af6bbd53  86acc60212085195  5bbb814f131a5948  6b895c22d34d2e7a  
		72a5074ac2f32739  d2b1abd3e8149faf  10090ed4e98cff06  7669fcf245e027eb  2e4269d3b313a7f1  
		e430fa5d7bb43181  597291c7e2160652  e150760b8adbabdd  fcbedace29ef494f  c4f93a58300ba01f  
		156947494af4d424  9e11795c0b82151b  d2397d8ea0d57d90  7ca3244b57367dc5  3c173d17e33ad1df  



		-Pi-

		ef8bc1d32e284059  90e05009af6bbd53  10090ed4e98cff06  fcbedace29ef494f  3c173d17e33ad1df  
		d5c19d2d4852e2df  6b895c22d34d2e7a  72a5074ac2f32739  597291c7e2160652  d2397d8ea0d57d90  
		c21a32009c6999d5  86acc60212085195  7669fcf245e027eb  c4f93a58300ba01f  156947494af4d424  
		dadc0db8543174eb  441634596f3f4fee  d2b1abd3e8149faf  e150760b8adbabdd  7ca3244b57367dc5  
		4a4fec9674c0b83e  5bbb814f131a5948  2e4269d3b313a7f1  e430fa5d7bb43181  9e11795c0b82151b  



		-Chi-

		ef82cf076eac025d  7c568003af08bd1a  10082bc52b9c6f96  3f361a0e25ef494f  2c772d1f62796cdd  
		c5e59e6548e0e3de  62dbcca7f3492e38  f0ac6b42c2325eb9  5cb211e6aa14841d  f8313d8c33d871b0  
		b25b0af0d989bfbf  063cc40a2203d181  6769b9f30f1473cb  06eb0a58a402a9ce  11cd834b48f49424  
		487d863ad431e4ea  655660516df46fbe  ce12ab93bd30cbaf  630c7fbb8adaabf7  78a1140a7c3876c1  
		6e0f8406d4c11e8f  9b8b13435bbe4948  344368d3b311a3eb  a47e7edf0ff499a5  8fa178150898545b  



		-Iota-

		ef82cf07eeac82d6  7c568003af08bd1a  10082bc52b9c6f96  3f361a0e25ef494f  2c772d1f62796cdd  
		c5e59e6548e0e3de  62dbcca7f3492e38  f0ac6b42c2325eb9  5cb211e6aa14841d  f8313d8c33d871b0  
		b25b0af0d989bfbf  063cc40a2203d181  6769b9f30f1473cb  06eb0a58a402a9ce  11cd834b48f49424  
		487d863ad431e4ea  655660516df46fbe  ce12ab93bd30cbaf  630c7fbb8adaabf7  78a1140a7c3876c1  
		6e0f8406d4c11e8f  9b8b13435bbe4948  344368d3b311a3eb  a47e7edf0ff499a5  8fa178150898545b  



	--Round 13--

		-Teta-

		11d0c7b81349e1ae  3920adc4010bcc88  b25ed1d03e3aa65e  27bddfb4169f3449  f2f69e9732c473b6  
		3bb796dab50580a6  27ade1605d4a5faa  52fa9157d7949771  4439d45c9964f91b  26b08e0463656edb  
		4c09024f246cdcc7  434ae9cd8c00a013  c53f43e61ab2ba03  1e60cfe29772d4c8  cf4c30c318498b4f  
		b62f8e8529d48792  20204d96c3f71e2c  6c445186a8960267  7b87ba01b9aad6f1  a620a7822c8569aa  
		905d8cb929247df7  defd3e84f5bd38da  961592c6a6b76a23  bcf5bb653c84e4a3  5120cb9d58254b30  



		-Rho-

		11d0c7b81349e1ae  72415b8802179910  ac97b4740f8ea997  4169f344927bddfb  b996239db797b4f4  
		50580a63bb796dab  a5faa27ade1605d4  bea455f5e525dc54  8da21cea2e4cb27c  e0463656edb26b08  
		604812792366e63a  2ba7363002804d0d  95d01e29fa1f30d5  c52ee5a9903cc19f  24c5a7e7a618618c  
		a90f256c5f1d0a53  e3c5840409b2d87e  28c3544b0133b622  4037355ade2f70f7  20a7822c8569aaa6  
		32e4a491f7de4176  7bf4fa13d6f4e36b  72c2b258d4d6ed44  a3bcf5bb653c84e4  32e7560952cc1448  



		-Pi-

		11d0c7b81349e1ae  a5faa27ade1605d4  95d01e29fa1f30d5  4037355ade2f70f7  32e7560952cc1448  
		4169f344927bddfb  e0463656edb26b08  604812792366e63a  e3c5840409b2d87e  72c2b258d4d6ed44  
		72415b8802179910  bea455f5e525dc54  c52ee5a9903cc19f  20a7822c8569aaa6  32e4a491f7de4176  
		b996239db797b4f4  50580a63bb796dab  2ba7363002804d0d  28c3544b0133b622  a3bcf5bb653c84e4  
		ac97b4740f8ea997  8da21cea2e4cb27c  24c5a7e7a618618c  a90f256c5f1d0a53  7bf4fa13d6f4e36b  



		-Chi-

		01d0dbb93340d1af  e5dd8328da3645f6  a7105c28fadf34dd  4127b4eadf2e9151  96cd764b9eda1018  
		4161f36d903f59c9  63c3b252e522734c  704a2021f722c33a  e2ecc5000b9bc8c5  d2c4b64ab956cf44  
		334bfb80120f989b  9e2557f1e064f674  d76ec138e2aa80cf  60a6d924856832a6  be40a0e412fe0532  
		9231178db717b4f0  50184a28ba4adf89  a89b9780668c4dc9  30c1564f93b08632  e3f4fdd96d54cdef  
		8cd217718f9ee817  04a81ce27749b82f  76357df426f880a4  2d0c2108561702c7  7ad4f299f6b4f103  



		-Iota-

		81d0dbb93340d124  e5dd8328da3645f6  a7105c28fadf34dd  4127b4eadf2e9151  96cd764b9eda1018  
		4161f36d903f59c9  63c3b252e522734c  704a2021f722c33a  e2ecc5000b9bc8c5  d2c4b64ab956cf44  
		334bfb80120f989b  9e2557f1e064f674  d76ec138e2aa80cf  60a6d924856832a6  be40a0e412fe0532  
		9231178db717b4f0  50184a28ba4adf89  a89b9780668c4dc9  30c1564f93b08632  e3f4fdd96d54cdef  
		8cd217718f9ee817  04a81ce27749b82f  76357df426f880a4  2d0c2108561702c7  7ad4f299f6b4f103  



	--Round 14--

		-Teta-

		7bafd49eb9357976  b5f0fe0b0d887dec  56dad37ac0594c3a  596f3ce42d28e610  925e0e93195266fc  
		bb1efc4a1a4af19b  33eecf71329c4b56  8180af73cda4bbdd  faa44d0ef99dbf84  d657ce923edeb9a0  
		c934f4a7987a30c9  ce082ad237dace6e  26a44e6ad82cf828  78ee512a776e45e7  bad3d83c957673d6  
		684e18aa3d621ca2  0035370b6df4e793  595118d25c0a352e  2889de4161b6f173  e7678501eadcbb0b  
		76ad185605eb4045  548561c1a0f78035  87fff2a61c7ef843  3544a906a4117586  7e478a41713c87e7  



		-Rho-

		7bafd49eb9357976  6be1fc161b10fbd9  95b6b4deb016530e  42d28e610596f3ce  98ca9337e492f074  
		a4af19bbb1efc4a1  c4b5633eecf71329  602bdcf3692ef760  c27d5226877ccedf  e923edeb9a0d657c  
		49a7a53cc3d1864e  20ab48df6b39bb38  67c14135227356c1  54eedc8bcef1dca2  bb39eb5d69ec1e4a  
		c43944d09c31547a  9cf26006a6e16dbe  8c692e051a972ca8  c82c36de2e65113b  678501eadcbb0be7  
		615817ad0115dab4  5215870683de00d5  70fffe54c38fdf08  863544a906a41175  e2905c4f21f9df91  



		-Pi-

		7bafd49eb9357976  c4b5633eecf71329  67c14135227356c1  c82c36de2e65113b  e2905c4f21f9df91  
		42d28e610596f3ce  e923edeb9a0d657c  49a7a53cc3d1864e  9cf26006a6e16dbe  70fffe54c38fdf08  
		6be1fc161b10fbd9  602bdcf3692ef760  54eedc8bcef1dca2  678501eadcbb0be7  615817ad0115dab4  
		98ca9337e492f074  a4af19bbb1efc4a1  20ab48df6b39bb38  8c692e051a972ca8  863544a906a41175  
		95b6b4deb016530e  c27d5226877ccedf  bb39eb5d69ec1e4a  c43944d09c31547a  5215870683de00d5  



		-Chi-

		58efd49fbb353db6  4c9955f4e0f31213  4551093423eb9841  d103b64eb661315d  66807f6f653bdd98  
		42568e75444671cc  7d73ade9be2d0ccc  29aa3b6c82df144e  9ef26027a2f14d78  d9de9fde5986db38  
		7f25fc1e9dc1f35b  432add937924f425  54b6ca8ecff50cb2  6d24e9f8c6bb2aae  6152174c613bde94  
		98cad373ae82cb6c  28ef3fbba169c021  22bf08776f19aa6d  94a3bd13fa85cca8  a2104c2117c915f4  
		acb61d87d896430e  867d56a6136d8eef  a93d685b6a221ecf  419b7408ac310770  105cc52684b68c04  



		-Iota-

		d8efd49fbb35bd3f  4c9955f4e0f31213  4551093423eb9841  d103b64eb661315d  66807f6f653bdd98  
		42568e75444671cc  7d73ade9be2d0ccc  29aa3b6c82df144e  9ef26027a2f14d78  d9de9fde5986db38  
		7f25fc1e9dc1f35b  432add937924f425  54b6ca8ecff50cb2  6d24e9f8c6bb2aae  6152174c613bde94  
		98cad373ae82cb6c  28ef3fbba169c021  22bf08776f19aa6d  94a3bd13fa85cca8  a2104c2117c915f4  
		acb61d87d896430e  867d56a6136d8eef  a93d685b6a221ecf  419b7408ac310770  105cc52684b68c04  



	--Round 15--

		-Teta-

		0c0b33425e31b492  fae60c0023a1cde6  76d8a8b2bf2a06d2  ba4cd341406986ca  32ad59e5c8e92f5e  
		96b269a8a1427861  cb0cf41d7d7fd339  1a239aea1e1e8add  f5bd052854f9faef  8df3b954f45429fe  
		abc11bc378c5faf6  f5558467ba762bd0  673f6b0853349221  066b8cf730b39d39  357f31c6cce92c52  
		4c2e34ae4b86c2c1  9e90664f623b1fd4  1136a9f1f3d834fe  ffecd81c0c8d7b3f  f63d6aabba1be732  
		7852fa5a3d924aa3  30020f52d03f511a  9ab4c9ddf6e3805c  2ad411075a39b0e7  4471e3ac29647ec2  



		-Rho-

		0c0b33425e31b492  f5cc180047439bcd  9db62a2cafca81b4  1406986caba4cd34  2e47497af1956acf  
		142786196b269a8a  fd339cb0cf41d7d7  88e6ba8787a2b746  77fade82942a7cfd  954f45429fe8df3b  
		5e08de1bc62fd7b5  56119ee9d8af43d5  a4910b39fb584299  ee61673a720cd719  7496291abf98e366  
		0d8582985c695c97  63fa93d20cc9ec47  54f8f9ec1a7f089b  038191af67fffd9b  3d6aabba1be732f6  
		e968f6492a8de14b  c0083d4b40fd4468  9356993bbedc700b  e72ad411075a39b0  78eb0a591fb0911c  



		-Pi-

		0c0b33425e31b492  fd339cb0cf41d7d7  a4910b39fb584299  038191af67fffd9b  78eb0a591fb0911c  
		1406986caba4cd34  954f45429fe8df3b  5e08de1bc62fd7b5  63fa93d20cc9ec47  9356993bbedc700b  
		f5cc180047439bcd  88e6ba8787a2b746  ee61673a720cd719  3d6aabba1be732f6  e968f6492a8de14b  
		2e47497af1956acf  142786196b269a8a  56119ee9d8af43d5  54f8f9ec1a7f089b  e72ad411075a39b0  
		9db62a2cafca81b4  77fade82942a7cfd  7496291abf98e366  0d8582985c695c97  c0083d4b40fd4468  



		-Chi-

		0c8b304b6e29b49a  fe330c36cbe66ad5  dcfb0169e358429d  0781a0ad27fed919  89db86e99ef0d259  
		5e060275eba3cdb0  b4bd44829728f779  ce0cd632743bc7bd  67fa93960de96173  121fdc39aa946200  
		93cd5d38374fdbd4  99ec32078e4197a0  2e61337b52041610  29eea3ba5ea52872  e14a54ceaa2dc549  
		6c57519a611c2b9a  14cfe71d69769280  f5139af8ddaf72f5  5cbdf086eafa4ad4  f70a52100d78a9b0  
		9db20b34845a02b6  7efb5c02d44b606c  b49e1459bf0ce30e  103380bcf36bdd03  a240e9c950dd3821  



		-Iota-

		8c8b304b6e293499  fe330c36cbe66ad5  dcfb0169e358429d  0781a0ad27fed919  89db86e99ef0d259  
		5e060275eba3cdb0  b4bd44829728f779  ce0cd632743bc7bd  67fa93960de96173  121fdc39aa946200  
		93cd5d38374fdbd4  99ec32078e4197a0  2e61337b52041610  29eea3ba5ea52872  e14a54ceaa2dc549  
		6c57519a611c2b9a  14cfe71d69769280  f5139af8ddaf72f5  5cbdf086eafa4ad4  f70a52100d78a9b0  
		9db20b34845a02b6  7efb5c02d44b606c  b49e1459bf0ce30e  103380bcf36bdd03  a240e9c950dd3821  



	--Round 16--

		-Teta-

		d1e206d472a021d9  b4a0ec9dd3ed6492  6f9a01b356acb5e3  2513a1a307e312d0  ed8a0d025cd5c235  
		036f34eaf72ad8f0  fe2ea4298f23f93e  7d6dd6e8c1cf30c3  456892982df4aaba  764e57d268b1726c  
		cea46ba72bc6ce94  d37fd2ac964a99e7  9d0033a1e7f0e16e  0b7ca2b47eb8e3bb  851bdf256808d525  
		313e67057d953eda  5e5c07b6717d9cc7  46729a22685b858b  7e2ff188cae7811d  935bd9fbcf5db9dc  
		c0db3dab98d317f6  3468bca9cc406e2b  07ff14830af81470  32a181b2d37616ca  c611622292f8284d  



		-Rho-

		d1e206d472a021d9  6941d93ba7dac925  dbe6806cd5ab2d78  307e312d02513a1a  12e6ae11af6c5068  
		72ad8f0036f34eaf  3f93efe2ea4298f2  5b75ba3073cc30df  5d22b4494c16fa55  7d268b1726c764e5  
		75235d395e3674a6  ff4ab2592a679f4d  870b74e8019d0f3f  68fd71c77616f945  046a92c28def92b4  
		2a7db4627cce0afb  b398ebcb80f6ce2f  4d11342dc2c5a339  31195cf023afc5fe  5bd9fbcf5db9dc93  
		f6ae634c5fdb036c  d1a2f2a73101b8ac  00ffe290615f028e  ca32a181b2d37616  5888a4be0a137184  



		-Pi-

		d1e206d472a021d9  3f93efe2ea4298f2  870b74e8019d0f3f  31195cf023afc5fe  5888a4be0a137184  
		307e312d02513a1a  7d268b1726c764e5  75235d395e3674a6  b398ebcb80f6ce2f  00ffe290615f028e  
		6941d93ba7dac925  5b75ba3073cc30df  68fd71c77616f945  5bd9fbcf5db9dc93  f6ae634c5fdb036c  
		12e6ae11af6c5068  72ad8f0036f34eaf  ff4ab2592a679f4d  4d11342dc2c5a339  ca32a181b2d37616  
		dbe6806cd5ab2d78  5d22b4494c16fa55  046a92c28def92b4  2a7db4627cce0afb  d1a2f2a73101b8ac  



		-Chi-

		51ea16dc733d26d4  0f83e7f2c8605832  cf8bd4e6098d3f3f  b07b5eb0530fc5a7  76994d9c8251e9a6  
		307f65055a612a18  ffbe29d5a607eeec  75445d293f3f7426  8398fae682f6f63f  4dff688245d9466b  
		49c998fca3c80025  487530387a65344d  ccdb71c77454fa29  529863fcfdb91492  e49a414c0fdf33b6  
		9fa49e48a768c128  72bc8b24f6736e9f  7d6833d91a75cb4b  5dd53a3dcfe9a351  aa3ba081a2407891  
		dbae82ee54422dd8  773790693c16f21e  d5e8d0478cee22b0  2039b42ab8640fab  d5a2c6a639156aa9  



		-Iota-

		d1ea16dc733da6d6  0f83e7f2c8605832  cf8bd4e6098d3f3f  b07b5eb0530fc5a7  76994d9c8251e9a6  
		307f65055a612a18  ffbe29d5a607eeec  75445d293f3f7426  8398fae682f6f63f  4dff688245d9466b  
		49c998fca3c80025  487530387a65344d  ccdb71c77454fa29  529863fcfdb91492  e49a414c0fdf33b6  
		9fa49e48a768c128  72bc8b24f6736e9f  7d6833d91a75cb4b  5dd53a3dcfe9a351  aa3ba081a2407891  
		dbae82ee54422dd8  773790693c16f21e  d5e8d0478cee22b0  2039b42ab8640fab  d5a2c6a639156aa9  



	--Round 17--

		-Teta-

		0a08de0c9cf114b0  5efd275c192489be  4b66a2ce607136cd  2e2541cc217781eb  b2a3eb272ae0a261  
		eb9dadd5b5ad987e  aec0e97b77433f60  f1a92b0156c37dd4  1dc6e59af08eb273  89c5ce39ed680dac  
		922b502c4c04b243  190bf096ab21e5c1  483607ef1da8f3db  ccc67c808fc150de  20a0e7f7a76e7871  
		4446569848a4734e  23c24b8a2737bf13  f98545f17389c2b9  c38b2541bd91e71d  6e01063a0af13356  
		004c4a3ebb8e9fbe  264950c7ed522392  5105a66fe5122b42  be67ab56ca1c4be7  1198601d91a4216e  



		-Rho-

		0a08de0c9cf114b0  bdfa4eb83249137c  52d9a8b3981c4db3  c217781eb2e2541c  395705130d951f59  
		5ad987eeb9dadd5b  33f60aec0e97b774  6a4ac055b0df753c  398ee372cd784759  e39ed680dac89c5c  
		915a81626025921c  2fc25aac87970464  479eda41b03f78ed  011f82a1bd998cf9  b73c38905073fbd3  
		48e69c888cad3091  f7e26478497144e6  a2f8b9c4e15cfcc2  a837b23ce3b87164  01063a0af133566e  
		28faee3a7ef80131  9925431fb5488e48  4a20b4cdfca24568  e7be67ab56ca1c4b  18076469085b8466  



		-Pi-

		0a08de0c9cf114b0  33f60aec0e97b774  479eda41b03f78ed  a837b23ce3b87164  18076469085b8466  
		c217781eb2e2541c  e39ed680dac89c5c  915a81626025921c  f7e26478497144e6  4a20b4cdfca24568  
		bdfa4eb83249137c  6a4ac055b0df753c  011f82a1bd998cf9  01063a0af133566e  28faee3a7ef80131  
		395705130d951f59  5ad987eeb9dadd5b  2fc25aac87970464  a2f8b9c4e15cfcc2  e7be67ab56ca1c4b  
		52d9a8b3981c4db3  398ee372cd784759  b73c38905073fbd3  48e69c888cad3091  9925431fb5488e48  



		-Chi-

		4e000e0d2cd95c39  9bd72ad04d17b674  579e9e00b87cfcef  aa3f2838771861f4  29f164890a5d2722  
		d257797c92c7561c  853eb298d398d8be  995a11e7d4a79314  77f52c6a4b3154f2  6ba8324db4aacd28  
		bcef4c183f499bbd  6a4af85ff0fd273a  29e74691b3518de8  94063a8af1324422  6afa6e7ffe6e6531  
		1c555d130b901f7d  dae126aed99225d9  6ac41c879115046d  bab9b9d4e849ffd2  a536e547e680dc49  
		d4e9b033881ff531  714c677a41f44759  263d7b876133759b  0a3e342884b97122  b023005ff0288c00  



		-Iota-

		ce000e0d2cd95cb9  9bd72ad04d17b674  579e9e00b87cfcef  aa3f2838771861f4  29f164890a5d2722  
		d257797c92c7561c  853eb298d398d8be  995a11e7d4a79314  77f52c6a4b3154f2  6ba8324db4aacd28  
		bcef4c183f499bbd  6a4af85ff0fd273a  29e74691b3518de8  94063a8af1324422  6afa6e7ffe6e6531  
		1c555d130b901f7d  dae126aed99225d9  6ac41c879115046d  bab9b9d4e849ffd2  a536e547e680dc49  
		d4e9b033881ff531  714c677a41f44759  263d7b876133759b  0a3e342884b97122  b023005ff0288c00  



	--Round 18--

		-Teta-

		4daa902996c0d52a  a466a0751096eaeb  7a07d98a0dbf2836  7a883d08f4d74cf5  00b37b3fae062e5e  
		51fde75828dedf8f  ba8f383d8e198421  b4c3566d616447cd  a742395ac8fe79f3  42ea2dfb10f1c454  
		3f45d23c8550122e  55fb72faad7c7ba5  047e011b06925931  44b12fba72fd6923  43b871c95a356c4d  
		9fffc337b18996ee  e550ac0b84137946  475d5b0d24d6d0b4  6a0eace46b86d2d3  8c74faf142dbd535  
		57432e1732067ca2  4efdeddf1c751bc6  0ba43c0dd4f0a142  da89211807765c23  99611fe95473857c  



		-Rho-

		4daa902996c0d52a  48cd40ea212dd5d7  9e81f662836fca0d  8f4d74cf57a883d0  fd703172f0059bd9  
		8dedf8f51fde7582  98421ba8f383d8e1  30d59b585911f36d  f9d3a11cad647f3c  dfb10f1c45442ea2  
		fa2e91e42a809171  edcbeab5f1ee9557  92c98823f008d834  74e5fad24689625f  1ab626a1dc38e4ad  
		132ddd3fff866f63  6f28dcaa15817082  ad86926b685a23ae  9c8d70da5a6d41d5  74faf142dbd5358c  
		b85cc819f2895d0c  3bf7b77c71d46f19  41748781ba9e1428  23da89211807765c  47fa551ce15f2658  



		-Pi-

		4daa902996c0d52a  98421ba8f383d8e1  92c98823f008d834  9c8d70da5a6d41d5  47fa551ce15f2658  
		8f4d74cf57a883d0  dfb10f1c45442ea2  fa2e91e42a809171  6f28dcaa15817082  41748781ba9e1428  
		48cd40ea212dd5d7  30d59b585911f36d  74e5fad24689625f  74faf142dbd5358c  b85cc819f2895d0c  
		fd703172f0059bd9  8dedf8f51fde7582  edcbeab5f1ee9557  ad86926b685a23ae  23da89211807765c  
		9e81f662836fca0d  f9d3a11cad647f3c  1ab626a1dc38e4ad  132ddd3fff866f63  3bf7b77c71d46f19  



		-Chi-

		4f23102a96c8d53e  94466b70f9e6d920  d1bb8d27511afe3c  948df0fb4ced90f7  d7ba5e9c805c2e99  
		af43e42f7d281281  dab1431650454e20  fa7a92e5809e9559  e121ace450a1f352  11c48c91bada380a  
		0ced206827a5d5c5  30cf9a58c045e6ed  fce1f2cb66812a5f  347bf1a0daf1b55f  884c5309aa997f24  
		9d72337210251b8c  8de9e8bf17ce572a  ef93e3b5e1ebc107  71a6a239885aaa2f  235741a417dd125e  
		9ca5f0c3d3774a8c  f8da78028ee2747e  326404e1dc68e4b5  972d9d3d7dadef67  5aa5b6605dd45a29  



		-Iota-

		4f23102a96c85534  94466b70f9e6d920  d1bb8d27511afe3c  948df0fb4ced90f7  d7ba5e9c805c2e99  
		af43e42f7d281281  dab1431650454e20  fa7a92e5809e9559  e121ace450a1f352  11c48c91bada380a  
		0ced206827a5d5c5  30cf9a58c045e6ed  fce1f2cb66812a5f  347bf1a0daf1b55f  884c5309aa997f24  
		9d72337210251b8c  8de9e8bf17ce572a  ef93e3b5e1ebc107  71a6a239885aaa2f  235741a417dd125e  
		9ca5f0c3d3774a8c  f8da78028ee2747e  326404e1dc68e4b5  972d9d3d7dadef67  5aa5b6605dd45a29  



	--Round 19--

		-Teta-

		6ef523edad4ad186  6cb26817e3fdd340  94098ad2c7458be0  f1da17277247b7ff  aa52e39fad393bca  
		8e95d7e846aa9633  224540714a5e4440  bfc8951016c1e085  84764b386e0bd45a  6c2c319297bf2d59  
		2d3b13af1c275177  c83b993fda5eec8d  b953f53ef0de5f83  512c167ce45b9257  f5a4ee0a87fc6a77  
		bca400b52ba79f3e  751debd80dd55d4a  aa21e44077b4b4db  14f145e5b6f08d27  5ebffca73ab8070d  
		bd73c304e8f5ce3e  002e7b6594f97e1e  77d603144a379169  f27a7ae14307c86f  274d0b6370b14f7a  



		-Rho-

		6ef523edad4ad186  d964d02fc7fba680  250262b4b1d162f8  77247b7fff1da172  fd69c9de5552971c  
		6aa96338e95d7e84  e4440224540714a5  f2254405b078216f  2d423b259c3705ea  19297bf2d596c2c3  
		69d89d78e13a8bb9  ee64ff697bb23720  f2fc1dca9fa9f786  f9c8b724aea2582c  fe353bfad2770543  
		4f3e7d7948016a57  aba94ea3bd7b01ba  f2203bda5a6dd510  bcb6de11a4e29e28  bffca73ab8070d5e  
		0c13a3d738faf5cf  00b9ed9653e5f878  2efac0628946f22d  6ff27a7ae14307c8  42d8dc2c53de89d3  



		-Pi-

		6ef523edad4ad186  e4440224540714a5  f2fc1dca9fa9f786  bcb6de11a4e29e28  42d8dc2c53de89d3  
		77247b7fff1da172  19297bf2d596c2c3  69d89d78e13a8bb9  aba94ea3bd7b01ba  2efac0628946f22d  
		d964d02fc7fba680  f2254405b078216f  f9c8b724aea2582c  bffca73ab8070d5e  0c13a3d738faf5cf  
		fd69c9de5552971c  6aa96338e95d7e84  ee64ff697bb23720  f2203bda5a6dd510  6ff27a7ae14307c8  
		250262b4b1d162f8  2d423b259c3705ea  fe353bfad2770543  4f3e7d7948016a57  00b9ed9653e5f878  



		-Chi-

		7c4d3e2726e23284  e846c03574451c8d  b0b41de6ccb5f655  9093fdd008e2ce2c  c2d8dc2c03db8df2  
		17f4ff77df35a84a  9b083971c9d7c2c1  6d8a1d38e13e79bc  faad75becb6200e8  26f3c0e289c4b0ac  
		d0ac630fc979fe80  f411441fa07d243d  f9cbb7e1ae5aa8ad  6e98f7127f060f5e  2e12a7d708faf4a0  
		792d559f47f0963c  7aa963aae910be94  e3b6bf49dab035e8  6229ba5e4e7d4504  6d72585a494e6f48  
		f737626ef39162f9  2c487f2494376ffe  feb4bb7cc193956b  6a3c7f59e81168d7  08f9f4975fc3fd7a  



		-Iota-

		fc4d3e27a6e2328e  e846c03574451c8d  b0b41de6ccb5f655  9093fdd008e2ce2c  c2d8dc2c03db8df2  
		17f4ff77df35a84a  9b083971c9d7c2c1  6d8a1d38e13e79bc  faad75becb6200e8  26f3c0e289c4b0ac  
		d0ac630fc979fe80  f411441fa07d243d  f9cbb7e1ae5aa8ad  6e98f7127f060f5e  2e12a7d708faf4a0  
		792d559f47f0963c  7aa963aae910be94  e3b6bf49dab035e8  6229ba5e4e7d4504  6d72585a494e6f48  
		f737626ef39162f9  2c487f2494376ffe  feb4bb7cc193956b  6a3c7f59e81168d7  08f9f4975fc3fd7a  



	--Round 20--

		-Teta-

		f0826a59f31a3f75  2ea6338e416f8382  786dc8c599a805dc  f6006173b8c0fe72  a4744d0b10ae40b8  
		1b3bab098acda5b1  5de8cacafcfd5dce  a553c81bb4238a35  9c3ee91d7b4030b6  405f51c59ab17de6  
		dc6337719c81f37b  32f1b7a49557bb32  311262c2fb475b24  080b6bb1cf243f00  48be36f01b8f39ea  
		75e201e112089bc7  bc499011dc3a219b  2b6f6a6a8fadc661  04ba26fdfe5f755a  0bdec97d5a3ba202  
		fbf83610a6696f02  eaa88c9fa11df0f1  366d6e5f948e66e2  0cafe3fa58335889  6e5565b04cb63030  



		-Rho-

		f0826a59f31a3f75  5d4c671c82df0704  1e1b7231666a0177  3b8c0fe72f600617  58857205c523a268  
		acda5b11b3bab098  d5dce5de8cacafcf  54f206ed08e28d69  5b4e1f748ebda018  1c59ab17de6405f5  
		e319bb8ce40f9bde  c6de92555eecc8cb  3ad92188931617da  639e487e001016d7  c79cf5245f1b780d  
		11378eebc403c224  4433778932023b87  b53547d6e33095b7  dfbfcbeeab409744  dec97d5a3ba2020b  
		d84299a5bc0befe0  aaa2327e8477c3c7  46cdadcbf291ccdc  890cafe3fa583358  596c132d8c0c1b95  



		-Pi-

		f0826a59f31a3f75  d5dce5de8cacafcf  3ad92188931617da  dfbfcbeeab409744  596c132d8c0c1b95  
		3b8c0fe72f600617  1c59ab17de6405f5  e319bb8ce40f9bde  4433778932023b87  46cdadcbf291ccdc  
		5d4c671c82df0704  54f206ed08e28d69  639e487e001016d7  dec97d5a3ba2020b  d84299a5bc0befe0  
		58857205c523a268  acda5b11b3bab098  c6de92555eecc8cb  b53547d6e33095b7  890cafe3fa583358  
		1e1b7231666a0177  5b4e1f748ebda018  c79cf5245f1b780d  11378eebc403c224  aaa2327e8477c3c7  



		-Chi-

		da836a59e0082f65  10fa2fb8a4ec2fcb  3a993189971a1f4b  7f3da3bed852b324  5c3096ab80a89b1f  
		d88c1f6f0f6b9c1d  187bef16cc6425f4  e1d533ce249e5f86  7d3375ad3f623984  429c0ddb2295cd3c  
		7e402f0e82cf1592  c8b333ed33408d61  639cc8db8419fb37  dbc51b423976020f  d8f09944b42b6789  
		1a81f2418967ea2b  9dfb1e9312aaa5ac  ced63a7446a4ea83  e5b417d2e6131597  2d56a6f3c8c023c8  
		9a8b923137685972  4b6d15bf0ebd2238  6d1cc5305f6f79ce  052eceeaa60bc214  ebe63f3a0ce263cf  



		-Iota-

		5a836a596008afe4  10fa2fb8a4ec2fcb  3a993189971a1f4b  7f3da3bed852b324  5c3096ab80a89b1f  
		d88c1f6f0f6b9c1d  187bef16cc6425f4  e1d533ce249e5f86  7d3375ad3f623984  429c0ddb2295cd3c  
		7e402f0e82cf1592  c8b333ed33408d61  639cc8db8419fb37  dbc51b423976020f  d8f09944b42b6789  
		1a81f2418967ea2b  9dfb1e9312aaa5ac  ced63a7446a4ea83  e5b417d2e6131597  2d56a6f3c8c023c8  
		9a8b923137685972  4b6d15bf0ebd2238  6d1cc5305f6f79ce  052eceeaa60bc214  ebe63f3a0ce263cf  



	--Round 21--

		-Teta-

		7726017a3d82dfdd  5a8b7e40abe3eb97  5e9fe135ec79a1d9  65fea19d526c78c9  9debf652b9b1ee57  
		f529744c52e1ec24  520abeeec36be1a8  85d3e3725ffde114  67f0778eb55cf269  83476d221b8cb874  
		53e5442ddf4565ab  82c262153c4f493d  079a1867ff7a45a5  c1061961b348c9e2  192bf9bd8d3212c1  
		37249962d4ed9a12  d78a4f6b1da561f0  aad0eac83dc75411  ff7715f16c2dde7a  ec8dc60af1d95680  
		b72ef9126ae2294b  011c444701b2e664  091a158c240cc75c  1fedccc92c3509f9  2a3d5fc335fb1687  



		-Rho-

		7726017a3d82dfdd  b516fc8157c7d72e  57a7f84d7b1e6876  d526c78c965fea19  95cd8f72bcef5fb2  
		2e1ec24f529744c5  be1a8520abeeec36  74f8dc97ff784521  34b3f83bc75aae79  d221b8cb87483476  
		9f2a216efa2b2d5a  098854f13d24f60b  d22d283cd0c33ffb  c3669193c5820c32  9909608c95fcdec6  
		db34246e4932c5a9  ac3e1af149ed63b4  75641ee3aa08d568  be2d85bbcf5feee2  8dc60af1d95680ec  
		e449ab88a52edcbb  0471111c06cb9990  812342b1848198eb  f91fedccc92c3509  57f0cd7ec5a1ca8f  



		-Pi-

		7726017a3d82dfdd  be1a8520abeeec36  d22d283cd0c33ffb  be2d85bbcf5feee2  57f0cd7ec5a1ca8f  
		d526c78c965fea19  d221b8cb87483476  9f2a216efa2b2d5a  ac3e1af149ed63b4  812342b1848198eb  
		b516fc8157c7d72e  74f8dc97ff784521  c3669193c5820c32  8dc60af1d95680ec  e449ab88a52edcbb  
		95cd8f72bcef5fb2  2e1ec24f529744c5  098854f13d24f60b  75641ee3aa08d568  f91fedccc92c3509  
		57a7f84d7b1e6876  34b3f83bc75aae79  9909608c95fcdec6  db34246e4932c5a9  0471111c06cb9990  



		-Chi-

		370329666d83cc14  921a00a3a4f22c36  93fd6078d0633ff6  9e2b85bbf75dfbb2  dfe8497e47cdeaad  
		d82cc6a8ee7ce311  f235a25a868c76d2  9e2b616e7e2bb511  f83a9ffd5bb301a4  83227af285818c8d  
		3610fd815745df3c  7878d6f7e72cc5ed  a36f309be1aa5021  9cd05ef08b9783e8  a4a1ab9e0d16dcba  
		944d9bc291cfedb8  5a7ac84dd09f45a5  8193b5fd7c00d60a  71a41cd19ecb9fda  d30dadc18b3c354c  
		deaff8c96bba38f0  7687fc598f58af50  9d48719c9335c6d6  88b2cc2f3026a5cf  2461112e828b1f99  



		-Iota-

		b70329666d834c94  921a00a3a4f22c36  93fd6078d0633ff6  9e2b85bbf75dfbb2  dfe8497e47cdeaad  
		d82cc6a8ee7ce311  f235a25a868c76d2  9e2b616e7e2bb511  f83a9ffd5bb301a4  83227af285818c8d  
		3610fd815745df3c  7878d6f7e72cc5ed  a36f309be1aa5021  9cd05ef08b9783e8  a4a1ab9e0d16dcba  
		944d9bc291cfedb8  5a7ac84dd09f45a5  8193b5fd7c00d60a  71a41cd19ecb9fda  d30dadc18b3c354c  
		deaff8c96bba38f0  7687fc598f58af50  9d48719c9335c6d6  88b2cc2f3026a5cf  2461112e828b1f99  



	--Round 22--

		-Teta-

		d1508dae9e443723  e5029a3ecb921df2  a0f808f359decddc  324739acda511136  fb853fbe93c6e2a4  
		be7f62601dbb98a6  852d38c7e9ec4716  ad2e09e5f796473b  545623ea76bfeb20  a74f0c32518a8484  
		50435949a482a48b  0f604c6a884cf429  906a58106817a20b  30bce2e7a69b696c  80ccdd5ed91dd4b3  
		f21e3f0a6208960f  2d6252d0bfff7461  b296dd76f5bd2420  ddc8a0c6b3c7755e  f760db015f373d45  
		b8fc5c01987d4347  019f66c4e0389e94  ae4d19171a8834fc  24de70381d2a4f4b  000c67ee56801790  



		-Rho-

		d1508dae9e443723  ca05347d97243be5  283e023cd677b377  cda511136324739a  f49e371527dc29fd  
		dbb98a6be7f62601  c4716852d38c7e9e  4b82797de591ceeb  902a2b11f53b5ff5  c32518a8484a74f0  
		821aca4d2415245a  8131aa2133d0a43d  bd105c8352c08340  cf4d36d2d86179c5  8eea59c0666eaf6c  
		112c1fe43c7e14c4  ee8c25ac4a5a17ff  6ebb7ade9210594b  18d678eeabdbb914  60db015f373d45f7  
		700661f50d1ee3f1  067d9b1380e27a50  95c9a322e351069f  4b24de70381d2a4f  19fb95a005e40003  



		-Pi-

		d1508dae9e443723  c4716852d38c7e9e  bd105c8352c08340  18d678eeabdbb914  19fb95a005e40003  
		cda511136324739a  c32518a8484a74f0  821aca4d2415245a  ee8c25ac4a5a17ff  95c9a322e351069f  
		ca05347d97243be5  4b82797de591ceeb  cf4d36d2d86179c5  60db015f373d45f7  700661f50d1ee3f1  
		f49e371527dc29fd  dbb98a6be7f62601  8131aa2133d0a43d  6ebb7ade9210594b  4b24de70381d2a4f  
		283e023cd677b377  902a2b11f53b5ff5  8eea59c0666eaf6c  112c1fe43c7e14c4  067d9b1380e27a50  



		-Chi-

		e850992f9e04b663  c4b7483e7a97468a  bc39d98356e48343  d8d670e031db8e34  1ddaf5f0446c489f  
		cdbfd35647317390  afa13d0802006755  935b484f8514245a  a6a835bd4a7e66ff  97c9ab8aeb1b02ff  
		4e4832ff8f440ae1  6b107870c28dcad9  df495672d063dbc5  eada1557a51d5df3  718428f56d8f27fb  
		f49e171537dca9c1  b533dab567f67f43  80352e011bdd8639  da215bdb95d058fb  4005561af83f2c4f  
		26fe52fcd433137f  812e2d35ed2b4f75  88bbd9d3e6eec57c  392e1fc86a6b95e3  967db212a1ea36d0  



		-Iota-

		e850992f1e04b662  c4b7483e7a97468a  bc39d98356e48343  d8d670e031db8e34  1ddaf5f0446c489f  
		cdbfd35647317390  afa13d0802006755  935b484f8514245a  a6a835bd4a7e66ff  97c9ab8aeb1b02ff  
		4e4832ff8f440ae1  6b107870c28dcad9  df495672d063dbc5  eada1557a51d5df3  718428f56d8f27fb  
		f49e171537dca9c1  b533dab567f67f43  80352e011bdd8639  da215bdb95d058fb  4005561af83f2c4f  
		26fe52fcd433137f  812e2d35ed2b4f75  88bbd9d3e6eec57c  392e1fc86a6b95e3  967db212a1ea36d0  



	--Round 23--

		-Teta-

		ad88fe24e4a67706  8c3a1588b2494c14  67740b772425a833  7bac6583f9215fa5  19ff9b370e53dbe4  
		8867b45dbd93b2f4  e72c60becade6dcb  48169abbf7d50f2a  05d220de8284b76e  93ecc54da1249184  
		0b9055f475e6cb85  239d25c60a53c047  04048486a2a2f0b5  49a000346de78c62  75a1463227b0b480  
		b146701ecd7e68a5  fdbe8703af2875dd  5b78fcf5691cad49  795b4eb85d2a896a  442038ddb200bf34  
		632635f72e91d21b  c9a3708325f545eb  53f60b27942fee0c  9a540aaba2914472  9258dcd5ebd5a5ab  



		-Rho-

		ad88fe24e4a67706  18742b1164929829  d9dd02ddc9096a0c  3f9215fa57bac658  b8729edf20cffcd9  
		d93b2f48867b45db  e6dcbe72c60becad  05a6aefdf543ca92  b702e9106f41425b  54da124918493ecc  
		5c82afa3af365c28  749718294f011c8e  1785a82024243515  68dbcf18c4934000  d85a403ad0a31913  
		fcd14b628ce03d9a  0ebbbfb7d0e075e5  7e7ab48e56a4adbc  d70ba5512d4f2b69  2038ddb200bf3444  
		d7dcba47486d8c98  268dc20c97d517af  8a7ec164f285fdc1  729a540aaba29144  37357af5696ae496  



		-Pi-

		ad88fe24e4a67706  e6dcbe72c60becad  1785a82024243515  d70ba5512d4f2b69  37357af5696ae496  
		3f9215fa57bac658  54da124918493ecc  5c82afa3af365c28  0ebbbfb7d0e075e5  8a7ec164f285fdc1  
		18742b1164929829  05a6aefdf543ca92  68dbcf18c4934000  2038ddb200bf3444  d7dcba47486d8c98  
		b8729edf20cffcd9  d93b2f48867b45db  749718294f011c8e  7e7ab48e56a4adbc  729a540aaba29144  
		d9dd02ddc9096a0c  b702e9106f41425b  d85a403ad0a31913  fcd14b628ce03d9a  268dc20c97d517af  



		-Chi-

		bc89fe24c4826616  26d6bb23cf40e6c5  37b1f2846404f183  5f832151a9cb3869  75617aa76b636c3f  
		3792b858f08c8678  56e3025d48891f09  dcc6efe38d33d428  3b3bab2dd5da77fd  ca36c365fac4c545  
		702d6a1164029829  0586be5ff56ffed6  bf1fed5d8cd3c898  2818dca2242d2465  d25e3eabd92cce0a  
		9cf68efe69cfe4dd  d3538bce96dfe4eb  74175829e6030cce  f61a3e5b56e9c125  3393750a2d929046  
		918502f759ab730c  9383e250630166d3  da56c036c3b61b36  25814bb3c4e8559a  008f2b0cb19517fc  



		-Iota-

		3c89fe244482e61e  26d6bb23cf40e6c5  37b1f2846404f183  5f832151a9cb3869  75617aa76b636c3f  
		3792b858f08c8678  56e3025d48891f09  dcc6efe38d33d428  3b3bab2dd5da77fd  ca36c365fac4c545  
		702d6a1164029829  0586be5ff56ffed6  bf1fed5d8cd3c898  2818dca2242d2465  d25e3eabd92cce0a  
		9cf68efe69cfe4dd  d3538bce96dfe4eb  74175829e6030cce  f61a3e5b56e9c125  3393750a2d929046  
		918502f759ab730c  9383e250630166d3  da56c036c3b61b36  25814bb3c4e8559a  008f2b0cb19517fc  



---Output from Keccak_f---

3c89fe244482e61e  26d6bb23cf40e6c5  37b1f2846404f183  5f832151a9cb3869  75617aa76b636c3f  
3792b858f08c8678  56e3025d48891f09  dcc6efe38d33d428  3b3bab2dd5da77fd  ca36c365fac4c545  
702d6a1164029829  0586be5ff56ffed6  bf1fed5d8cd3c898  2818dca2242d2465  d25e3eabd92cce0a  
9cf68efe69cfe4dd  d3538bce96dfe4eb  74175829e6030cce  f61a3e5b56e9c125  3393750a2d929046  
918502f759ab730c  9383e250630166d3  da56c036c3b61b36  25814bb3c4e8559a  008f2b0cb19517fc  



----SQUEEZING PHASE----

---Block Extraction---

3c89fe244482e61e  26d6bb23cf40e6c5  37b1f2846404f183  5f832151a9cb3869  75617aa76b636c3f  
3792b858f08c8678  56e3025d48891f09  







------HASH------

1ee6824424fe893c
c5e640cf23bbd626
83f1046484f2b137
6938cba95121835f
3f6c636ba77a6175
78868cf058b89237

