----ABSORBING PHASE----


---Initial Block---

0000000000017070  0000000000000000  0000000000000000  0000000000000000  0000000000000000  
0000000000000000  0000000000000000  0000000000000000  0000000000000000  0000000000000000  
0000000000000000  0000000000000000  0000000000000000  0000000000000000  0000000000000000  
0000000000000000  0000000000000000  0000000000000000  0000000000000000  0000000000000000  
0000000000000000  0000000000000000  0000000000000000  0000000000000000  0000000000000000  



---Input to Keccak_f---

0000000000017070  0000000000000000  0000000000000000  0000000000000000  0000000000000000  
0000000000000000  0000000000000000  0000000000000000  8000000000000000  0000000000000000  
0000000000000000  0000000000000000  0000000000000000  0000000000000000  0000000000000000  
0000000000000000  0000000000000000  0000000000000000  0000000000000000  0000000000000000  
0000000000000000  0000000000000000  0000000000000000  0000000000000000  0000000000000000  



---Keccak_f---

	--Round 0--

		-Teta-

		0000000000017070  0000000000017070  0000000000000001  0000000000000000  800000000002e0e0  
		0000000000000000  0000000000017070  0000000000000001  8000000000000000  800000000002e0e0  
		0000000000000000  0000000000017070  0000000000000001  0000000000000000  800000000002e0e0  
		0000000000000000  0000000000017070  0000000000000001  0000000000000000  800000000002e0e0  
		0000000000000000  0000000000017070  0000000000000001  0000000000000000  800000000002e0e0  



		-Rho-

		0000000000017070  000000000002e0e0  4000000000000000  0000000000000000  0000170704000000  
		0000000000000000  1707000000000000  0000000000000040  0040000000000000  0000002e0e080000  
		0000000000000000  0000000005c1c000  0000080000000000  0000000000000000  0170704000000000  
		0000000000000000  2e0e000000000000  0000000000008000  0000000000000000  0000000002e0e080  
		0000000000000000  000000000005c1c0  2000000000000000  0000000000000000  00000000b8382000  



		-Pi-

		0000000000017070  1707000000000000  0000080000000000  0000000000000000  00000000b8382000  
		0000000000000000  0000002e0e080000  0000000000000000  2e0e000000000000  2000000000000000  
		000000000002e0e0  0000000000000040  0000000000000000  0000000002e0e080  0000000000000000  
		0000170704000000  0000000000000000  0000000005c1c000  0000000000008000  0000000000000000  
		4000000000000000  0040000000000000  0170704000000000  0000000000000000  000000000005c1c0  



		-Chi-

		0000080000017070  1707000000000000  00000800b8382000  0000000000015070  17070000b8382000  
		0000000000000000  2e0e002e0e080000  0000000000000000  2e0e000000000000  2000002e0e080000  
		000000000002e0e0  0000000002e0e0c0  0000000000000000  0000000002e20060  0000000000000000  
		0000170701c1c000  0000000000000000  0000000005c1c000  0000170704008000  0000000000000000  
		4130704000000000  0040000000000000  017070400005c1c0  4000000000000000  004000000005c1c0  



		-Iota-

		0000080000017071  1707000000000000  00000800b8382000  0000000000015070  17070000b8382000  
		0000000000000000  2e0e002e0e080000  0000000000000000  2e0e000000000000  2000002e0e080000  
		000000000002e0e0  0000000002e0e0c0  0000000000000000  0000000002e20060  0000000000000000  
		0000170701c1c000  0000000000000000  0000000005c1c000  0000170704008000  0000000000000000  
		4130704000000000  0040000000000000  017070400005c1c0  4000000000000000  004000000005c1c0  



	--Round 1--

		-Teta-

		45d50872afe55031  54d79fc67a3a1311  e5552620b91760e0  6ffe781dd196b230  fb69c989bd5f5132  
		45d50072afe42040  6dde9fe874321311  e5552e20012f40e0  41f0781dd197e240  cc6ec9a70b6f7132  
		45d50072afe6c0a0  43d09fc678daf3d1  e5552e20012f40e0  6ffe781dd375e220  ec6ec98905677132  
		45d51775ae25e040  43d09fc67a3a1311  e5552e2004ee80e0  6ffe6f1ad5976240  ec6ec98905677132  
		04e57032afe42040  43909fc67a3a1311  e4255e60012a8120  2ffe781dd197e240  ec2ec9890562b0f2  



		-Rho-

		45d50872afe55031  a9af3f8cf4742622  395549882e45d838  dd196b2306ffe781  4deafa8997db4e4c  
		fe4204045d50072a  213116dde9fe8743  554b88004bd03839  2020f83c0ee8cbf1  9a70b6f7132cc6ec  
		2ea803957f360502  427f19e36bcf450f  7a07072aa9710009  3ba6ebc440dffcf0  b3b899763764c482  
		4bc0808baa2eeb5c  4262287a13f8cf47  97100277407072aa  e35ab2ec480dffcd  6ec98905677132ec  
		c0cabf9081001395  0e427f19e8e84c45  1c84abcc00255024  402ffe781dd197e2  b2624158ac3cbb0b  



		-Pi-

		45d50872afe55031  213116dde9fe8743  7a07072aa9710009  e35ab2ec480dffcd  b2624158ac3cbb0b  
		dd196b2306ffe781  9a70b6f7132cc6ec  2ea803957f360502  4262287a13f8cf47  1c84abcc00255024  
		a9af3f8cf4742622  554b88004bd03839  3ba6ebc440dffcf0  6ec98905677132ec  c0cabf9081001395  
		4deafa8997db4e4c  fe4204045d50072a  427f19e36bcf450f  97100277407072aa  402ffe781dd197e2  
		395549882e45d838  2020f83c0ee8cbf1  b3b899763764c482  4bc0808baa2eeb5c  0e427f19e8e84c45  



		-Chi-

		1fd30950afe45039  a069a619a9f27887  6a27463a0d41000b  a6cfbace4bccbffd  924257d5ec263c49  
		f9916a236aede683  da329e9d13e40ca9  322c80117f331522  837b6859152268c6  1ee43f1811255048  
		830b5c48f47be2e2  110288016cf03a35  bba4dd54c0dffde1  47ec8909130516ce  948a3f908a800b8c  
		4dd7e36ab5540e49  6b4206105d60358a  0250e5eb764ec04f  9ad002f6c27a3aa6  f22ffa7c55d196c0  
		aacd48ca1f41dc3a  6860f8b586e2e0ad  b7bae66677a4c083  7ad5800bac2b7b64  0e62cf2de8404f84  



		-Iota-

		1fd30950afe4d0bb  a069a619a9f27887  6a27463a0d41000b  a6cfbace4bccbffd  924257d5ec263c49  
		f9916a236aede683  da329e9d13e40ca9  322c80117f331522  837b6859152268c6  1ee43f1811255048  
		830b5c48f47be2e2  110288016cf03a35  bba4dd54c0dffde1  47ec8909130516ce  948a3f908a800b8c  
		4dd7e36ab5540e49  6b4206105d60358a  0250e5eb764ec04f  9ad002f6c27a3aa6  f22ffa7c55d196c0  
		aacd48ca1f41dc3a  6860f8b586e2e0ad  b7bae66677a4c083  7ad5800bac2b7b64  0e62cf2de8404f84  



	--Round 2--

		-Teta-

		2b44f71c7f3f580a  8eb00367541aae26  06e7badc47509b58  384866256cae2a6a  14b8a781f952b12d  
		cd06946fba366e32  f4eb3be3ee0cda08  5eec7cf735228e71  1dfcb4b23240fd51  981ecf4c0451dd2c  
		b79ca20424a06a53  3fdb2d7f9118ec94  d76421b28ace66b2  d96b55e234678359  1270cfc49ff486e8  
		79401d26658f86f8  459ba36ea088e32b  6e90190d3c5f5b1c  0457de1de518af31  74d50a2840a51ba4  
		9e5ab686cf9a548b  46b95dcb7b0a360c  db7a1a803db55bd0  e4525ce08b49eef3  88983f79fd34c2e0  



		-Rho-

		2b44f71c7f3f580a  1d6006cea8355c4d  01b9eeb711d426d6  56cae2a6a3848662  0fca958968a5c53c  
		a366e32cd06946fb  cda08f4eb3be3ee0  bb1f3dcd48a39c57  a88efe5a5919207e  f4c0451dd2c981ec  
		bce510212503529d  6cb5fe4463b250ff  733596bb210d9456  c468cf06b3b2d6ab  fa4374093867e24f  
		1f0df0f2803a4ccb  1c6568b3746dd411  0c869e2fad8e3748  c3bca315e6208afb  d50a2840a51ba474  
		da1b3e69522e796a  1ae5772dec28d831  1b6f435007b6ab7a  f3e4525ce08b49ee  0fde7f4d30b82226  



		-Pi-

		2b44f71c7f3f580a  cda08f4eb3be3ee0  733596bb210d9456  c3bca315e6208afb  0fde7f4d30b82226  
		56cae2a6a3848662  f4c0451dd2c981ec  bce510212503529d  1c6568b3746dd411  1b6f435007b6ab7a  
		1d6006cea8355c4d  bb1f3dcd48a39c57  c468cf06b3b2d6ab  d50a2840a51ba474  da1b3e69522e796a  
		0fca958968a5c53c  a366e32cd06946fb  6cb5fe4463b250ff  0c869e2fad8e3748  f3e4525ce08b49ee  
		01b9eeb711d426d6  a88efe5a5919207e  fa4374093867e24f  1f0df0f2803a4ccb  1ae5772dec28d831  



		-Chi-

		1951e7ad7f3ed81c  4d28ae4a759e3449  7f77caf33195b452  e3bc2305a927d2f3  cb7e770fb03804c6  
		5eeff2868686d473  f4c02d8f82a505ec  bfef1361269179f7  58e5c815d46dd011  bb6f464957ffaaf6  
		5900c4cc1b251ee5  aa1d1d8d4caabc03  ce79d92fe1968fa1  d06a28c60d0aa071  7804076812acf978  
		435b89c94b37d538  a364e3075c6561fb  9fd5be1423b31859  008c1baea5aab358  53c0307870c34b2d  
		53f8eeb631b2e4d7  ad827ea8d9012cfe  faa373045467727f  1e15786091ee6a0d  b2e36765a421d819  



		-Iota-

		9951e7ad7f3e5896  4d28ae4a759e3449  7f77caf33195b452  e3bc2305a927d2f3  cb7e770fb03804c6  
		5eeff2868686d473  f4c02d8f82a505ec  bfef1361269179f7  58e5c815d46dd011  bb6f464957ffaaf6  
		5900c4cc1b251ee5  aa1d1d8d4caabc03  ce79d92fe1968fa1  d06a28c60d0aa071  7804076812acf978  
		435b89c94b37d538  a364e3075c6561fb  9fd5be1423b31859  008c1baea5aab358  53c0307870c34b2d  
		53f8eeb631b2e4d7  ad827ea8d9012cfe  faa373045467727f  1e15786091ee6a0d  b2e36765a421d819  



	--Round 3--

		-Teta-

		4a418150235c1dac  141a8389ef0ac7e2  893189248768837d  5a472cce6b727228  a2efba26c40d38df  
		8dff947bdae49149  adf2004c1831f647  49a950b6906c4ed8  e11ec7de163870ca  d2fe8b6023ca96ef  
		8a10a23147475bdf  f32f304ed63e4fa8  383f9af8576bb88e  6991270dcf5f00aa  1195ca416699c561  
		904bef3417559002  fa56cec4c6f19250  6993fdc3954e2f76  b977146567ff1383  3a51fd5104f67734  
		80e8884b6dd0a1ed  f4b0536b4395df55  0ce530d3e29a4550  a7ee77ab53bbcad6  db72aa4cd014e400  



		-Rho-

		4a418150235c1dac  28350713de158fc4  624c624921da20df  e6b7272285a472cc  362069c6fd177dd1  
		ae491498dff947bd  1f647adf2004c183  6a542da41b13b612  65708f63ef0b1c38  b6023ca96efd2fe8  
		5085118a3a3adefc  bcc13b58f93ea3cc  5dc471c1fcd7c2bb  1b9ebe0154d3224e  4ce2b088cae520b3  
		ab20052097de682e  324a1f4ad9d898de  fee1caa717bb34c9  8cacffe270772ee2  51fd5104f677343a  
		212db74287b603a2  d2c14dad0e577d57  019ca61a7c5348aa  d6a7ee77ab53bbca  aa933405390036dc  



		-Pi-

		4a418150235c1dac  1f647adf2004c183  5dc471c1fcd7c2bb  8cacffe270772ee2  aa933405390036dc  
		e6b7272285a472cc  b6023ca96efd2fe8  5085118a3a3adefc  324a1f4ad9d898de  019ca61a7c5348aa  
		28350713de158fc4  6a542da41b13b612  1b9ebe0154d3224e  51fd5104f677343a  212db74287b603a2  
		362069c6fd177dd1  ae491498dff947bd  bcc13b58f93ea3cc  fee1caa717bb34c9  d6a7ee77ab53bbca  
		624c624921da20df  65708f63ef0b1c38  4ce2b088cae520b3  ab20052097de682e  d2c14dad0e577d57  



		-Chi-

		0ac18050ff8f1f94  9f4cf4fd2024edc3  7fd771c4f5d7d2a7  ccec7eb2722b27c2  bfb74e8a3900f6df  
		a632262095a6a2d8  944832e9af3d2fea  5111b19a1e399edc  d4691e6a587caa9a  119cbe93160a458a  
		39bf95129ad58f88  2a356ca0b937a222  3b9e1843555321ce  59ed5115ae76b87e  636d9fe686b433b0  
		26a04286dd11dd91  ec69d43fd97853bc  bcc71f08517e28ce  dee1cb2743bf70d8  5eeefa6fa9bbb9e6  
		6ace52c1213e005c  c6708a43fa115434  1c23f805c2e435e2  8b2c2760b65668a6  d7f1c08fc0566177  



		-Iota-

		8ac180507f8f9f94  9f4cf4fd2024edc3  7fd771c4f5d7d2a7  ccec7eb2722b27c2  bfb74e8a3900f6df  
		a632262095a6a2d8  944832e9af3d2fea  5111b19a1e399edc  d4691e6a587caa9a  119cbe93160a458a  
		39bf95129ad58f88  2a356ca0b937a222  3b9e1843555321ce  59ed5115ae76b87e  636d9fe686b433b0  
		26a04286dd11dd91  ec69d43fd97853bc  bcc71f08517e28ce  dee1cb2743bf70d8  5eeefa6fa9bbb9e6  
		6ace52c1213e005c  c6708a43fa115434  1c23f805c2e435e2  8b2c2760b65668a6  d7f1c08fc0566177  



	--Round 4--

		-Teta-

		d8c93cdf955208e6  ad16a9f8f6b963f9  5db43e180300ef94  f1e2eb9ddfaae7b3  1956d54b516e0595  
		f43a9aaf7f7b35aa  a6126fec79a0a1d0  7372fe46e8eea3ef  e9678b45f5fd6aeb  b77d25527e64b6c0  
		6bb7299d700818fa  186f31a56faa2c18  19fd579fa3841cfd  64e3c43a03f7780f  c58c0427eedac0fa  
		74a8fe0937cc4ae3  de33893a0fe5dd86  9ea450d4a7a915fd  e3ef5e08ee3eb0a9  f80f61aec1d54aac  
		38c6ee4ecbe3972e  f42ad7462c8cda0e  3e40b7d9343308d1  b622b24f1bd7a8d7  71105b4ea838923d  



		-Rho-

		d8c93cdf955208e6  5a2d53f1ed72c7f3  176d0f8600c03be5  ddfaae7b3f1e2eb9  5a8b702ca8cab6aa  
		f7b35aaf43a9aaf7  0a1d0a6126fec79a  dcbf91ba3ba8fbdc  75f4b3c5a2fafeb5  5527e64b6c0b77d2  
		5db94ceb8040c7d3  bcc695bea8b06061  20e7e8cfeabcfd1c  7407eef01ec9c788  6d607d62c60213f7  
		9895c6e951fc126f  bbb0dbc6712741fc  286a53d48afecf52  c11dc7d6153c7deb  0f61aec1d54aacf8  
		b93b2f8e5cb8e31b  d0ab5d18b233683b  27c816fb2686611a  d7b622b24f1bd7a8  16d3aa0e248f5c44  



		-Pi-

		d8c93cdf955208e6  0a1d0a6126fec79a  20e7e8cfeabcfd1c  c11dc7d6153c7deb  16d3aa0e248f5c44  
		ddfaae7b3f1e2eb9  5527e64b6c0b77d2  5db94ceb8040c7d3  bbb0dbc6712741fc  27c816fb2686611a  
		5a2d53f1ed72c7f3  dcbf91ba3ba8fbdc  7407eef01ec9c788  0f61aec1d54aacf8  b93b2f8e5cb8e31b  
		5a8b702ca8cab6aa  f7b35aaf43a9aaf7  bcc695bea8b06061  286a53d48afecf52  d7b622b24f1bd7a8  
		176d0f8600c03be5  75f4b3c5a2fafeb5  6d607d62c60213f7  9895c6e951fc126f  d0ab5d18b233683b  



		-Chi-

		f82bdc515d5230e2  cb050d7133fec779  3625c0c7ca3ffd18  0915d307846c7d49  14c7a82e06239b5c  
		d562a6dbbf5eaeb8  f727754f1d2c77fe  59f148d286c0e7d1  638273c6683f4f5d  27cd56fb66873058  
		7a2d3db1e933c3f3  d7df91bbfaaad3ac  c41deffe1679848b  4d65feb07408a818  3da9af844e30db17  
		52cff53c00daf6aa  f79b18ef41e725e5  6b52b59cedb170c9  206303d82a3eef50  728628310c3adffd  
		1f6d43a444c03aa7  e561314cb306febd  2d4a647264017be7  9fd1c46f513c01ab  b03bed591009ac2b  



		-Iota-

		f82bdc515d52b069  cb050d7133fec779  3625c0c7ca3ffd18  0915d307846c7d49  14c7a82e06239b5c  
		d562a6dbbf5eaeb8  f727754f1d2c77fe  59f148d286c0e7d1  638273c6683f4f5d  27cd56fb66873058  
		7a2d3db1e933c3f3  d7df91bbfaaad3ac  c41deffe1679848b  4d65feb07408a818  3da9af844e30db17  
		52cff53c00daf6aa  f79b18ef41e725e5  6b52b59cedb170c9  206303d82a3eef50  728628310c3adffd  
		1f6d43a444c03aa7  e561314cb306febd  2d4a647264017be7  9fd1c46f513c01ab  b03bed591009ac2b  



	--Round 5--

		-Teta-

		c63ac82422c6c34b  0a6090d9dab6fc8f  ffa3336c2a14ac84  7cf94d703214efae  b90ad2ae7b30cdf5  
		eb73b2aec0cadd9a  3642e8e7f4644c08  9077bb7966ebb64d  166eedb1de47ddba  8a002c7b1b9466f1  
		443c29c496a7b0d1  16ba0c1313e2e85a  0d9b1c55f652d517  388960c7c2703aff  9064d50433238dbe  
		6cdee1497f4e8588  36fe8547a8af1e13  a2d446370d9a2155  558f9daf9c467db7  df4b52b171298954  
		217c57d13b544985  2404ace45a4ec54b  e4cc97d9842a2a7b  ea3d5a18e744934c  1df697d96d1afa82  



		-Rho-

		c63ac82422c6c34b  14c121b3b56df91e  3fe8ccdb0a852b21  03214efae7cf94d7  73d9866fadc85695  
		0cadd9aeb73b2aec  44c083642e8e7f46  1deede59baed9364  dd0b3776d8ef23ee  c7b1b9466f18a002  
		21e14e24b53d868a  e8304c4f8ba1685a  96a8b86cd8e2afb2  8f84e075fe7112c1  91c6df48326a8219  
		9d0b10d9bdc292fe  e3c266dfd0a8f515  231b86cd10aad16a  b5f388cfb6eab1f3  4b52b171298954df  
		5f44ed51261485f1  9012b391693b152c  7c9992fb3085454f  4cea3d5a18e74493  a5f65b46bea0877d  



		-Pi-

		c63ac82422c6c34b  44c083642e8e7f46  96a8b86cd8e2afb2  b5f388cfb6eab1f3  a5f65b46bea0877d  
		03214efae7cf94d7  c7b1b9466f18a002  21e14e24b53d868a  e3c266dfd0a8f515  7c9992fb3085454f  
		14c121b3b56df91e  1deede59baed9364  8f84e075fe7112c1  4b52b171298954df  5f44ed51261485f1  
		73d9866fadc85695  0cadd9aeb73b2aec  e8304c4f8ba1685a  231b86cd10aad16a  4cea3d5a18e74493  
		3fe8ccdb0a852b21  dd0b3776d8ef23ee  91c6df48326a8219  9d0b10d9bdc292fe  9012b391693b152c  



		-Chi-

		5412f02cf2a643fb  659383e708866f07  96aceb6cd0e2a9be  f7fb08efb6acf1f1  a5365806b2a8bb79  
		236108da77ea925f  05b3999d2f98d117  3df8de04953886c0  e0e22adf17e26585  b80923ff3895654f  
		96c10197f17df99f  5dbccf59bb65d77a  9b80ac75f86593e1  4bd3b1d3b8e02cd1  566a33192c948791  
		93c9822ea5481687  0fa65b2ea731bbcc  a4d0755d83e46ccb  100a04e8b5a2c36e  40ce64da0ad46cfb  
		3f2c04d32885ab30  d10237e7556f3308  91d67c4872538719  b2e35c93bf46b8ff  501180b5b95115e2  



		-Iota-

		5412f02c72a643fa  659383e708866f07  96aceb6cd0e2a9be  f7fb08efb6acf1f1  a5365806b2a8bb79  
		236108da77ea925f  05b3999d2f98d117  3df8de04953886c0  e0e22adf17e26585  b80923ff3895654f  
		96c10197f17df99f  5dbccf59bb65d77a  9b80ac75f86593e1  4bd3b1d3b8e02cd1  566a33192c948791  
		93c9822ea5481687  0fa65b2ea731bbcc  a4d0755d83e46ccb  100a04e8b5a2c36e  40ce64da0ad46cfb  
		3f2c04d32885ab30  d10237e7556f3308  91d67c4872538719  b2e35c93bf46b8ff  501180b5b95115e2  



	--Round 6--

		-Teta-

		c9e92f77bbc1a019  2361dc6be96a5410  89d3c5b69852ce79  453cc1f9d0fce7c0  c1bb6ca6521b5357  
		be9ad781be8d71bc  4341c611ce74ea00  2287f0dedd88e107  5225e3c971b273b4  dc84175fd8268d61  
		0b3adecc381a1a7c  1b4e90d55a89ec6d  84ff82afb0d5f426  f91478c5deb03ae0  32e707b9cc276fbf  
		0e325d756c2ff564  495404a246dd80db  bbaf5b87cb540b0c  a2cdcdfed3f2d55f  2443507aea6784d5  
		a2d7db88e1e248d3  97f0686bb483081f  8ea952923ae3e0de  00249585d916aece  349cb41559e2fdcc  



		-Rho-

		c9e92f77bbc1a019  46c3b8d7d2d4a820  6274f16da614b39e  9d0fce7c0453cc1f  3290da9abe0ddb65  
		e8d71bcbe9ad781b  4ea004341c611ce7  a1fc37b7623841c8  da2912f1e4b8d939  75fd8268d61dc841  
		59d6f661c0d0d3e0  3a43556a27b1b46d  afa13427fc157d86  8bbd6075c1f228f1  13b7df997383dce6  
		5feac81c64baead8  b01b692a809448db  adc3e5aa05865dd7  bfda7e5aabf459b9  43507aea6784d524  
		6e238789234e8b5f  5fc1a1aed20c207e  d1d52a52475c7c1b  ce00249585d916ae  2d055678bf730d27  



		-Pi-

		c9e92f77bbc1a019  4ea004341c611ce7  afa13427fc157d86  bfda7e5aabf459b9  2d055678bf730d27  
		9d0fce7c0453cc1f  75fd8268d61dc841  59d6f661c0d0d3e0  b01b692a809448db  d1d52a52475c7c1b  
		46c3b8d7d2d4a820  a1fc37b7623841c8  8bbd6075c1f228f1  43507aea6784d524  6e238789234e8b5f  
		3290da9abe0ddb65  e8d71bcbe9ad781b  3a43556a27b1b46d  adc3e5aa05865dd7  ce00249585d916ae  
		6274f16da614b39e  da2912f1e4b8d939  13b7df997383dce6  5feac81c64baead8  5fc1a1aed20c207e  



		-Chi-

		68e81f745bd5c119  5efa4e6c1f811cde  afa43407e8167980  7f32575dab74f9a1  2b055678bb5311c1  
		950dba7d0493dfbf  d5f48b62d619c05a  1812f4318798e7e0  bc11ad068097c8df  b1252a5295507c5b  
		4cc2f89753168011  e1bc2d3d443c94cc  a79ee574c1b822aa  439042bcb714f504  cf1f80a90366ca97  
		20909ebab81d5f01  6d57bb4be9ab3189  7843557fa7e8b645  9d533fa03f829496  064725d4c47936b4  
		63e23c65b517b758  966112f5e080fb21  13b6fe3be187dcc0  7fde985d40aa7958  c7c8a33e92a4685f  



		-Iota-

		e8e81f74dbd54198  5efa4e6c1f811cde  afa43407e8167980  7f32575dab74f9a1  2b055678bb5311c1  
		950dba7d0493dfbf  d5f48b62d619c05a  1812f4318798e7e0  bc11ad068097c8df  b1252a5295507c5b  
		4cc2f89753168011  e1bc2d3d443c94cc  a79ee574c1b822aa  439042bcb714f504  cf1f80a90366ca97  
		20909ebab81d5f01  6d57bb4be9ab3189  7843557fa7e8b645  9d533fa03f829496  064725d4c47936b4  
		63e23c65b517b758  966112f5e080fb21  13b6fe3be187dcc0  7fde985d40aa7958  c7c8a33e92a4685f  



	--Round 7--

		-Teta-

		5f50e606a972bdbf  db14ad204e68462f  fa5c4bbfab27a808  2d8f2d89b45cdc23  ad90b7e15a39d4ab  
		22b5430f76342398  501a682e87f09aab  4dea8b89c4a93668  eeacd7d29fbfed5d  37b0cbcb743ab931  
		fb7a01e521b17c36  6452ce7115d5ce3d  f2669acc8289f322  112d3868a83cd086  498a6130e20c0ffd  
		972867c8cabaa326  e8b95807b8426b78  2dbb2ac7e4d967cd  cfee457420aab114  80d2c44d2513f3de  
		d45ac517c7b04b7f  138ff1b9b169a1d0  464e8183a2b60d48  2d63e2895f825cda  415d42a773cead35  



		-Rho-

		5f50e606a972bdbf  b6295a409cd08c5f  3e9712efeac9ea02  9b45cdc232d8f2d8  0ad1cea55d6c85bf  
		634239822b5430f7  09aab501a682e87f  7aa2e2712a4d9a13  aef7566be94fdff6  bcb743ab93137b0c  
		dbd00f290d8be1b7  4b39c4575738f591  4f99179334d66414  d15079a10c225a70  0607fea4c5309871  
		75464d2e50cf9195  4d6f1d172b00f708  9563f26cb3e696dd  ae8415562299fdc8  d2c44d2513f3de80  
		145f1ec12dff516b  4e3fc6e6c5a68740  08c9d0307456c1a9  da2d63e2895f825c  50a9dcf3ab4d5057  



		-Pi-

		5f50e606a972bdbf  09aab501a682e87f  4f99179334d66414  ae8415562299fdc8  50a9dcf3ab4d5057  
		9b45cdc232d8f2d8  bcb743ab93137b0c  dbd00f290d8be1b7  4d6f1d172b00f708  08c9d0307456c1a9  
		b6295a409cd08c5f  7aa2e2712a4d9a13  d15079a10c225a70  d2c44d2513f3de80  145f1ec12dff516b  
		0ad1cea55d6c85bf  634239822b5430f7  4b39c4575738f591  9563f26cb3e696dd  da2d63e2895f825c  
		3e9712efeac9ea02  aef7566be94fdff6  0607fea4c5309871  75464d2e50cf9195  4e3fc6e6c5a68740  



		-Chi-

		1941e494b926b9bf  a9aeb545a48b71b7  1fb0df32bd926403  a1d4375222ab5060  5003cdf2adcd1017  
		d805c1c23e50726b  b89853bdb1136d04  db50cf0959dde116  de6b10d52988c558  2c7bd219f555c8ad  
		377943c098f2cc3f  7826e675399c1e93  d54b6b61202e5b1b  70e40d2583f35294  5cddbef00ff2436b  
		02e80af0094440bf  f7000baa8b9232bb  0135c5d55f21f591  95b37e69e7c6937e  bb2f52e0ab4fb21c  
		3e97ba6beef9ea03  dfb75761f980de72  0c3e7c6440109e31  45c65d277a86f997  ce5f82e6c4a092b4  



		-Iota-

		9941e494b92639b6  a9aeb545a48b71b7  1fb0df32bd926403  a1d4375222ab5060  5003cdf2adcd1017  
		d805c1c23e50726b  b89853bdb1136d04  db50cf0959dde116  de6b10d52988c558  2c7bd219f555c8ad  
		377943c098f2cc3f  7826e675399c1e93  d54b6b61202e5b1b  70e40d2583f35294  5cddbef00ff2436b  
		02e80af0094440bf  f7000baa8b9232bb  0135c5d55f21f591  95b37e69e7c6937e  bb2f52e0ab4fb21c  
		3e97ba6beef9ea03  dfb75761f980de72  0c3e7c6440109e31  45c65d277a86f997  ce5f82e6c4a092b4  



	--Round 8--

		-Teta-

		4fda2d053d8e5f1d  daade69fea1337b5  e04b90acc8a5d061  16de178388f0933c  1ba86805482fe7ee  
		0e9e0853baf814c0  cb9b0067ff8b2b06  24ab80972cea5574  6961300483d30604  67d077ee10b73f54  
		e1e28a511c5aaa94  0b25b5af77045891  2ab024ff5519ef79  c7ee2df429a891c8  17761b07ea10b492  
		d473c3618dec2614  84035870c50a74b9  fece8a4b2a1641f3  22b95eb84d9d5022  f084f7174ead45e5  
		e80c73fa6a518ca8  acb404bbb7189870  f3c533fa35272a53  f2cc7df6d0dd3acb  85f427112142654d  



		-Rho-

		4fda2d053d8e5f1d  b55bcd3fd4266f6b  7812e42b32297418  388f0933c16de178  2a417f3f70dd4340  
		af814c00e9e0853b  b2b06cb9b0067ff8  2ae025cb3a955d09  0234b0980241e983  7ee10b73f5467d07  
		0f145288e2d554a7  96d6bddc1162442c  cf7bc9558127faa8  e8535123918fdc5b  085a490bbb0d83f5  
		d84c29a8e786c31b  4e9730806b0e18a1  4525950b20f9ff67  d709b3aa0444572b  84f7174ead45e5f0  
		cfe9a94632a3a031  b2d012eedc6261c2  7e78a67f46a4e54a  cbf2cc7df6d0dd3a  09c448509953617d  



		-Pi-

		4fda2d053d8e5f1d  b2b06cb9b0067ff8  cf7bc9558127faa8  d709b3aa0444572b  09c448509953617d  
		388f0933c16de178  7ee10b73f5467d07  0f145288e2d554a7  4e9730806b0e18a1  7e78a67f46a4e54a  
		b55bcd3fd4266f6b  2ae025cb3a955d09  e8535123918fdc5b  84f7174ead45e5f0  cfe9a94632a3a031  
		2a417f3f70dd4340  af814c00e9e0853b  96d6bddc1162442c  4525950b20f9ff67  cbf2cc7df6d0dd3a  
		7812e42b32297418  0234b0980241e983  085a490bbb0d83f5  d84c29a8e786c31b  b2d012eedc6261c2  



		-Chi-

		0291ac413cafdf1d  a2b05e13b4467afb  c7bf81051834dafc  911396af20c8492b  b9e408e81953419d  
		399b59bbc3fce1d8  3e622b73fc4c7507  3f7cd4f7e675b1ed  4e103980ea471891  3818a43f72a6f94d  
		75489d1f552cef39  2e44238716d57ca9  a35bf923832ddc5a  b4e553776941aaba  c54989861832b031  
		3a17cee360df0344  eea04c03c9793e78  1c04f5a8c7624434  6524a60920f4fd27  4e72cc7d7ff05901  
		7058ad288b25766c  d230903846c3a989  2aca5b4da36da335  904ecda9c58fd703  b0f4027edc22e841  



		-Iota-

		0291ac413cafdf97  a2b05e13b4467afb  c7bf81051834dafc  911396af20c8492b  b9e408e81953419d  
		399b59bbc3fce1d8  3e622b73fc4c7507  3f7cd4f7e675b1ed  4e103980ea471891  3818a43f72a6f94d  
		75489d1f552cef39  2e44238716d57ca9  a35bf923832ddc5a  b4e553776941aaba  c54989861832b031  
		3a17cee360df0344  eea04c03c9793e78  1c04f5a8c7624434  6524a60920f4fd27  4e72cc7d7ff05901  
		7058ad288b25766c  d230903846c3a989  2aca5b4da36da335  904ecda9c58fd703  b0f4027edc22e841  



	--Round 9--

		-Teta-

		a4af52aa4e71af7f  7c115155c7057e31  74a02429443a9c11  8822423e99806a22  2f72894cdcedd805  
		9fa5a750b1229130  e0c324358f0f71cd  8c6371dbba7bf700  5721ed11530f3b98  ae8e259bb71860d5  
		d37663f427f29fd1  f0e52cc165967863  10445c0fdf239ab7  add487e6d00989b3  53df0822dd8c29a9  
		9c293008120173ac  30014345ba3a3ab2  af1b50849b6c02d9  7c15729899bcde2e  d8e44dd9ba4ec099  
		d66653c3f9fb0684  0c919f7e3580ad43  99d5fe61ff63e5d8  897f19387cc7f40a  266283da199c71d9  



		-Rho-

		a4af52aa4e71af7f  f822a2ab8e0afc62  5d28090a510ea704  e99806a228822423  66e76ec0297b944a  
		12291309fa5a750b  f71cde0c324358f0  18dc76ee9efdc023  cc2b90f688a9879d  59bb71860d5ae8e2  
		9bb31fa13f94fe8e  94b3059659e18fc3  1cd5b88222e07ef9  cda01313675ba90f  c614d4a9ef84116e  
		02e7593852601024  475646002868b747  a8424db6016cd78d  5313379bc5cf82ae  e44dd9ba4ec099d8  
		4f0fe7ec1a135999  32467df8d602b50c  133abfcc3fec7cbb  0a897f19387cc7f4  a0f686671c764998  



		-Pi-

		a4af52aa4e71af7f  f71cde0c324358f0  1cd5b88222e07ef9  5313379bc5cf82ae  a0f686671c764998  
		e99806a228822423  59bb71860d5ae8e2  9bb31fa13f94fe8e  475646002868b747  133abfcc3fec7cbb  
		f822a2ab8e0afc62  18dc76ee9efdc023  cda01313675ba90f  e44dd9ba4ec099d8  4f0fe7ec1a135999  
		66e76ec0297b944a  12291309fa5a750b  94b3059659e18fc3  a8424db6016cd78d  0a897f19387cc7f4  
		5d28090a510ea704  cc2b90f688a9879d  c614d4a9ef84116e  02e7593852601024  32467df8d602b50c  



		-Chi-

		ac6e72284ed18976  b41ed915f74cd8f6  bc3138e63ad037e9  571a671387ce24c9  f3e60a632c741918  
		6b9808831a06322f  1dff31860d32e9a3  8b9ba66d2810b636  afd64622286ab747  0319cec83ab4b47b  
		3d02a3baef08d56e  3891be46967dd0f3  c6a235577748e90e  546dd9b9cac83dba  4fd3b3a80ae65998  
		e2756a5628da1e8a  3a695b29fa562507  963a379f61f18fb3  cc244d76006fc787  1a816e10ea7ca6f5  
		5f3c4d03360ab766  ccc899e698c9879d  f614f0696b86b466  4fcf593a536c1224  b245ed0c5ea3b595  



		-Iota-

		ac6e72284ed189fe  b41ed915f74cd8f6  bc3138e63ad037e9  571a671387ce24c9  f3e60a632c741918  
		6b9808831a06322f  1dff31860d32e9a3  8b9ba66d2810b636  afd64622286ab747  0319cec83ab4b47b  
		3d02a3baef08d56e  3891be46967dd0f3  c6a235577748e90e  546dd9b9cac83dba  4fd3b3a80ae65998  
		e2756a5628da1e8a  3a695b29fa562507  963a379f61f18fb3  cc244d76006fc787  1a816e10ea7ca6f5  
		5f3c4d03360ab766  ccc899e698c9879d  f614f0696b86b466  4fcf593a536c1224  b245ed0c5ea3b595  



	--Round 10--

		-Teta-

		7425ae03fb10e81d  d1efff058dbdb9ac  85757574589283fb  e9ede306b9c2b8fb  53d71a2e5004ec29  
		b3d3d4a8afc753cc  780e179677c388f9  b2dfebff4a520224  1121c23716662b75  a328de8546c4414a  
		e5497f915ac9b48d  5d609856ec8cb1a9  ffe678c5150a5d1c  ea9a5dacf4c4a188  efe2a3e57696aca9  
		3a3eb67d9d1b7f69  5f987d3980a7445d  af7e7a0d03b33ba1  72d3c9633e635bb5  bab07e5d960c53c4  
		8777912883cbd685  a939bff6e238e6c7  cf50bdfb09c40074  f138dd2f6d608e16  1274fd4122d340a4  



		-Rho-

		7425ae03fb10e81d  a3dffe0b1b7b7359  e15d5d5d1624a0fe  6b9c2b8fbe9ede30  728027614a9eb8d1  
		fc753ccb3d3d4a8a  388f9780e179677c  b7faffd29480892c  ba8890e11b8b3315  e8546c4414aa328d  
		2a4bfc8ad64da46f  82615bb232c6a575  52e8e7ff33c628a8  59e9894311d534bb  4b5654f7f151f2bb  
		36fed2747d6cfb3a  e88babf30fa73014  3d0681d99dd0d7bf  2c67cc6b76ae5a79  b07e5d960c53c4ba  
		44a20f2f5a161dde  a4e6ffdb88e39b1e  99ea17bf6138800e  16f138dd2f6d608e  3f5048b4d029049d  



		-Pi-

		7425ae03fb10e81d  388f9780e179677c  52e8e7ff33c628a8  2c67cc6b76ae5a79  3f5048b4d029049d  
		6b9c2b8fbe9ede30  e8546c4414aa328d  2a4bfc8ad64da46f  e88babf30fa73014  99ea17bf6138800e  
		a3dffe0b1b7b7359  b7faffd29480892c  59e9894311d534bb  b07e5d960c53c4ba  44a20f2f5a161dde  
		728027614a9eb8d1  fc753ccb3d3d4a8a  82615bb232c6a575  3d0681d99dd0d7bf  16f138dd2f6d608e  
		e15d5d5d1624a0fe  ba8890e11b8b3315  4b5654f7f151f2bb  36fed2747d6cfb3a  a4e6ffdb88e39b1e  



		-Chi-

		3645ce7ce996e09d  14889f80a551352d  41f8e76bb3c72c2c  6c426a685dbeb279  37da5934d04003fd  
		6997bb057cdb5a52  28d46f351d08229d  3b2be886b6552465  8a9f83f391216e24  19aa53ff6118a083  
		ebdefe0a1a2e47ca  17ecab469882492c  1d698b6a43d12dff  1323ad960d3aa6bb  50820effde9695fa  
		70806451485c1da4  c173bc82b02d1800  809063b610eb8575  5d0686f9dd424fee  9a8420571a4c2284  
		a00b194bf6746054  8e2012e117a73a15  cb56797c71d2f2bf  77e7d2706b68dbda  be667f7b8168881f  



		-Iota-

		3645ce7c69966094  14889f80a551352d  41f8e76bb3c72c2c  6c426a685dbeb279  37da5934d04003fd  
		6997bb057cdb5a52  28d46f351d08229d  3b2be886b6552465  8a9f83f391216e24  19aa53ff6118a083  
		ebdefe0a1a2e47ca  17ecab469882492c  1d698b6a43d12dff  1323ad960d3aa6bb  50820effde9695fa  
		70806451485c1da4  c173bc82b02d1800  809063b610eb8575  5d0686f9dd424fee  9a8420571a4c2284  
		a00b194bf6746054  8e2012e117a73a15  cb56797c71d2f2bf  77e7d2706b68dbda  be667f7b8168881f  



	--Round 11--

		-Teta-

		a5927e4593de0599  28f655735aee9129  9b2533f3db898d00  f41e42149311d83b  21caa563c559ecd7  
		fa400b3c86933f5f  14aaa5c6e2b78699  e1f63c1ede1b8549  12c3ab8f5f8e0466  0fbaafa874014fa9  
		78094e33e06622c7  2b9261b5673ded28  c7b45ff22b9f8cd3  8b7f85eac395ccf9  4692f2a8cb8f7ad0  
		e357d468b21478a9  fd0d76714f92bc04  5a4db72e78a52459  c55aae8513ed25ac  8c94dc000f55cdae  
		33dca9720c3c0559  b25ed812e8189e11  118bade4199c5393  efbbfa0ca5c7b198  a876832c94716735  



		-Rho-

		a5927e4593de0599  51ecaae6b5dd2252  26c94cfcf6e26340  49311d83bf41e421  1e2acf66b90e552b  
		6933f5ffa400b3c8  7869914aaa5c6e2b  7d8f07b786e15278  330961d5c7afc702  fa874014fa90fbaa  
		c04a719f0331163b  4986d59cf7b4a0ae  fc669e3da2ff915c  d5872b99f316ff0b  c7bd682349795465  
		28f153c6afa8d164  57809fa1aece29f2  db973c52922cad26  d0a27da4b598ab55  94dc000f55cdae8c  
		a5c830f01564cf72  c97b604ba0627846  623175bc83338a72  98efbbfa0ca5c7b1  a0cb251c59cd6a1d  



		-Pi-

		a5927e4593de0599  7869914aaa5c6e2b  fc669e3da2ff915c  d0a27da4b598ab55  a0cb251c59cd6a1d  
		49311d83bf41e421  fa874014fa90fbaa  c04a719f0331163b  57809fa1aece29f2  623175bc83338a72  
		51ecaae6b5dd2252  7d8f07b786e15278  d5872b99f316ff0b  94dc000f55cdae8c  a5c830f01564cf72  
		1e2acf66b90e552b  6933f5ffa400b3c8  4986d59cf7b4a0ae  db973c52922cad26  98efbbfa0ca5c7b1  
		26c94cfcf6e26340  330961d5c7afc702  c7bd682349795465  28f153c6afa8d164  c97b604ba0627846  



		-Chi-

		21947070937d94cd  78e9f0cabf5c442a  dc2f9e25eabad154  d5b227e5378aaed5  f8a2a41671cd003f  
		49792c08be60e030  ed07ce34565ed26a  e07b11830200943b  5e8097a2928e4df3  d0b735a8c3a391f8  
		d1ec82eec4cb8f51  7dd707b1822852fc  f4871b69f336be79  c4f88a09f5548e8c  89cb35e117449f5a  
		1eaecf66eaba550d  fb22ddbda408bec8  49ee5634fb35e23f  dd9778562326bd2c  f9fe8b6308a56571  
		e27d44defeb27325  1b497211612f4602  06b7482a493b7c67  0e715f72f928d264  d87b414aa16ffc44  



		-Iota-

		21947070137d94c7  78e9f0cabf5c442a  dc2f9e25eabad154  d5b227e5378aaed5  f8a2a41671cd003f  
		49792c08be60e030  ed07ce34565ed26a  e07b11830200943b  5e8097a2928e4df3  d0b735a8c3a391f8  
		d1ec82eec4cb8f51  7dd707b1822852fc  f4871b69f336be79  c4f88a09f5548e8c  89cb35e117449f5a  
		1eaecf66eaba550d  fb22ddbda408bec8  49ee5634fb35e23f  dd9778562326bd2c  f9fe8b6308a56571  
		e27d44defeb27325  1b497211612f4602  06b7482a493b7c67  0e715f72f928d264  d87b414aa16ffc44  



	--Round 12--

		-Teta-

		b16a33c143877b83  322eb04791865339  ec253213500be8e7  528e71d887c9e4ca  ef2a1320002eb9c1  
		d9876fb9ee9a0f74  a7c08eb97884c579  d071bdb5b8b1ad88  d9bcc19f22cd07ec  c73f829eb2402806  
		4112c15f94316015  3710473cacf245ef  c48db75f498787ca  43c4dc344517c493  9e4382d766a726a4  
		8e508cd7ba40ba49  b1e59d308ad2a9db  79e4fa024184db8c  5aab2e6b9365f733  ee763c557946dc8f  
		7283076fae489c61  518e329c4ff55111  36bde41cf38a45d4  894d094f496b987b  cff3f67cd08c45ba  



		-Rho-

		b16a33c143877b83  645d608f230ca672  fb094c84d402fa39  887c9e4ca528e71d  000175ce0f795099  
		e9a0f74d9876fb9e  4c579a7c08eb9788  1c6f6d6e2c6b6234  f66cde60cf916683  29eb2402806c73f8  
		08960afca18b00aa  411cf2b3c917bcdc  3c3e56246dbafa4c  688a2f89268789b8  5393524f21c16bb3  
		8174931ca119af74  553b763cb3a6115a  7d0120c26dc63cf2  cd726cbee66b5565  763c557946dc8fee  
		1dbeb9227185ca0c  4638ca713fd54445  86d7bc839e7148ba  7b894d094f496b98  fd9f3423116eb3fc  



		-Pi-

		b16a33c143877b83  4c579a7c08eb9788  3c3e56246dbafa4c  cd726cbee66b5565  fd9f3423116eb3fc  
		887c9e4ca528e71d  29eb2402806c73f8  08960afca18b00aa  553b763cb3a6115a  86d7bc839e7148ba  
		645d608f230ca672  1c6f6d6e2c6b6234  688a2f89268789b8  763c557946dc8fee  1dbeb9227185ca0c  
		000175ce0f795099  e9a0f74d9876fb9e  411cf2b3c917bcdc  7d0120c26dc63cf2  7b894d094f496b98  
		fb094c84d402fa39  f66cde60cf916683  5393524f21c16bb3  8174931ca119af74  4638ca713fd54445  



		-Chi-

		814277c1269713c7  8d17b2e68aaa92a9  0cb346257cbe58d4  cd126f7ea4ea1d66  b18abc1f190637f4  
		886894b084abe71f  7cc25002924862a8  8a52827fadda480a  5d13747092aeb65f  a7549c819e35585a  
		04dd620e21882ffa  0a5b3d1e6c336472  6108878b1786c9b8  167d15f444d4ab9c  059cb4427de68a08  
		001d757c4e7854d9  d5a1f70dbcb6fbbc  4394bfbacb1effd4  7d0110046df62cf3  9229cf08df4fc09e  
		fa9a4c8bf442f309  76085f704f89e2c7  159b1a2e3f052bb2  38759798611b154c  425c5811344440c7  



		-Iota-

		814277c1a697934c  8d17b2e68aaa92a9  0cb346257cbe58d4  cd126f7ea4ea1d66  b18abc1f190637f4  
		886894b084abe71f  7cc25002924862a8  8a52827fadda480a  5d13747092aeb65f  a7549c819e35585a  
		04dd620e21882ffa  0a5b3d1e6c336472  6108878b1786c9b8  167d15f444d4ab9c  059cb4427de68a08  
		001d757c4e7854d9  d5a1f70dbcb6fbbc  4394bfbacb1effd4  7d0110046df62cf3  9229cf08df4fc09e  
		fa9a4c8bf442f309  76085f704f89e2c7  159b1a2e3f052bb2  38759798611b154c  425c5811344440c7  



	--Round 13--

		-Teta-

		f23b9b0bb894eca3  19aac6e456d674d1  d285236e07aaa7e9  fa9a8eb1b5afdb99  9c6344681466f61d  
		fb11787a9aa898f0  e87f24004e3484d0  5464e734d6ceb737  6a9b95bf83eb70a0  8abd64f6935599b3  
		77a48ec43f8b5015  9ee6491cb04f820a  bf3ee2c06c923685  21f5f43b55916d63  28754c3570864be1  
		736499b6507b2b36  411c830f60ca1dc4  9da2daf1b00a00e9  4a89f1cb7cb3ea0c  bfc0377fd22f0177  
		89e3a041ea418ce6  e2b52b7293f504bf  cbad7f654411d48f  0ffd7657705ed3b3  6fb5a0663924812e  



		-Rho-

		f23b9b0bb894eca3  33558dc8adace9a2  74a148db81eaa9fa  1b5afdb99fa9a8eb  40a337b0ece31a23  
		aa898f0fb11787a9  484d0e87f24004e3  1939cd35b3adcdd5  50354dcadfc1f5b8  4f6935599b38abd6  
		bd247621fc5a80ab  992472c13e082a7b  91b42df9f7160364  76ab22dac643ebe8  4325f0943aa61ab8  
		f6566ce6c9336ca0  43b888239061ec19  6d78d8050074ced1  396f967d4189513e  c0377fd22f0177bf  
		8107a906339a278e  8ad4adca4fd412ff  f975afeca8823a91  b30ffd7657705ed3  68198e49204b9bed  



		-Pi-

		f23b9b0bb894eca3  484d0e87f24004e3  91b42df9f7160364  396f967d4189513e  68198e49204b9bed  
		1b5afdb99fa9a8eb  4f6935599b38abd6  bd247621fc5a80ab  43b888239061ec19  f975afeca8823a91  
		33558dc8adace9a2  1939cd35b3adcdd5  76ab22dac643ebe8  c0377fd22f0177bf  8107a906339a278e  
		40a337b0ece31a23  aa898f0fb11787a9  992472c13e082a7b  6d78d8050074ced1  b30ffd7657705ed3  
		74a148db81eaa9fa  50354dcadfc1f5b8  4325f0943aa61ab8  f6566ce6c9336ca0  8ad4adca4fd412ff  



		-Chi-

		638bba73bd82efa7  60069c83f2c954f9  d1a425f9d75489a5  ab4d877fd91d353c  605d8acd620b9bad  
		ab5ebf99fbeba8c2  0df1bd5b9b19c7c6  056151edd4d8922b  41b2d83287486c73  bd54afaca8923985  
		55d7af02e9eecb8a  992d90359aadd9c2  77aba2ded6d9ebe8  f2677b1aa325bf9f  892fe933219b23db  
		51874770e2eb3271  ced1070bb1634329  0b2357b369083a79  2dd8da85a8f7cef1  190775794664db5b  
		77a1f8cfa1cca3fa  e46741a81ed091b8  4ba5719c3c6208e7  82772cf74919c5a0  8ac0a8ca11d546ff  



		-Iota-

		e38bba73bd82ef2c  60069c83f2c954f9  d1a425f9d75489a5  ab4d877fd91d353c  605d8acd620b9bad  
		ab5ebf99fbeba8c2  0df1bd5b9b19c7c6  056151edd4d8922b  41b2d83287486c73  bd54afaca8923985  
		55d7af02e9eecb8a  992d90359aadd9c2  77aba2ded6d9ebe8  f2677b1aa325bf9f  892fe933219b23db  
		51874770e2eb3271  ced1070bb1634329  0b2357b369083a79  2dd8da85a8f7cef1  190775794664db5b  
		77a1f8cfa1cca3fa  e46741a81ed091b8  4ba5719c3c6208e7  82772cf74919c5a0  8ac0a8ca11d546ff  



	--Round 14--

		-Teta-

		98b3450eb8acc3a2  9cf3681f1e16cce7  61a776fdb2a7caca  c76754592044cf6b  a1227247a7d54df2  
		d06640e4fec5844c  f10449c777c65fd8  b56202e9b12bd144  2d980b147e119624  7c2b57266d4cefda  
		2eef507fecc0e704  65d864a9767241dc  c7a8f1dab32aa887  9e4da83c5a7c45c8  485011b9e445f584  
		2abfb80de7c51eff  3224f3975dbcdb37  bb2004b70cfb7916  41f209a351ae34a6  d8788df383ba0d04  
		0c9907b2a4e28f74  1892b534f20f09a6  fba6229859914b88  ee5dffd1b0403ff7  4bbf5040d40b90a0  



		-Rho-

		98b3450eb8acc3a2  39e6d03e3c2d99cf  9869ddbf6ca9f2b2  92044cf6bc767545  3d3eaa6f95091392  
		ec5844cd06640e4f  65fd8f10449c777c  5880ba6c4af4512d  1216cc058a3f08cb  7266d4cefda7c2b5  
		777a83ff66073821  6192a5d9c9077197  55443e3d478ed599  78b4f88b913c9b50  22fac2242808dcf2  
		8a3dfe557f701bcf  9b66e6449e72ebb7  025b867dbc8b5d90  346a35c694c83e41  788df383ba0d04d8  
		1eca938a3dd03264  624ad4d3c83c2698  1f74c4530b322971  f7ee5dffd1b0403f  d4103502e42812ef  



		-Pi-

		98b3450eb8acc3a2  65fd8f10449c777c  55443e3d478ed599  346a35c694c83e41  d4103502e42812ef  
		92044cf6bc767545  7266d4cefda7c2b5  777a83ff66073821  9b66e6449e72ebb7  1f74c4530b322971  
		39e6d03e3c2d99cf  5880ba6c4af4512d  78b4f88b913c9b50  788df383ba0d04d8  1eca938a3dd03264  
		3d3eaa6f95091392  ec5844cd06640e4f  6192a5d9c9077197  025b867dbc8b5d90  f7ee5dffd1b0403f  
		9869ddbf6ca9f2b2  1216cc058a3f08cb  22fac2242808dcf2  8a3dfe557f701bcf  624ad4d3c83c2698  



		-Chi-

		88b37523bbae4323  45d78ed2d4dc5d3c  95543e3d27aed537  3cc975ca8c4cff41  b15cbf12a03826b3  
		971c4fc7be764d45  fa62b0ce65d70123  736a83ec67073861  1b66eee02a36bfb3  7f16545b4ab3abc1  
		19d290bdad25139f  5889b96c60f555a5  7ef6f88394eca974  59a9b3b7ba208d53  5ecab9ca7f007244  
		3cbc0b7f5c0a6202  ee1146e932ec024f  9436fc5b883771b8  0a4b247db8824e10  37ae197fd3d44c72  
		b881df9f4ca92682  9a13f054dd4f0bc6  42b8c2a6a804f8e2  121cf7795bf1cbed  605cd4d34a2a2ed1  



		-Iota-

		08b37523bbaec3aa  45d78ed2d4dc5d3c  95543e3d27aed537  3cc975ca8c4cff41  b15cbf12a03826b3  
		971c4fc7be764d45  fa62b0ce65d70123  736a83ec67073861  1b66eee02a36bfb3  7f16545b4ab3abc1  
		19d290bdad25139f  5889b96c60f555a5  7ef6f88394eca974  59a9b3b7ba208d53  5ecab9ca7f007244  
		3cbc0b7f5c0a6202  ee1146e932ec024f  9436fc5b883771b8  0a4b247db8824e10  37ae197fd3d44c72  
		b881df9f4ca92682  9a13f054dd4f0bc6  42b8c2a6a804f8e2  121cf7795bf1cbed  605cd4d34a2a2ed1  



	--Round 15--

		-Teta-

		e9bd8996cb615e58  db1b0734846f1e3c  cac9f8c3e7a145bc  fc6a303b60d10912  d38db9f82facdd0f  
		7612b372ceb9d0b7  64ae392835644223  2cf74512a708a8ea  dbc5ab11c6ab49e0  1dc752b1c527507d  
		f8dc6c08ddea8e6d  c645308a304616a5  216b3e7d54e339ff  990af64656bd7b00  3c1bbf20f09489f8  
		ddb2f7ca2cc5fff0  70ddcf0f625f414f  cbab3aa54838e133  cae8618c541fb843  557f1f955c40b7ce  
		598f232a3c66bb70  04df79b28dfc48c6  1d250458680b6869  d2bfb288b76c3dbe  028dd239c5bed56d  



		-Rho-

		e9bd8996cb615e58  b6360e6908de3c79  32b27e30f9e8516f  b60d10912fc6a303  c17d66e87e9c6dcf  
		eb9d0b77612b372c  4422364ae3928356  3dd144a9c22a3a8b  f06de2d588e355a4  2b1c527507d1dc75  
		c6e36046ef54736f  14c228c1185a9719  19cff90b59f3eaa7  8cad7af6013215ec  4a44fc1e0ddf9078  
		8bffe1bb65ef9459  e829ee1bb9e1ec4b  9d52a41c7099e5d5  318a83f708795d0c  7f1f955c40b7ce55  
		8ca8f19aedc1663c  137de6ca37f12318  23a4a08b0d016d0d  bed2bfb288b76c3d  748e716fb55b40a3  



		-Pi-

		e9bd8996cb615e58  4422364ae3928356  19cff90b59f3eaa7  318a83f708795d0c  748e716fb55b40a3  
		b60d10912fc6a303  2b1c527507d1dc75  c6e36046ef54736f  e829ee1bb9e1ec4b  23a4a08b0d016d0d  
		b6360e6908de3c79  3dd144a9c22a3a8b  8cad7af6013215ec  7f1f955c40b7ce55  8ca8f19aedc1663c  
		c17d66e87e9c6dcf  eb9d0b77612b372c  14c228c1185a9719  9d52a41c7099e5d5  bed2bfb288b76c3d  
		32b27e30f9e8516f  f06de2d588e355a4  4a44fc1e0ddf9078  8bffe1bb65ef9459  137de6ca37f12318  



		-Chi-

		f0704097d30036f9  642234bee39a965e  5dcb8903ecf1ea04  b8bb0b6742594354  708c472795c9c1a5  
		72ee3093c7c28009  0314dc6c17705075  c56760c6eb54726b  7c20fe0b9b276e49  2ab4e2ef0d103179  
		361a343f09ce391d  4ec3c1a182aff09a  0c0d1a74ac7235c4  4d099b3d40a9d614  8569b11a2fe164be  
		d53f466866ccedde  628d8f6b01aa57e8  36423363907c9f31  dc7fe4540691e417  9452b6a589947e1d  
		38b2623afcf4d137  71d6e374e8c351a5  5a44fa5e1fcfb378  ab7df98bade7c43e  d330660f37f22798  



		-Iota-

		70704097d300b6fa  642234bee39a965e  5dcb8903ecf1ea04  b8bb0b6742594354  708c472795c9c1a5  
		72ee3093c7c28009  0314dc6c17705075  c56760c6eb54726b  7c20fe0b9b276e49  2ab4e2ef0d103179  
		361a343f09ce391d  4ec3c1a182aff09a  0c0d1a74ac7235c4  4d099b3d40a9d614  8569b11a2fe164be  
		d53f466866ccedde  628d8f6b01aa57e8  36423363907c9f31  dc7fe4540691e417  9452b6a589947e1d  
		38b2623afcf4d137  71d6e374e8c351a5  5a44fa5e1fcfb378  ab7df98bade7c43e  d330660f37f22798  



	--Round 16--

		-Teta-

		9d1f0e36e4061ae5  4c6521cf2c67a69c  9a452b73169e6cb9  707bb91b74805979  3c0ef47aa9007c8a  
		9f817e32f0c42c16  2b53c91dd88d60b7  02e9c2b6113bf4d6  b4e04c77adfe7464  663651b231d98c56  
		db757a9e3ec89502  6684d4d04d52c058  cb83b804561db379  85c929417670cc39  c9eb02471328d991  
		385008c951ca41c1  4aca9a1ace57672a  f1cc91136a13198c  14bf56283048fe3a  d8d005f8b55dc332  
		d5dd2c9bcbf27d28  5991f605273e6167  9dca582ee5a035c5  63bd4bf79b3ede13  9fb2d5520b3b9ab7  



		-Rho-

		9d1f0e36e4061ae5  98ca439e58cf4d38  66914adcc5a79b2e  b74805979707bb91  d54803e451e077a3  
		0c42c169f817e32f  d60b72b53c91dd88  ba70ad844efd3580  325a70263bd6ff3a  1b231d98c5666365  
		dbabd4f1f644a816  135341354b01619a  ed9bce5c1dc022b0  82ece198730b9252  946cc8e4f5812389  
		94838270a01192a3  ece54959534359ca  4889b5098cc678e6  c506091fc74297ea  d005f8b55dc332d8  
		b26f2fc9f4a35774  6647d8149cf9859d  b3b94b05dcb406b8  1363bd4bf79b3ede  b55482cee6ade7ec  



		-Pi-

		9d1f0e36e4061ae5  d60b72b53c91dd88  ed9bce5c1dc022b0  c506091fc74297ea  b55482cee6ade7ec  
		b74805979707bb91  1b231d98c5666365  dbabd4f1f644a816  ece54959534359ca  b3b94b05dcb406b8  
		98ca439e58cf4d38  ba70ad844efd3580  82ece198730b9252  d005f8b55dc332d8  b26f2fc9f4a35774  
		d54803e451e077a3  0c42c169f817e32f  135341354b01619a  4889b5098cc678e6  1363bd4bf79b3ede  
		66914adcc5a79b2e  325a70263bd6ff3a  946cc8e4f5812389  94838270a01192a3  6647d8149cf9859d  



		-Chi-

		b48f827ee54638d5  d60f73b6fe9348c2  ddcb4c9c3d6d42b4  cd0d052fc7408feb  f754f24ffe3c22e4  
		77c0c5f6a5073383  3f671490c46532ad  c8b3d6f57af0ae26  e8a54dcb5040e0cb  bb9a530d9cd446dc  
		9846038669cdcf6a  ea71b5a1423d1508  a086e6d0d32bd776  d885b8a3558f3ad0  905f83c9f29367f4  
		c65903f052e07733  44ca75617cd1fb4b  0031497738186782  8c81b7ad8ca639c7  1b617d425f8cbed2  
		e2b5c21c01a69baf  32d972363bc66f18  f62890e0e9692695  941380b8e1178881  760de836a6a9e18d  



		-Iota-

		348f827ee546b8d7  d60f73b6fe9348c2  ddcb4c9c3d6d42b4  cd0d052fc7408feb  f754f24ffe3c22e4  
		77c0c5f6a5073383  3f671490c46532ad  c8b3d6f57af0ae26  e8a54dcb5040e0cb  bb9a530d9cd446dc  
		9846038669cdcf6a  ea71b5a1423d1508  a086e6d0d32bd776  d885b8a3558f3ad0  905f83c9f29367f4  
		c65903f052e07733  44ca75617cd1fb4b  0031497738186782  8c81b7ad8ca639c7  1b617d425f8cbed2  
		e2b5c21c01a69baf  32d972363bc66f18  f62890e0e9692695  941380b8e1178881  760de836a6a9e18d  



	--Round 17--

		-Teta-

		6f679e21f3a1122c  ae25bc080fd71586  63be17e95ccc70ed  ed11cfff503b4c3f  ed203ed9a4979717  
		2c28d9a9b3e09978  474ddb2e35216fe9  76c68d801b519c7f  c8b9871bc73b231f  a1ee9f9bc67ff32f  
		c3ae1fd97f2a6591  925b7a1fb379484c  1ef3bda5b28ae52f  f8997273c2f4f904  8a2b4f5fa838d207  
		9db11faf4407ddc8  3ce0badf8d95a60f  be44120259b955db  ac9d7d7d1bddfa13  0115b1d405270b21  
		b95dde4317413154  4af3bd88ca82325c  485dcb9588c814cc  b40f4a68766c4b55  6c7924a0fc02547e  



		-Rho-

		6f679e21f3a1122c  5c4b78101fae2b0d  58ef85fa57331c3b  f503b4c3fed11cff  cd24bcb8bf6901f6  
		3e099782c28d9a9b  16fe9474ddb2e352  b1a36006d4671fdd  8fe45cc38de39d91  f9bc67ff32fa1ee9  
		1d70fecbf9532c8e  6de87ecde5213249  572978f79ded2d94  e785e9f209f132e4  1c6903c515a7afd4  
		0fbb913b623f5e88  b4c1e79c175bf1b2  09012cdcaaeddf22  afa37bbf427593af  15b1d405270b2101  
		790c5d04c552e577  2bcef6232a08c971  890bb972b1190299  55b40f4a68766c4b  49283f00951f9b1e  



		-Pi-

		6f679e21f3a1122c  16fe9474ddb2e352  572978f79ded2d94  afa37bbf427593af  49283f00951f9b1e  
		f503b4c3fed11cff  f9bc67ff32fa1ee9  1d70fecbf9532c8e  b4c1e79c175bf1b2  890bb972b1190299  
		5c4b78101fae2b0d  b1a36006d4671fdd  e785e9f209f132e4  15b1d405270b2101  790c5d04c552e577  
		cd24bcb8bf6901f6  3e099782c28d9a9b  6de87ecde5213249  09012cdcaaeddf22  55b40f4a68766c4b  
		58ef85fa57331c3b  8fe45cc38de39d91  1c6903c515a7afd4  0fbb913b623f5e88  2bcef6232a08c971  



		-Chi-

		2e66f6a2f3ec1ea8  be7c977c9fa27179  17217cf708e72584  89e4fb9e20d5938f  59b03f54990d7a4c  
		f1432cc337d03cf9  593d66eb34f2cfd9  147ae6a959532e87  c0c1e31d599bedd4  81b7fa4eb1330099  
		1a4ff1e0163e0b2d  a1937403f26d1edc  8f89e0f2c9a1f692  11f2f4153da72b09  d8ac5d020513f1a7  
		8cc4d4f59a4921b6  3e089792c84157b9  395c7dcfa5331200  81019c6c3de4de96  67bd0c4828f2f642  
		48e686fe47373e7f  8c76ccf9effbcd99  3c2d65c51da72ea5  5f9a90e3370c4a82  acceae22a2c848f1  



		-Iota-

		ae66f6a2f3ec1e28  be7c977c9fa27179  17217cf708e72584  89e4fb9e20d5938f  59b03f54990d7a4c  
		f1432cc337d03cf9  593d66eb34f2cfd9  147ae6a959532e87  c0c1e31d599bedd4  81b7fa4eb1330099  
		1a4ff1e0163e0b2d  a1937403f26d1edc  8f89e0f2c9a1f692  11f2f4153da72b09  d8ac5d020513f1a7  
		8cc4d4f59a4921b6  3e089792c84157b9  395c7dcfa5331200  81019c6c3de4de96  67bd0c4828f2f642  
		48e686fe47373e7f  8c76ccf9effbcd99  3c2d65c51da72ea5  5f9a90e3370c4a82  acceae22a2c848f1  



	--Round 18--

		-Teta-

		8ce7712ea9f55f50  2c722bbad1ddc525  ef14623aea639d55  97f7eddd4e7a3938  dd6c2c59c9f4d761  
		d3c2ab4f6dc97d81  cb33da2d7a8d7b85  ec4ff864bbd79656  ded2f55e37344763  056be943e1caadb4  
		38ce766c4c274a55  339dc8c5bc12aa80  77bcfe3f2b254e43  0fe1e256530881be  5c704e0f55ea5c8a  
		ae455379c05060ce  ac062b54863ee3e5  c169630247b7aad1  9f128a2f534b7421  e3611f45780b5b6f  
		6a6701721d2e7f07  1e78703fa18479c5  c4187b08ff239674  418986a059a3e035  2812bd2ff231e5dc  



		-Rho-

		8ce7712ea9f55f50  58e45775a3bb8a4a  7bc5188eba98e755  d4e7a393897f7edd  ce4fa6bb0eeb6162  
		dc97d81d3c2ab4f6  d7b85cb33da2d7a8  13fe192ef5e595bb  b1ef697aaf1b9a23  943e1caadb4056be  
		c673b362613a52a9  772316f04aaa00ce  2a721bbde7f1f959  aca611037c1fc3c4  f52e452e382707aa  
		a0c19d5c8aa6f380  dc7cb580c56a90c7  b18123dbd568e0b4  45ea696e8433e251  611f45780b5b6fe3  
		05c874b9fc1da99c  79e1c0fe8611e714  98830f611fe472ce  35418986a059a3e0  af4bfc8c79770a04  



		-Pi-

		8ce7712ea9f55f50  d7b85cb33da2d7a8  2a721bbde7f1f959  45ea696e8433e251  af4bfc8c79770a04  
		d4e7a393897f7edd  943e1caadb4056be  c673b362613a52a9  dc7cb580c56a90c7  98830f611fe472ce  
		58e45775a3bb8a4a  13fe192ef5e595bb  aca611037c1fc3c4  611f45780b5b6fe3  05c874b9fc1da99c  
		ce4fa6bb0eeb6162  dc97d81d3c2ab4f6  772316f04aaa00ce  b18123dbd568e0b4  35418986a059a3e0  
		7bc5188eba98e755  b1ef697aaf1b9a23  f52e452e382707aa  a0c19d5c8aa6f380  79e1c0fe8611e714  



		-Chi-

		a4a572226ba47701  92303cf13da0d5a8  80738f3d9eb5f15d  454e684c04b3b701  fc53f01d6d758aac  
		96a600d3a9457edc  8c32182a5f00d6f8  c6f0b9037bbe30a1  9818151245719cd6  989b13494de472ec  
		f4e45774aba1c80e  52e75d56f6a5b998  a8662182881b43d8  393b463c08f96da1  06d27cb3a859bc2d  
		ed6fa05b4c6b616a  5c17f916a96a54c6  73639ef46abb038e  7b8f05e2dbcaa0b6  25d1d18290593774  
		3fc51c8aaabce2dd  b12ef12a2d9b6a23  ac0e058c3c3603be  a2c5855cb22ef3c1  f9cba18e8312ff36  



		-Iota-

		a4a572226ba4f70b  92303cf13da0d5a8  80738f3d9eb5f15d  454e684c04b3b701  fc53f01d6d758aac  
		96a600d3a9457edc  8c32182a5f00d6f8  c6f0b9037bbe30a1  9818151245719cd6  989b13494de472ec  
		f4e45774aba1c80e  52e75d56f6a5b998  a8662182881b43d8  393b463c08f96da1  06d27cb3a859bc2d  
		ed6fa05b4c6b616a  5c17f916a96a54c6  73639ef46abb038e  7b8f05e2dbcaa0b6  25d1d18290593774  
		3fc51c8aaabce2dd  b12ef12a2d9b6a23  ac0e058c3c3603be  a2c5855cb22ef3c1  f9cba18e8312ff36  



	--Round 19--

		-Teta-

		591d7eabd1ce737f  e56cbc2dc50c13ee  5be08934cfff5f72  08c73b5f08292d4a  e9ef796852851b71  
		6b1e0c5a132ffaa8  fb6e98f6a7ac10be  1d63bf0a2af49e8e  d591460149eb069d  8d279a3c7214e331  
		095c5bfd11cb4c7a  25bbdd8a0e097fde  73f5278bd951edf7  74b2152f0463f7ea  136ef5c697a92df0  
		10d7acd2f601e51e  2b4b79ca51c69280  a8f098fd3bf1ada1  360656f1d7503afd  306d58f7afa9a6a9  
		c27d100310d666a9  c67271f6d537ac65  779d03856d7cad91  ef4cd64fbeb4698a  ec7728fbbce26eeb  



		-Rho-

		591d7eabd1ce737f  cad9785b8a1827dd  96f8224d33ffd7dc  f08292d4a08c73b5  429428db8f4f7bcb  
		32ffaa86b1e0c5a1  c10befb6e98f6a7a  58efc28abd27a387  4eeac8a300a4f583  a3c7214e3318d279  
		4ae2dfe88e5a63d0  ef76283825ff7896  8f6fbb9fa93c5eca  5e08c7efd4e9642a  d496f809b77ae34b  
		03ca3c21af59a5ec  d25005696f394a38  4c7e9df8d6d0d478  de3aea075fa6c0ca  6d58f7afa9a6a930  
		400c43599aa709f4  19c9c7db54deb197  2ef3a070adaf95b2  8aef4cd64fbeb469  ca3eef389bbafb1d  



		-Pi-

		591d7eabd1ce737f  c10befb6e98f6a7a  8f6fbb9fa93c5eca  de3aea075fa6c0ca  ca3eef389bbafb1d  
		f08292d4a08c73b5  a3c7214e3318d279  4ae2dfe88e5a63d0  d25005696f394a38  2ef3a070adaf95b2  
		cad9785b8a1827dd  58efc28abd27a387  5e08c7efd4e9642a  6d58f7afa9a6a930  400c43599aa709f4  
		429428db8f4f7bcb  32ffaa86b1e0c5a1  ef76283825ff7896  4c7e9df8d6d0d478  8aef4cd64fbeb469  
		96f8224d33ffd7dc  4eeac8a300a4f583  d496f809b77ae34b  03ca3c21af59a5ec  19c9c7db54deb197  



		-Chi-

		57796ea2d1fe67ff  911bafb6bf0dea7a  8f6bbea7292465df  cf3bfa841fe2c0a8  4a3c6e2cb3bbf31d  
		b8a24c742cce5235  33d7214f5239da51  66417ff80edcf652  025017ed6f39283d  2db6817abebf15fa  
		ccd97d3ecad063f5  79bff28a94212a97  5e0cc7bfc6e864ee  e789cfada9be8f39  502ac1d9af8089f6  
		8f9428e38b5043dd  32f73f4663e041c9  6df7683e2cd15897  0c6ebdf156919ffa  ba84ced27f1e3049  
		06ec124584a5d594  4da2cc8308a5f127  cc973bd3e7fcf358  85fa1c258c78e3a4  51cb0f7954de9194  



		-Iota-

		d7796ea251fe67f5  911bafb6bf0dea7a  8f6bbea7292465df  cf3bfa841fe2c0a8  4a3c6e2cb3bbf31d  
		b8a24c742cce5235  33d7214f5239da51  66417ff80edcf652  025017ed6f39283d  2db6817abebf15fa  
		ccd97d3ecad063f5  79bff28a94212a97  5e0cc7bfc6e864ee  e789cfada9be8f39  502ac1d9af8089f6  
		8f9428e38b5043dd  32f73f4663e041c9  6df7683e2cd15897  0c6ebdf156919ffa  ba84ced27f1e3049  
		06ec124584a5d594  4da2cc8308a5f127  cc973bd3e7fcf358  85fa1c258c78e3a4  51cb0f7954de9194  



	--Round 20--

		-Teta-

		43db9eeafc1bfd9c  97ed60e25362935e  6da037313c6cf868  60a271c02756019d  bdbe27a1c01c6817  
		2c00bc3c812bc85c  3521ee1bbe56a375  848af66e1b946be5  adc99ca9578de908  da34c8f7cd188ef0  
		587b8d766735f99c  7f493dde784e53b3  bcc74e29d3a0f959  481044e9910a4e0c  a7a88854dc2712fc  
		1b36d8ab26b5d9b4  3401f0128f8f38ed  8f3ce1a83999c520  a3f736b56e255ecf  4d06875f0cb9ab43  
		924ee20d29404ffd  4b5403d7e4ca8803  2e5cb245f2b46eef  2a639761b4cc2291  a64946f427790a9e  



		-Rho-

		43db9eeafc1bfd9c  2fdac1c4a6c526bd  1b680dcc4f1b3e1a  02756019d60a271c  0e00e340bdedf13d  
		12bc85c2c00bc3c8  6a3753521ee1bbe5  22bd9b86e51af961  8456e4ce54abc6f4  8f7cd188ef0da34c  
		c3dc6bb339afcce2  24f779e1394ecdfd  07cacde63a714e9d  d322149c18902089  13897e53d4442a6e  
		6bb368366db1564d  e71da6803e0251f1  70d41ccce290479e  d6adc4abd9f47ee6  06875f0cb9ab434d  
		8834a5013ff6493b  2d500f5f932a200d  e5cb9648be568ddd  912a639761b4cc22  51bd09de42a7a992  



		-Pi-

		43db9eeafc1bfd9c  6a3753521ee1bbe5  07cacde63a714e9d  d6adc4abd9f47ee6  51bd09de42a7a992  
		02756019d60a271c  8f7cd188ef0da34c  c3dc6bb339afcce2  e71da6803e0251f1  e5cb9648be568ddd  
		2fdac1c4a6c526bd  22bd9b86e51af961  d322149c18902089  06875f0cb9ab434d  8834a5013ff6493b  
		0e00e340bdedf13d  12bc85c2c00bc3c8  24f779e1394ecdfd  70d41ccce290479e  912a639761b4cc22  
		1b680dcc4f1b3e1a  8456e4ce54abc6f4  13897e53d4442a6e  6bb368366db1564d  2d500f5f932a200d  



		-Chi-

		4613124edc0bb984  ba12535bdf658b87  06dac4b23872cf8d  d4ef528b65ec2aea  799948ce4047abf3  
		42f54a2ac6a86bbe  ab7d5588e90db25d  c31e7bfbb9fb40ee  e529c6917e0a73f1  68c307c897530d9d  
		fed8c5dcbe452635  2638d0864431ba25  5b12b49d1ec428bb  214d1fc839aa65c9  8811bf037eec907b  
		2a439b6184a9fd08  42bc81ce029bc1ca  a5dd1af2386a45dd  7ed49c8c7ed97683  8196671521b6cee2  
		08e117ddcf5f1610  ec64e4ea7d1a92f5  17c9791a464e0a6e  799b68b621a0485f  a946ef5d838ae0e9  



		-Iota-

		c613124e5c0b3905  ba12535bdf658b87  06dac4b23872cf8d  d4ef528b65ec2aea  799948ce4047abf3  
		42f54a2ac6a86bbe  ab7d5588e90db25d  c31e7bfbb9fb40ee  e529c6917e0a73f1  68c307c897530d9d  
		fed8c5dcbe452635  2638d0864431ba25  5b12b49d1ec428bb  214d1fc839aa65c9  8811bf037eec907b  
		2a439b6184a9fd08  42bc81ce029bc1ca  a5dd1af2386a45dd  7ed49c8c7ed97683  8196671521b6cee2  
		08e117ddcf5f1610  ec64e4ea7d1a92f5  17c9791a464e0a6e  799b68b621a0485f  a946ef5d838ae0e9  



	--Round 21--

		-Teta-

		44970ce14c7e809a  bb0a922672a6c4c7  b0dd8813cfc01b51  9b1bca2d930df2bc  df65152ee35396d1  
		c0715485d6ddd221  aa6594f544cefd1d  7519375a4e499432  aadd5e3788ebaba7  ce3f5a28344730bf  
		7c5cdb73ae309faa  272011fbe9f2f565  ed15f83ce976fc67  6eb9876ecf4bbd9f  2eede2e3ddf8ad59  
		a8c785ce94dc4497  43a440b3af588e8a  13da5653cfd89101  3120042a8838aed5  276a3af582a2f3c0  
		8a650972df2aaf8f  ed7c2597d0d9ddb5  a1ce35bbb1fcdeb2  366ff010d7419009  0fbab2bd209eddcb  



		-Rho-

		44970ce14c7e809a  7615244ce54d898f  6c376204f3f006d4  d930df2bc9b1bca2  771a9cb68efb28a9  
		6ddd221c0715485d  efd1daa6594f544c  464dd69392650c9d  d3d56eaf1bc475d5  a28344730bfce3f5  
		e2e6db9d7184fd53  8047efa7cbd5949c  b7e33f68afc1e74b  dd9e977b3edd730e  fc56ac9776f171ee  
		b8892f518f0b9d29  11d14874881675eb  2b29e7ec488089ed  85510715daa62400  6a3af582a2f3c027  
		25cb7caabe3e2994  b5f0965f436776d7  5439c6b7763f9bd6  09366ff010d74190  acaf4827b772c3ee  



		-Pi-

		44970ce14c7e809a  efd1daa6594f544c  b7e33f68afc1e74b  85510715daa62400  acaf4827b772c3ee  
		d930df2bc9b1bca2  a28344730bfce3f5  e2e6db9d7184fd53  11d14874881675eb  5439c6b7763f9bd6  
		7615244ce54d898f  464dd69392650c9d  dd9e977b3edd730e  6a3af582a2f3c027  25cb7caabe3e2994  
		771a9cb68efb28a9  6ddd221c0715485d  8047efa7cbd5949c  2b29e7ec488089ed  09366ff010d74190  
		6c376204f3f006d4  d3d56eaf1bc475d5  fc56ac9776f171ee  b8892f518f0b9d29  b5f0965f436776d7  



		-Chi-

		54b529a9eafe2399  efc1dab30969544c  9f4d774a8a9124a5  c54103d592aa2410  07ef9a21a67397aa  
		995444a7b9b1a0a0  b392441383eee35d  a6ce5d1e07ad7747  98d1517c019651cb  76bac6e77473d883  
		ef872524c9d5fa8d  646db61312478cbc  d85f9f5322d15a9e  382ef5c6e3b2402c  2583ae39ac1e2d84  
		f7185115463bbc29  46f522540715413c  8051e7b7db82d48c  5d2177eac6a8a1c4  01f34df811d301c4  
		4035e21497c106fe  d35c6def92cef9d4  f9263c9936951338  f08e4f513f9b9d29  26309af44b6307d6  



		-Iota-

		d4b529a9eafea319  efc1dab30969544c  9f4d774a8a9124a5  c54103d592aa2410  07ef9a21a67397aa  
		995444a7b9b1a0a0  b392441383eee35d  a6ce5d1e07ad7747  98d1517c019651cb  76bac6e77473d883  
		ef872524c9d5fa8d  646db61312478cbc  d85f9f5322d15a9e  382ef5c6e3b2402c  2583ae39ac1e2d84  
		f7185115463bbc29  46f522540715413c  8051e7b7db82d48c  5d2177eac6a8a1c4  01f34df811d301c4  
		4035e21497c106fe  d35c6def92cef9d4  f9263c9936951338  f08e4f513f9b9d29  26309af44b6307d6  



	--Round 22--

		-Teta-

		fc8ec24ad467c12d  cbdcfdcac7fc8a3e  a2f92feb94f0b5d5  bbc0261a990c23a6  e569f3a3b90e1976  
		b16faf448728c294  978f636a4d7b3d2f  9b7a05bf19cce637  e65074b30a30567d  943caf656b0e565f  
		c7bccec7f74c98b9  4070916adcd252ce  e5ebc7f23cb0cbee  46afd009e814479a  c705c7bbb363a358  
		df23baf678a2de1d  62e8052dc9809f4e  bde5bf16c5e345fc  23a05225cd0ea672  e375247a0eae8f18  
		680e09f7a95864ca  f7414a965c5b27a6  c492643828f48248  8e0f6a9e343d9a9f  c4b6f376541e890a  



		-Rho-

		fc8ec24ad467c12d  97b9fb958ff9147d  68be4bfae53c2d75  a990c23a6bbc0261  1dc870cbb72b4f9d  
		728c294b16faf448  b3d2f978f636a4d7  de816fc673398de6  3ef3283a5985182b  f656b0e565f943ca  
		3de6763fba64c5ce  c245ab73494b3901  865f772f5e3f91e5  13d0288f348d5fa0  b1d1ac6382e3ddd9  
		45bc3bbe4775ecf1  13e9cc5d00a5b930  df8b62f1a2fe5ef2  44b9a1d4ce44740a  75247a0eae8f18e3  
		27dea5619329a038  dd052a59716c9e9b  18924c87051e9049  9f8e0f6a9e343d9a  bcdd9507a242b12d  



		-Pi-

		fc8ec24ad467c12d  b3d2f978f636a4d7  865f772f5e3f91e5  44b9a1d4ce44740a  bcdd9507a242b12d  
		a990c23a6bbc0261  f656b0e565f943ca  3de6763fba64c5ce  13e9cc5d00a5b930  18924c87051e9049  
		97b9fb958ff9147d  de816fc673398de6  13d0288f348d5fa0  75247a0eae8f18e3  27dea5619329a038  
		1dc870cbb72b4f9d  728c294b16faf448  c245ab73494b3901  df8b62f1a2fe5ef2  9f8e0f6a9e343d9a  
		68be4bfae53c2d75  3ef3283a5985182b  b1d1ac6382e3ddd9  45bc3bbe4775ecf1  dd052a59716c9e9b  



		-Chi-

		f883c44ddc6ed00d  f37279a87676c0dd  3e1b632c7e3d10c0  04bbe39c9a61340a  bf8dac37805295ff  
		a0308420f1b88665  f45f38a565787bfa  35f476bdbf7ec587  b2e94e656a05bb10  4ed47c42015fd1c3  
		96e9fb9c8b7d467d  baa53dc6f93b8da5  110aadee25adffb8  e505209aa25f0ca6  6fdea123e32929ba  
		9d89f2fbfe2a469c  6f0669cbb44eb2ba  c241a679554b1809  dfcb127083f51cf7  fd8a066a9ee48dda  
		e9becfbb675ee8a5  7adf3ba61c91380b  29d0ac22b2ebcfd3  65067a1cc365cd95  cb440a5969ed8e91  



		-Iota-

		f883c44d5c6ed00c  f37279a87676c0dd  3e1b632c7e3d10c0  04bbe39c9a61340a  bf8dac37805295ff  
		a0308420f1b88665  f45f38a565787bfa  35f476bdbf7ec587  b2e94e656a05bb10  4ed47c42015fd1c3  
		96e9fb9c8b7d467d  baa53dc6f93b8da5  110aadee25adffb8  e505209aa25f0ca6  6fdea123e32929ba  
		9d89f2fbfe2a469c  6f0669cbb44eb2ba  c241a679554b1809  dfcb127083f51cf7  fd8a066a9ee48dda  
		e9becfbb675ee8a5  7adf3ba61c91380b  29d0ac22b2ebcfd3  65067a1cc365cd95  cb440a5969ed8e91  



	--Round 23--

		-Teta-

		0068e4644c96c6a6  abf69b51cf3484bb  457f87941981094e  a55dab73b37514b4  22cc445bed46bb7a  
		58dba409e14090cf  acdbda5cdc3a3f9c  4e909205d8c2dc09  130f068a43119bae  d395942e6c4bff46  
		6e02dbb59b8550d7  e221df3f4079c9c3  6a6e49564211e636  44e368758b4b2c18  f29f494f8e3d073f  
		6562d2d2eed25036  37828b320d0cf6dc  b92542c132f70187  7e2d5a9faae13c49  60cbee06f3f0a35f  
		1155ef9277a6fe0f  225bd95fa5d37c6d  52b4489ad557d65d  c4e032f3ea71ed2b  5605e23504f9a014  



		-Rho-

		0068e4644c96c6a6  57ed36a39e690977  915fe1e506604253  3b37514b4a55dab7  df6a35dbd1166222  
		14090cf58dba409e  a3f9cacdbda5cdc3  a424817630b70253  d7098783452188cd  42e6c4bff46d3959  
		7016ddacdc2a86bb  877cfd01e7270f88  8f31b353724ab210  eb1696583089c6d0  1e839ff94fa4a7c7  
		a4a06ccac5a5a5dd  9edb86f0516641a1  a160997b80c3dc92  53f55c27892fc5ab  cbee06f3f0a35f60  
		be49de9bf83c4557  896f657e974df1b4  aa5689135aaafacb  2bc4e032f3ea71ed  788d413e68051581  



		-Pi-

		0068e4644c96c6a6  a3f9cacdbda5cdc3  8f31b353724ab210  53f55c27892fc5ab  788d413e68051581  
		3b37514b4a55dab7  42e6c4bff46d3959  7016ddacdc2a86bb  9edb86f0516641a1  aa5689135aaafacb  
		57ed36a39e690977  a424817630b70253  eb1696583089c6d0  cbee06f3f0a35f60  be49de9bf83c4557  
		df6a35dbd1166222  14090cf58dba409e  877cfd01e7270f88  a160997b80c3dc92  2bc4e032f3ea71ed  
		915fe1e506604253  d7098783452188cd  1e839ff94fa4a7c7  a4a06ccac5a5a5dd  896f657e974df1b4  



		-Chi-

		0c68d5760edcf4b6  f33d86e934808868  a739b24b124aa210  5395f8678dbd078d  db1c4bb7d9241cc0  
		0b27484b42575c15  cc2fc6eff5297859  5012d4afd6a23cf1  8ffad6b851334195  ea960da7ee82db83  
		1cff20ab9e61cdf7  a4cc81d5f0951b73  df174e503895c6c7  8a4a26d3f6e25740  1e495fcfd8aa4757  
		5c1ec4dbb3136d22  34090c8f8d7a908c  8df89d01940f2ee5  754a8cb280d7de90  2bc5e816ff427171  
		99ddf99d0ce46551  7729e781c52088d5  17cc9ecd5decf7e7  b4b0ec4bc585a79e  cf6f637cd64c7938  



		-Iota-

		8c68d5768edc74be  f33d86e934808868  a739b24b124aa210  5395f8678dbd078d  db1c4bb7d9241cc0  
		0b27484b42575c15  cc2fc6eff5297859  5012d4afd6a23cf1  8ffad6b851334195  ea960da7ee82db83  
		1cff20ab9e61cdf7  a4cc81d5f0951b73  df174e503895c6c7  8a4a26d3f6e25740  1e495fcfd8aa4757  
		5c1ec4dbb3136d22  34090c8f8d7a908c  8df89d01940f2ee5  754a8cb280d7de90  2bc5e816ff427171  
		99ddf99d0ce46551  7729e781c52088d5  17cc9ecd5decf7e7  b4b0ec4bc585a79e  cf6f637cd64c7938  



---Output from Keccak_f---

8c68d5768edc74be  f33d86e934808868  a739b24b124aa210  5395f8678dbd078d  db1c4bb7d9241cc0  
0b27484b42575c15  cc2fc6eff5297859  5012d4afd6a23cf1  8ffad6b851334195  ea960da7ee82db83  
1cff20ab9e61cdf7  a4cc81d5f0951b73  df174e503895c6c7  8a4a26d3f6e25740  1e495fcfd8aa4757  
5c1ec4dbb3136d22  34090c8f8d7a908c  8df89d01940f2ee5  754a8cb280d7de90  2bc5e816ff427171  
99ddf99d0ce46551  7729e781c52088d5  17cc9ecd5decf7e7  b4b0ec4bc585a79e  cf6f637cd64c7938  



----SQUEEZING PHASE----

---Block Extraction---

8c68d5768edc74be  f33d86e934808868  a739b24b124aa210  5395f8678dbd078d  db1c4bb7d9241cc0  
0b27484b42575c15  cc2fc6eff5297859  5012d4afd6a23cf1  8ffad6b851334195  







------HASH------

be74dc8e76d5688c
68888034e9863df3
10a24a124bb239a7
8d07bd8d67f89553
c01c24d9b74b1cdb
155c57424b48270b
597829f5efc62fcc
f13ca2d6afd41250

