<?xml version="1.0" encoding="UTF-8" standalone="no"?>
<!-- Created with Inkscape (http://www.inkscape.org/) -->

<svg
   xmlns:dc="http://purl.org/dc/elements/1.1/"
   xmlns:cc="http://creativecommons.org/ns#"
   xmlns:rdf="http://www.w3.org/1999/02/22-rdf-syntax-ns#"
   xmlns:svg="http://www.w3.org/2000/svg"
   xmlns="http://www.w3.org/2000/svg"
   xmlns:sodipodi="http://sodipodi.sourceforge.net/DTD/sodipodi-0.dtd"
   xmlns:inkscape="http://www.inkscape.org/namespaces/inkscape"
   id="svg3065"
   version="1.1"
   inkscape:version="0.48.4 r9939"
   width="1408.7097"
   height="1855.0951"
   xml:space="preserve"
   sodipodi:docname="phaseone.pdf"><metadata
     id="metadata3071"><rdf:RDF><cc:Work
         rdf:about=""><dc:format>image/svg+xml</dc:format><dc:type
           rdf:resource="http://purl.org/dc/dcmitype/StillImage" /><dc:title></dc:title></cc:Work></rdf:RDF></metadata><defs
     id="defs3069"><marker
       inkscape:stockid="Arrow1Lstart"
       orient="auto"
       refY="0"
       refX="0"
       id="Arrow1Lstart"
       style="overflow:visible"><path
         id="path8460"
         d="M 0,0 5,-5 -12.5,0 5,5 0,0 z"
         style="fill-rule:evenodd;stroke:#000000;stroke-width:1pt"
         transform="matrix(0.8,0,0,0.8,10,0)"
         inkscape:connector-curvature="0" /></marker><marker
       inkscape:stockid="Arrow1Lend"
       orient="auto"
       refY="0"
       refX="0"
       id="Arrow1Lend"
       style="overflow:visible"><path
         id="path4032"
         d="M 0,0 5,-5 -12.5,0 5,5 0,0 z"
         style="fill-rule:evenodd;stroke:#000000;stroke-width:1pt"
         transform="matrix(-0.8,0,0,-0.8,-10,0)"
         inkscape:connector-curvature="0" /></marker><marker
       inkscape:stockid="Arrow2Lend"
       orient="auto"
       refY="0"
       refX="0"
       id="Arrow2Lend"
       style="overflow:visible"><path
         id="path4050"
         style="fill-rule:evenodd;stroke-width:0.625;stroke-linejoin:round"
         d="M 8.7185878,4.0337352 -2.2072895,0.01601326 8.7185884,-4.0017078 c -1.7454984,2.3720609 -1.7354408,5.6174519 -6e-7,8.035443 z"
         transform="matrix(-1.1,0,0,-1.1,-1.1,0)"
         inkscape:connector-curvature="0" /></marker><marker
       inkscape:stockid="Arrow1Mend"
       orient="auto"
       refY="0"
       refX="0"
       id="Arrow1Mend"
       style="overflow:visible"><path
         id="path4038"
         d="M 0,0 5,-5 -12.5,0 5,5 0,0 z"
         style="fill-rule:evenodd;stroke:#000000;stroke-width:1pt"
         transform="matrix(-0.4,0,0,-0.4,-4,0)"
         inkscape:connector-curvature="0" /></marker><marker
       inkscape:stockid="Arrow2Lend"
       orient="auto"
       refY="0"
       refX="0"
       id="Arrow2Lend-8"
       style="overflow:visible"><path
         inkscape:connector-curvature="0"
         id="path4050-0"
         style="fill-rule:evenodd;stroke-width:0.625;stroke-linejoin:round"
         d="M 8.7185878,4.0337352 -2.2072895,0.01601326 8.7185884,-4.0017078 c -1.7454984,2.3720609 -1.7354408,5.6174519 -6e-7,8.035443 z"
         transform="matrix(-1.1,0,0,-1.1,-1.1,0)" /></marker><marker
       inkscape:stockid="Arrow2Lend"
       orient="auto"
       refY="0"
       refX="0"
       id="Arrow2Lend-0"
       style="overflow:visible"><path
         inkscape:connector-curvature="0"
         id="path4050-7"
         style="fill-rule:evenodd;stroke-width:0.625;stroke-linejoin:round"
         d="M 8.7185878,4.0337352 -2.2072895,0.01601326 8.7185884,-4.0017078 c -1.7454984,2.3720609 -1.7354408,5.6174519 -6e-7,8.035443 z"
         transform="matrix(-1.1,0,0,-1.1,-1.1,0)" /></marker><marker
       inkscape:stockid="Arrow2Lend"
       orient="auto"
       refY="0"
       refX="0"
       id="marker4897"
       style="overflow:visible"><path
         inkscape:connector-curvature="0"
         id="path4899"
         style="fill-rule:evenodd;stroke-width:0.625;stroke-linejoin:round"
         d="M 8.7185878,4.0337352 -2.2072895,0.01601326 8.7185884,-4.0017078 c -1.7454984,2.3720609 -1.7354408,5.6174519 -6e-7,8.035443 z"
         transform="matrix(-1.1,0,0,-1.1,-1.1,0)" /></marker><marker
       inkscape:stockid="Arrow2Lend"
       orient="auto"
       refY="0"
       refX="0"
       id="Arrow2Lend-86"
       style="overflow:visible"><path
         inkscape:connector-curvature="0"
         id="path4050-6"
         style="fill-rule:evenodd;stroke-width:0.625;stroke-linejoin:round"
         d="M 8.7185878,4.0337352 -2.2072895,0.01601326 8.7185884,-4.0017078 c -1.7454984,2.3720609 -1.7354408,5.6174519 -6e-7,8.035443 z"
         transform="matrix(-1.1,0,0,-1.1,-1.1,0)" /></marker><marker
       inkscape:stockid="Arrow2Lend"
       orient="auto"
       refY="0"
       refX="0"
       id="marker6092"
       style="overflow:visible"><path
         inkscape:connector-curvature="0"
         id="path6094"
         style="fill-rule:evenodd;stroke-width:0.625;stroke-linejoin:round"
         d="M 8.7185878,4.0337352 -2.2072895,0.01601326 8.7185884,-4.0017078 c -1.7454984,2.3720609 -1.7354408,5.6174519 -6e-7,8.035443 z"
         transform="matrix(-1.1,0,0,-1.1,-1.1,0)" /></marker><marker
       inkscape:stockid="Arrow2Lend"
       orient="auto"
       refY="0"
       refX="0"
       id="marker6096"
       style="overflow:visible"><path
         inkscape:connector-curvature="0"
         id="path6098"
         style="fill-rule:evenodd;stroke-width:0.625;stroke-linejoin:round"
         d="M 8.7185878,4.0337352 -2.2072895,0.01601326 8.7185884,-4.0017078 c -1.7454984,2.3720609 -1.7354408,5.6174519 -6e-7,8.035443 z"
         transform="matrix(-1.1,0,0,-1.1,-1.1,0)" /></marker><marker
       inkscape:stockid="Arrow2Lend"
       orient="auto"
       refY="0"
       refX="0"
       id="marker6100"
       style="overflow:visible"><path
         inkscape:connector-curvature="0"
         id="path6102"
         style="fill-rule:evenodd;stroke-width:0.625;stroke-linejoin:round"
         d="M 8.7185878,4.0337352 -2.2072895,0.01601326 8.7185884,-4.0017078 c -1.7454984,2.3720609 -1.7354408,5.6174519 -6e-7,8.035443 z"
         transform="matrix(-1.1,0,0,-1.1,-1.1,0)" /></marker><marker
       inkscape:stockid="Arrow2Lend"
       orient="auto"
       refY="0"
       refX="0"
       id="Arrow2Lend-1"
       style="overflow:visible"><path
         inkscape:connector-curvature="0"
         id="path4050-9"
         style="fill-rule:evenodd;stroke-width:0.625;stroke-linejoin:round"
         d="M 8.7185878,4.0337352 -2.2072895,0.01601326 8.7185884,-4.0017078 c -1.7454984,2.3720609 -1.7354408,5.6174519 -6e-7,8.035443 z"
         transform="matrix(-1.1,0,0,-1.1,-1.1,0)" /></marker><marker
       inkscape:stockid="Arrow2Lend"
       orient="auto"
       refY="0"
       refX="0"
       id="marker6149"
       style="overflow:visible"><path
         inkscape:connector-curvature="0"
         id="path6151"
         style="fill-rule:evenodd;stroke-width:0.625;stroke-linejoin:round"
         d="M 8.7185878,4.0337352 -2.2072895,0.01601326 8.7185884,-4.0017078 c -1.7454984,2.3720609 -1.7354408,5.6174519 -6e-7,8.035443 z"
         transform="matrix(-1.1,0,0,-1.1,-1.1,0)" /></marker><marker
       inkscape:stockid="Arrow2Lend"
       orient="auto"
       refY="0"
       refX="0"
       id="marker6153"
       style="overflow:visible"><path
         inkscape:connector-curvature="0"
         id="path6155"
         style="fill-rule:evenodd;stroke-width:0.625;stroke-linejoin:round"
         d="M 8.7185878,4.0337352 -2.2072895,0.01601326 8.7185884,-4.0017078 c -1.7454984,2.3720609 -1.7354408,5.6174519 -6e-7,8.035443 z"
         transform="matrix(-1.1,0,0,-1.1,-1.1,0)" /></marker><marker
       inkscape:stockid="Arrow2Lend"
       orient="auto"
       refY="0"
       refX="0"
       id="marker6157"
       style="overflow:visible"><path
         inkscape:connector-curvature="0"
         id="path6159"
         style="fill-rule:evenodd;stroke-width:0.625;stroke-linejoin:round"
         d="M 8.7185878,4.0337352 -2.2072895,0.01601326 8.7185884,-4.0017078 c -1.7454984,2.3720609 -1.7354408,5.6174519 -6e-7,8.035443 z"
         transform="matrix(-1.1,0,0,-1.1,-1.1,0)" /></marker><marker
       inkscape:stockid="Arrow2Lend"
       orient="auto"
       refY="0"
       refX="0"
       id="Arrow2Lend-4"
       style="overflow:visible"><path
         inkscape:connector-curvature="0"
         id="path4050-93"
         style="fill-rule:evenodd;stroke-width:0.625;stroke-linejoin:round"
         d="M 8.7185878,4.0337352 -2.2072895,0.01601326 8.7185884,-4.0017078 c -1.7454984,2.3720609 -1.7354408,5.6174519 -6e-7,8.035443 z"
         transform="matrix(-1.1,0,0,-1.1,-1.1,0)" /></marker><marker
       inkscape:stockid="Arrow2Lend"
       orient="auto"
       refY="0"
       refX="0"
       id="marker6206"
       style="overflow:visible"><path
         inkscape:connector-curvature="0"
         id="path6208"
         style="fill-rule:evenodd;stroke-width:0.625;stroke-linejoin:round"
         d="M 8.7185878,4.0337352 -2.2072895,0.01601326 8.7185884,-4.0017078 c -1.7454984,2.3720609 -1.7354408,5.6174519 -6e-7,8.035443 z"
         transform="matrix(-1.1,0,0,-1.1,-1.1,0)" /></marker><marker
       inkscape:stockid="Arrow2Lend"
       orient="auto"
       refY="0"
       refX="0"
       id="marker6210"
       style="overflow:visible"><path
         inkscape:connector-curvature="0"
         id="path6212"
         style="fill-rule:evenodd;stroke-width:0.625;stroke-linejoin:round"
         d="M 8.7185878,4.0337352 -2.2072895,0.01601326 8.7185884,-4.0017078 c -1.7454984,2.3720609 -1.7354408,5.6174519 -6e-7,8.035443 z"
         transform="matrix(-1.1,0,0,-1.1,-1.1,0)" /></marker><marker
       inkscape:stockid="Arrow2Lend"
       orient="auto"
       refY="0"
       refX="0"
       id="marker6214"
       style="overflow:visible"><path
         inkscape:connector-curvature="0"
         id="path6216"
         style="fill-rule:evenodd;stroke-width:0.625;stroke-linejoin:round"
         d="M 8.7185878,4.0337352 -2.2072895,0.01601326 8.7185884,-4.0017078 c -1.7454984,2.3720609 -1.7354408,5.6174519 -6e-7,8.035443 z"
         transform="matrix(-1.1,0,0,-1.1,-1.1,0)" /></marker><marker
       inkscape:stockid="Arrow2Lend"
       orient="auto"
       refY="0"
       refX="0"
       id="marker6218"
       style="overflow:visible"><path
         inkscape:connector-curvature="0"
         id="path6220"
         style="fill-rule:evenodd;stroke-width:0.625;stroke-linejoin:round"
         d="M 8.7185878,4.0337352 -2.2072895,0.01601326 8.7185884,-4.0017078 c -1.7454984,2.3720609 -1.7354408,5.6174519 -6e-7,8.035443 z"
         transform="matrix(-1.1,0,0,-1.1,-1.1,0)" /></marker><marker
       inkscape:stockid="Arrow2Lend"
       orient="auto"
       refY="0"
       refX="0"
       id="marker6222"
       style="overflow:visible"><path
         inkscape:connector-curvature="0"
         id="path6224"
         style="fill-rule:evenodd;stroke-width:0.625;stroke-linejoin:round"
         d="M 8.7185878,4.0337352 -2.2072895,0.01601326 8.7185884,-4.0017078 c -1.7454984,2.3720609 -1.7354408,5.6174519 -6e-7,8.035443 z"
         transform="matrix(-1.1,0,0,-1.1,-1.1,0)" /></marker><marker
       inkscape:stockid="Arrow2Lend"
       orient="auto"
       refY="0"
       refX="0"
       id="marker6226"
       style="overflow:visible"><path
         inkscape:connector-curvature="0"
         id="path6228"
         style="fill-rule:evenodd;stroke-width:0.625;stroke-linejoin:round"
         d="M 8.7185878,4.0337352 -2.2072895,0.01601326 8.7185884,-4.0017078 c -1.7454984,2.3720609 -1.7354408,5.6174519 -6e-7,8.035443 z"
         transform="matrix(-1.1,0,0,-1.1,-1.1,0)" /></marker><marker
       inkscape:stockid="Arrow2Lend"
       orient="auto"
       refY="0"
       refX="0"
       id="marker6230"
       style="overflow:visible"><path
         inkscape:connector-curvature="0"
         id="path6232"
         style="fill-rule:evenodd;stroke-width:0.625;stroke-linejoin:round"
         d="M 8.7185878,4.0337352 -2.2072895,0.01601326 8.7185884,-4.0017078 c -1.7454984,2.3720609 -1.7354408,5.6174519 -6e-7,8.035443 z"
         transform="matrix(-1.1,0,0,-1.1,-1.1,0)" /></marker><marker
       inkscape:stockid="Arrow2Lend"
       orient="auto"
       refY="0"
       refX="0"
       id="marker6230-7"
       style="overflow:visible"><path
         inkscape:connector-curvature="0"
         id="path6232-3"
         style="fill-rule:evenodd;stroke-width:0.625;stroke-linejoin:round"
         d="M 8.7185878,4.0337352 -2.2072895,0.01601326 8.7185884,-4.0017078 c -1.7454984,2.3720609 -1.7354408,5.6174519 -6e-7,8.035443 z"
         transform="matrix(-1.1,0,0,-1.1,-1.1,0)" /></marker><marker
       inkscape:stockid="Arrow2Lend"
       orient="auto"
       refY="0"
       refX="0"
       id="marker6230-75"
       style="overflow:visible"><path
         inkscape:connector-curvature="0"
         id="path6232-35"
         style="fill-rule:evenodd;stroke-width:0.625;stroke-linejoin:round"
         d="M 8.7185878,4.0337352 -2.2072895,0.01601326 8.7185884,-4.0017078 c -1.7454984,2.3720609 -1.7354408,5.6174519 -6e-7,8.035443 z"
         transform="matrix(-1.1,0,0,-1.1,-1.1,0)" /></marker><marker
       inkscape:stockid="Arrow2Lend"
       orient="auto"
       refY="0"
       refX="0"
       id="marker6230-75-8"
       style="overflow:visible"><path
         inkscape:connector-curvature="0"
         id="path6232-35-1"
         style="fill-rule:evenodd;stroke-width:0.625;stroke-linejoin:round"
         d="M 8.7185878,4.0337352 -2.2072895,0.01601326 8.7185884,-4.0017078 c -1.7454984,2.3720609 -1.7354408,5.6174519 -6e-7,8.035443 z"
         transform="matrix(-1.1,0,0,-1.1,-1.1,0)" /></marker><marker
       inkscape:stockid="Arrow2Lend"
       orient="auto"
       refY="0"
       refX="0"
       id="marker13371"
       style="overflow:visible"><path
         inkscape:connector-curvature="0"
         id="path13373"
         style="fill-rule:evenodd;stroke-width:0.625;stroke-linejoin:round"
         d="M 8.7185878,4.0337352 -2.2072895,0.01601326 8.7185884,-4.0017078 c -1.7454984,2.3720609 -1.7354408,5.6174519 -6e-7,8.035443 z"
         transform="matrix(-1.1,0,0,-1.1,-1.1,0)" /></marker><marker
       inkscape:stockid="Arrow2Lend"
       orient="auto"
       refY="0"
       refX="0"
       id="marker13375"
       style="overflow:visible"><path
         inkscape:connector-curvature="0"
         id="path13377"
         style="fill-rule:evenodd;stroke-width:0.625;stroke-linejoin:round"
         d="M 8.7185878,4.0337352 -2.2072895,0.01601326 8.7185884,-4.0017078 c -1.7454984,2.3720609 -1.7354408,5.6174519 -6e-7,8.035443 z"
         transform="matrix(-1.1,0,0,-1.1,-1.1,0)" /></marker><marker
       inkscape:stockid="Arrow2Lend"
       orient="auto"
       refY="0"
       refX="0"
       id="marker13379"
       style="overflow:visible"><path
         inkscape:connector-curvature="0"
         id="path13381"
         style="fill-rule:evenodd;stroke-width:0.625;stroke-linejoin:round"
         d="M 8.7185878,4.0337352 -2.2072895,0.01601326 8.7185884,-4.0017078 c -1.7454984,2.3720609 -1.7354408,5.6174519 -6e-7,8.035443 z"
         transform="matrix(-1.1,0,0,-1.1,-1.1,0)" /></marker><marker
       inkscape:stockid="Arrow2Lend"
       orient="auto"
       refY="0"
       refX="0"
       id="marker13383"
       style="overflow:visible"><path
         inkscape:connector-curvature="0"
         id="path13385"
         style="fill-rule:evenodd;stroke-width:0.625;stroke-linejoin:round"
         d="M 8.7185878,4.0337352 -2.2072895,0.01601326 8.7185884,-4.0017078 c -1.7454984,2.3720609 -1.7354408,5.6174519 -6e-7,8.035443 z"
         transform="matrix(-1.1,0,0,-1.1,-1.1,0)" /></marker><marker
       inkscape:stockid="Arrow2Lend"
       orient="auto"
       refY="0"
       refX="0"
       id="marker6230-3"
       style="overflow:visible"><path
         inkscape:connector-curvature="0"
         id="path6232-4"
         style="fill-rule:evenodd;stroke-width:0.625;stroke-linejoin:round"
         d="M 8.7185878,4.0337352 -2.2072895,0.01601326 8.7185884,-4.0017078 c -1.7454984,2.3720609 -1.7354408,5.6174519 -6e-7,8.035443 z"
         transform="matrix(-1.1,0,0,-1.1,-1.1,0)" /></marker><marker
       inkscape:stockid="Arrow2Lend"
       orient="auto"
       refY="0"
       refX="0"
       id="marker13389"
       style="overflow:visible"><path
         inkscape:connector-curvature="0"
         id="path13391"
         style="fill-rule:evenodd;stroke-width:0.625;stroke-linejoin:round"
         d="M 8.7185878,4.0337352 -2.2072895,0.01601326 8.7185884,-4.0017078 c -1.7454984,2.3720609 -1.7354408,5.6174519 -6e-7,8.035443 z"
         transform="matrix(-1.1,0,0,-1.1,-1.1,0)" /></marker><marker
       inkscape:stockid="Arrow2Lend"
       orient="auto"
       refY="0"
       refX="0"
       id="marker13393"
       style="overflow:visible"><path
         inkscape:connector-curvature="0"
         id="path13395"
         style="fill-rule:evenodd;stroke-width:0.625;stroke-linejoin:round"
         d="M 8.7185878,4.0337352 -2.2072895,0.01601326 8.7185884,-4.0017078 c -1.7454984,2.3720609 -1.7354408,5.6174519 -6e-7,8.035443 z"
         transform="matrix(-1.1,0,0,-1.1,-1.1,0)" /></marker><marker
       inkscape:stockid="Arrow2Lend"
       orient="auto"
       refY="0"
       refX="0"
       id="marker13397"
       style="overflow:visible"><path
         inkscape:connector-curvature="0"
         id="path13399"
         style="fill-rule:evenodd;stroke-width:0.625;stroke-linejoin:round"
         d="M 8.7185878,4.0337352 -2.2072895,0.01601326 8.7185884,-4.0017078 c -1.7454984,2.3720609 -1.7354408,5.6174519 -6e-7,8.035443 z"
         transform="matrix(-1.1,0,0,-1.1,-1.1,0)" /></marker><marker
       inkscape:stockid="Arrow2Lend"
       orient="auto"
       refY="0"
       refX="0"
       id="marker13401"
       style="overflow:visible"><path
         inkscape:connector-curvature="0"
         id="path13403"
         style="fill-rule:evenodd;stroke-width:0.625;stroke-linejoin:round"
         d="M 8.7185878,4.0337352 -2.2072895,0.01601326 8.7185884,-4.0017078 c -1.7454984,2.3720609 -1.7354408,5.6174519 -6e-7,8.035443 z"
         transform="matrix(-1.1,0,0,-1.1,-1.1,0)" /></marker><marker
       inkscape:stockid="Arrow2Lend"
       orient="auto"
       refY="0"
       refX="0"
       id="marker13405"
       style="overflow:visible"><path
         inkscape:connector-curvature="0"
         id="path13407"
         style="fill-rule:evenodd;stroke-width:0.625;stroke-linejoin:round"
         d="M 8.7185878,4.0337352 -2.2072895,0.01601326 8.7185884,-4.0017078 c -1.7454984,2.3720609 -1.7354408,5.6174519 -6e-7,8.035443 z"
         transform="matrix(-1.1,0,0,-1.1,-1.1,0)" /></marker><marker
       inkscape:stockid="Arrow2Lend"
       orient="auto"
       refY="0"
       refX="0"
       id="marker13409"
       style="overflow:visible"><path
         inkscape:connector-curvature="0"
         id="path13411"
         style="fill-rule:evenodd;stroke-width:0.625;stroke-linejoin:round"
         d="M 8.7185878,4.0337352 -2.2072895,0.01601326 8.7185884,-4.0017078 c -1.7454984,2.3720609 -1.7354408,5.6174519 -6e-7,8.035443 z"
         transform="matrix(-1.1,0,0,-1.1,-1.1,0)" /></marker><marker
       inkscape:stockid="Arrow2Lend"
       orient="auto"
       refY="0"
       refX="0"
       id="marker13413"
       style="overflow:visible"><path
         inkscape:connector-curvature="0"
         id="path13415"
         style="fill-rule:evenodd;stroke-width:0.625;stroke-linejoin:round"
         d="M 8.7185878,4.0337352 -2.2072895,0.01601326 8.7185884,-4.0017078 c -1.7454984,2.3720609 -1.7354408,5.6174519 -6e-7,8.035443 z"
         transform="matrix(-1.1,0,0,-1.1,-1.1,0)" /></marker><marker
       inkscape:stockid="Arrow2Lend"
       orient="auto"
       refY="0"
       refX="0"
       id="Arrow2Lend-85"
       style="overflow:visible"><path
         id="path4050-05"
         style="fill-rule:evenodd;stroke-width:0.625;stroke-linejoin:round"
         d="M 8.7185878,4.0337352 -2.2072895,0.01601326 8.7185884,-4.0017078 c -1.7454984,2.3720609 -1.7354408,5.6174519 -6e-7,8.035443 z"
         transform="matrix(-1.1,0,0,-1.1,-1.1,0)"
         inkscape:connector-curvature="0" /></marker><marker
       inkscape:stockid="Arrow2Lend"
       orient="auto"
       refY="0"
       refX="0"
       id="Arrow2Lend-9"
       style="overflow:visible"><path
         id="path4050-2"
         style="fill-rule:evenodd;stroke-width:0.625;stroke-linejoin:round"
         d="M 8.7185878,4.0337352 -2.2072895,0.01601326 8.7185884,-4.0017078 c -1.7454984,2.3720609 -1.7354408,5.6174519 -6e-7,8.035443 z"
         transform="matrix(-1.1,0,0,-1.1,-1.1,0)"
         inkscape:connector-curvature="0" /></marker><marker
       inkscape:stockid="Arrow2Lend"
       orient="auto"
       refY="0"
       refX="0"
       id="Arrow2Lend-2"
       style="overflow:visible"><path
         id="path4050-3"
         style="fill-rule:evenodd;stroke-width:0.625;stroke-linejoin:round"
         d="M 8.7185878,4.0337352 -2.2072895,0.01601326 8.7185884,-4.0017078 c -1.7454984,2.3720609 -1.7354408,5.6174519 -6e-7,8.035443 z"
         transform="matrix(-1.1,0,0,-1.1,-1.1,0)"
         inkscape:connector-curvature="0" /></marker><marker
       inkscape:stockid="Arrow2Lend"
       orient="auto"
       refY="0"
       refX="0"
       id="Arrow2Lend-19"
       style="overflow:visible"><path
         id="path4050-054"
         style="fill-rule:evenodd;stroke-width:0.625;stroke-linejoin:round"
         d="M 8.7185878,4.0337352 -2.2072895,0.01601326 8.7185884,-4.0017078 c -1.7454984,2.3720609 -1.7354408,5.6174519 -6e-7,8.035443 z"
         transform="matrix(-1.1,0,0,-1.1,-1.1,0)"
         inkscape:connector-curvature="0" /></marker></defs><sodipodi:namedview
     pagecolor="#ffffff"
     bordercolor="#666666"
     borderopacity="1"
     objecttolerance="10"
     gridtolerance="10"
     guidetolerance="10"
     inkscape:pageopacity="0"
     inkscape:pageshadow="2"
     inkscape:window-width="1920"
     inkscape:window-height="1014"
     id="namedview3067"
     showgrid="false"
     fit-margin-top="0"
     fit-margin-left="0"
     fit-margin-right="0"
     fit-margin-bottom="10"
     inkscape:zoom="0.70710678"
     inkscape:cx="891.17171"
     inkscape:cy="371.5956"
     inkscape:window-x="0"
     inkscape:window-y="0"
     inkscape:window-maximized="1"
     inkscape:current-layer="g3073" /><g
     id="g3073"
     inkscape:groupmode="layer"
     inkscape:label="reducesize"
     transform="matrix(1.25,0,0,-1.25,-99.778542,1317.0672)"><rect
       style="fill:none;stroke:#000000;stroke-width:1.60000002;stroke-miterlimit:4;stroke-opacity:1;stroke-dasharray:none"
       id="rect3093-6"
       width="96.678055"
       height="320.03482"
       x="80.622833"
       y="-916.06158"
       transform="scale(1,-1)" /><text
       xml:space="preserve"
       style="font-size:160px;font-style:normal;font-weight:normal;line-height:125%;letter-spacing:0px;word-spacing:0px;fill:#000000;fill-opacity:1;stroke:none;font-family:Sans;-inkscape-font-specification:Sans"
       x="80.684395"
       y="-970.28754"
       id="text3095-31"
       sodipodi:linespacing="125%"
       transform="scale(1,-1)"><tspan
         sodipodi:role="line"
         x="80.684395"
         y="-970.28754"
         style="font-size:32px;font-style:normal;font-variant:normal;font-weight:normal;font-stretch:normal;font-family:Arial;-inkscape-font-specification:Sans"
         id="tspan11430">$2^{34}$</tspan><tspan
         sodipodi:role="line"
         x="80.684395"
         y="-930.28754"
         style="font-size:32px;font-style:normal;font-variant:normal;font-weight:normal;font-stretch:normal;font-family:Arial;-inkscape-font-specification:Sans"
         id="tspan11432" /></text>
<text
       xml:space="preserve"
       style="font-size:160px;font-style:normal;font-weight:normal;line-height:125%;letter-spacing:0px;word-spacing:0px;fill:#000000;fill-opacity:1;stroke:none;font-family:Sans;-inkscape-font-specification:Sans"
       x="248.54802"
       y="-970.28754"
       id="text3095-3-36"
       sodipodi:linespacing="125%"
       transform="scale(1,-1)"><tspan
         sodipodi:role="line"
         x="248.54802"
         y="-970.28754"
         style="font-size:32px;font-style:normal;font-variant:normal;font-weight:normal;font-stretch:normal;font-family:Arial;-inkscape-font-specification:Sans"
         id="tspan11438">$2^{31}$</tspan><tspan
         sodipodi:role="line"
         x="248.54802"
         y="-930.28754"
         style="font-size:32px;font-style:normal;font-variant:normal;font-weight:normal;font-stretch:normal;font-family:Arial;-inkscape-font-specification:Sans"
         id="tspan11440" /></text>
<path
       style="fill:none;stroke:#000000;stroke-width:1.60000002;stroke-linecap:butt;stroke-linejoin:miter;stroke-miterlimit:4;stroke-opacity:1;stroke-dasharray:none;marker-end:url(#Arrow2Lend)"
       d="m 177.17063,744.09471 69.26809,0"
       id="path4023-5-2-6"
       inkscape:connector-curvature="0" /><rect
       style="fill:none;stroke:#000000;stroke-width:1.60000002;stroke-miterlimit:4;stroke-opacity:1;stroke-dasharray:none"
       id="rect3093-8-8"
       width="96.364952"
       height="55.737431"
       x="248.0076"
       y="-915.19849"
       transform="scale(1,-1)" /><path
       style="fill:none;stroke:#000000;stroke-width:1.60000002;stroke-linecap:butt;stroke-linejoin:miter;stroke-miterlimit:4;stroke-opacity:1;stroke-dasharray:none"
       d="m 248.07228,915.32988 95.96081,-55.66553"
       id="path3992-5"
       inkscape:connector-curvature="0" /><path
       style="fill:none;stroke:#000000;stroke-width:1.60000002;stroke-linecap:butt;stroke-linejoin:miter;stroke-miterlimit:4;stroke-opacity:1;stroke-dasharray:none"
       d="M 344.03309,915.32988 248.07228,859.66435"
       id="path3994-4"
       inkscape:connector-curvature="0" /><rect
       style="fill:none;stroke:#000000;stroke-width:1.60000002;stroke-miterlimit:4;stroke-opacity:1;stroke-dasharray:none"
       id="rect3093-8-8-8"
       width="96.451591"
       height="27.379868"
       x="247.88853"
       y="-859.81879"
       transform="scale(1,-1)" /><rect
       style="fill:none;stroke:#000000;stroke-width:1.60000002;stroke-miterlimit:4;stroke-opacity:1;stroke-dasharray:none"
       id="rect3093-8-8-3"
       width="96.364952"
       height="55.737431"
       x="248.0076"
       y="-832.59253"
       transform="scale(1,-1)" /><path
       style="fill:none;stroke:#000000;stroke-width:1.60000002;stroke-linecap:butt;stroke-linejoin:miter;stroke-miterlimit:4;stroke-opacity:1;stroke-dasharray:none"
       d="m 248.07227,832.72389 95.96081,-55.66551"
       id="path3992-5-3"
       inkscape:connector-curvature="0" /><path
       style="fill:none;stroke:#000000;stroke-width:1.60000002;stroke-linecap:butt;stroke-linejoin:miter;stroke-miterlimit:4;stroke-opacity:1;stroke-dasharray:none"
       d="M 344.03308,832.72389 248.07227,777.05838"
       id="path3994-4-2"
       inkscape:connector-curvature="0" /><rect
       style="fill:none;stroke:#000000;stroke-width:1.60000002;stroke-miterlimit:4;stroke-opacity:1;stroke-dasharray:none"
       id="rect3093-8-8-8-1"
       width="96.324318"
       height="57.759758"
       x="247.95216"
       y="-777.10675"
       transform="scale(1,-1)" /><rect
       style="fill:none;stroke:#000000;stroke-width:1.60000002;stroke-miterlimit:4;stroke-opacity:1;stroke-dasharray:none"
       id="rect3093-8-8-3-3"
       width="96.275818"
       height="95.358948"
       x="248.05217"
       y="-719.39465"
       transform="scale(1,-1)" /><path
       style="fill:none;stroke:#000000;stroke-width:1.60000002;stroke-linecap:butt;stroke-linejoin:miter;stroke-miterlimit:4;stroke-opacity:1;stroke-dasharray:none"
       d="M 248.11676,719.61936 343.9888,624.38344"
       id="path3992-5-3-6"
       inkscape:connector-curvature="0" /><path
       style="fill:none;stroke:#000000;stroke-width:1.60000002;stroke-linecap:butt;stroke-linejoin:miter;stroke-miterlimit:4;stroke-opacity:1;stroke-dasharray:none"
       d="M 343.9888,719.61936 248.11676,624.38344"
       id="path3994-4-2-2"
       inkscape:connector-curvature="0" /><rect
       style="fill:none;stroke:#000000;stroke-width:1.60000002;stroke-miterlimit:4;stroke-opacity:1;stroke-dasharray:none"
       id="rect3093-8-8-8-1-6"
       width="96.444901"
       height="28.698792"
       x="247.89189"
       y="-624.24725"
       transform="scale(1,-1)" /><text
       xml:space="preserve"
       style="font-size:60px;font-style:normal;font-weight:bold;line-height:125%;letter-spacing:0px;word-spacing:0px;fill:#000000;fill-opacity:1;stroke:none;font-family:Sans;-inkscape-font-specification:Sans Bold"
       x="667.01434"
       y="-120.88166"
       id="text7319"
       sodipodi:linespacing="125%"
       transform="matrix(0.8,0,0,-0.8,0,1070.1)"><tspan
         sodipodi:role="line"
         id="tspan7321"
         x="667.01434"
         y="-120.88166" /></text>
<text
       xml:space="preserve"
       style="font-size:40px;font-style:normal;font-weight:normal;line-height:125%;letter-spacing:0px;word-spacing:0px;fill:#000000;fill-opacity:1;stroke:none;font-family:Sans;-inkscape-font-specification:Sans"
       x="82.007812"
       y="-1023.2631"
       id="text7323-1"
       sodipodi:linespacing="125%"
       transform="scale(1,-1)"><tspan
         sodipodi:role="line"
         id="tspan7325-7"
         x="82.007812"
         y="-1023.2631"
         style="font-size:40px;font-weight:bold;-inkscape-font-specification:Sans Bold">\textbf{Phase 1}</tspan><tspan
         sodipodi:role="line"
         x="82.007812"
         y="-973.26312"
         style="font-size:40px;font-weight:bold;-inkscape-font-specification:Sans Bold"
         id="tspan3163" /></text>
<rect
       style="fill:none;stroke:#000000;stroke-width:1.79505014;stroke-miterlimit:4;stroke-opacity:1;stroke-dasharray:none"
       id="rect3093-8-8-7"
       width="202.61971"
       height="55.479774"
       x="438.10294"
       y="-915.30536"
       transform="scale(1,-1)" /><text
       xml:space="preserve"
       style="font-size:160px;font-style:normal;font-weight:normal;line-height:125%;letter-spacing:0px;word-spacing:0px;fill:#000000;fill-opacity:1;stroke:none;font-family:Sans;-inkscape-font-specification:Sans"
       x="434.65027"
       y="-933.57507"
       id="text3095-3-36-0"
       sodipodi:linespacing="125%"
       transform="scale(1,-1)"><tspan
         sodipodi:role="line"
         id="tspan3097-9-4-7"
         x="434.65027"
         y="-933.57507"
         style="font-size:32px;font-style:normal;font-variant:normal;font-weight:normal;font-stretch:normal;font-family:Arial;-inkscape-font-specification:Sans">Hash function</tspan></text>
<rect
       style="fill:none;stroke:#000000;stroke-width:1.60000002;stroke-miterlimit:4;stroke-opacity:1;stroke-dasharray:none"
       id="rect3093-8-8-7-4"
       width="112.40131"
       height="55.932415"
       x="645.96832"
       y="-794.72772"
       transform="scale(1,-1)" /><rect
       style="fill:none;stroke:#000000;stroke-width:1.60000002;stroke-miterlimit:4;stroke-opacity:1;stroke-dasharray:none"
       id="rect3093-8-8-7-4-5"
       width="112.40131"
       height="55.932415"
       x="758.37531"
       y="-794.72766"
       transform="scale(1,-1)" /><rect
       style="fill:none;stroke:#000000;stroke-width:1.60000002;stroke-miterlimit:4;stroke-opacity:1;stroke-dasharray:none"
       id="rect3093-8-8-7-4-1"
       width="112.40131"
       height="55.932415"
       x="870.78223"
       y="-794.72778"
       transform="scale(1,-1)" /><text
       xml:space="preserve"
       style="font-size:21.60000038px;font-style:normal;font-weight:normal;line-height:125%;letter-spacing:0px;word-spacing:0px;fill:#000000;fill-opacity:1;stroke:none;font-family:Sans;-inkscape-font-specification:Sans"
       x="763.05487"
       y="-754.99005"
       id="text4852"
       sodipodi:linespacing="125%"
       transform="scale(1,-1)"><tspan
         sodipodi:role="line"
         id="tspan4854"
         x="763.05487"
         y="-754.99005"
         style="font-size:21.60000038px">A[h/8]</tspan></text>
<text
       xml:space="preserve"
       style="font-size:160px;font-style:normal;font-weight:normal;line-height:125%;letter-spacing:0px;word-spacing:0px;fill:#000000;fill-opacity:1;stroke:none;font-family:Sans;-inkscape-font-specification:Sans"
       x="611.26788"
       y="-803.39465"
       id="text3095-3-36-0-2"
       sodipodi:linespacing="125%"
       transform="scale(1,-1)"><tspan
         sodipodi:role="line"
         id="tspan3097-9-4-7-9"
         x="611.26788"
         y="-803.39465"
         style="font-size:32px;font-style:normal;font-variant:normal;font-weight:normal;font-stretch:normal;font-family:Arial;-inkscape-font-specification:Sans">4GB Array</tspan></text>
<path
       style="fill:none;stroke:#000000;stroke-width:1.60000002;stroke-linecap:butt;stroke-linejoin:miter;stroke-miterlimit:2.4000001;stroke-opacity:1;stroke-dasharray:6.4, 3.2;stroke-dashoffset:0"
       d="m 645.85513,794.75951 -38.18376,0"
       id="path5327"
       inkscape:connector-curvature="0" /><path
       style="fill:none;stroke:#000000;stroke-width:1.60000002;stroke-linecap:butt;stroke-linejoin:miter;stroke-miterlimit:2.4000001;stroke-opacity:1;stroke-dasharray:6.4, 3.2;stroke-dashoffset:0"
       d="m 645.87143,738.82402 -38.18376,0"
       id="path5327-5"
       inkscape:connector-curvature="0" /><path
       style="fill:none;stroke:#000000;stroke-width:1.60000002;stroke-linecap:butt;stroke-linejoin:miter;stroke-miterlimit:2.4000001;stroke-opacity:1;stroke-dasharray:6.4, 3.2;stroke-dashoffset:0"
       d="m 1016.5237,794.73152 -38.1838,0"
       id="path5327-8"
       inkscape:connector-curvature="0" /><path
       style="fill:none;stroke:#000000;stroke-width:1.60000002;stroke-linecap:butt;stroke-linejoin:miter;stroke-miterlimit:2.4000001;stroke-opacity:1;stroke-dasharray:6.4, 3.2;stroke-dashoffset:0"
       d="m 1016.54,738.79602 -38.1838,0"
       id="path5327-5-5"
       inkscape:connector-curvature="0" /><rect
       style="color:#000000;fill:none;stroke:#000000;stroke-width:1.60000002;stroke-linecap:butt;stroke-linejoin:miter;stroke-miterlimit:2.4000001;stroke-opacity:1;stroke-dasharray:none;stroke-dashoffset:0;marker:none;visibility:visible;display:inline;overflow:visible;enable-background:accumulate"
       id="rect5594"
       width="149.79469"
       height="188.02293"
       x="1001.8431"
       y="-429.16626"
       transform="scale(1,-1)" /><text
       xml:space="preserve"
       style="font-size:160px;font-style:normal;font-weight:normal;line-height:125%;letter-spacing:0px;word-spacing:0px;fill:#000000;fill-opacity:1;stroke:none;font-family:Sans;-inkscape-font-specification:Sans"
       x="1000.0295"
       y="-443.41357"
       id="text3095-3-36-0-4"
       sodipodi:linespacing="125%"
       transform="scale(1,-1)"><tspan
         sodipodi:role="line"
         id="tspan3097-9-4-7-6"
         x="1000.0295"
         y="-443.41357"
         style="font-size:32px;font-style:normal;font-variant:normal;font-weight:normal;font-stretch:normal;font-family:Arial;-inkscape-font-specification:Sans">Hash table</tspan></text>
<path
       style="fill:none;stroke:#000000;stroke-width:1.6781671;stroke-linecap:butt;stroke-linejoin:miter;stroke-miterlimit:4;stroke-opacity:1;stroke-dasharray:none;marker-end:url(#marker6230)"
       d="m 207.51204,404.27069 0,-143.4302 261.33375,0"
       id="path5843"
       inkscape:connector-curvature="0" /><rect
       style="fill:none;stroke:#000000;stroke-width:1.59388971;stroke-linecap:butt;stroke-miterlimit:2.4000001;stroke-opacity:1;stroke-dasharray:none;stroke-dashoffset:0"
       id="rect5594-1"
       width="149.27699"
       height="98.144554"
       x="471.1778"
       y="-339.47433"
       transform="scale(1,-1)" /><text
       xml:space="preserve"
       style="font-size:24px;font-style:normal;font-weight:normal;line-height:125%;letter-spacing:0px;word-spacing:0px;fill:#000000;fill-opacity:1;stroke:none;font-family:Sans;-inkscape-font-specification:Sans"
       x="471.60684"
       y="-348.39349"
       id="text3095-3-36-0-4-6"
       sodipodi:linespacing="125%"
       transform="scale(1,-1)"><tspan
         sodipodi:role="line"
         id="tspan3097-9-4-7-6-4"
         x="471.60684"
         y="-348.39349"
         style="font-size:24px;font-style:normal;font-variant:normal;font-weight:normal;font-stretch:normal;font-family:Arial;-inkscape-font-specification:Sans">Table entry</tspan></text>
<rect
       style="fill:none;stroke:#000000;stroke-width:1.12330675;stroke-linecap:butt;stroke-miterlimit:2.4000001;stroke-opacity:1;stroke-dasharray:none;stroke-dashoffset:0"
       id="rect5594-1-7"
       width="149.6131"
       height="48.637318"
       x="470.75415"
       y="-289.6376"
       transform="scale(1,-1)" /><text
       xml:space="preserve"
       style="font-size:24px;font-style:normal;font-weight:normal;line-height:125%;letter-spacing:0px;word-spacing:0px;fill:#000000;fill-opacity:1;stroke:none;font-family:Sans;-inkscape-font-specification:Sans"
       x="477.3588"
       y="-302.63809"
       id="text7028"
       sodipodi:linespacing="125%"
       transform="scale(1,-1)"><tspan
         sodipodi:role="line"
         id="tspan7030"
         x="477.3588"
         y="-302.63809">Key</tspan></text>
<text
       xml:space="preserve"
       style="font-size:24px;font-style:normal;font-weight:normal;line-height:125%;letter-spacing:0px;word-spacing:0px;fill:#000000;fill-opacity:1;stroke:none;font-family:Sans;-inkscape-font-specification:Sans"
       x="478.76505"
       y="-252.38608"
       id="text7028-8"
       sodipodi:linespacing="125%"
       transform="scale(1,-1)"><tspan
         sodipodi:role="line"
         id="tspan7030-7"
         x="478.76505"
         y="-252.38608">Data</tspan></text>
<path
       style="fill:none;stroke:#000000;stroke-width:1.60000002;stroke-linecap:butt;stroke-linejoin:miter;stroke-miterlimit:4;stroke-opacity:1;stroke-dasharray:none;marker-end:url(#marker6230)"
       d="m 344.83724,745.59008 50.4054,0 0,142.95832 38.70416,0"
       id="path7053"
       inkscape:connector-curvature="0" /><path
       style="fill:none;stroke:#000000;stroke-width:1.60000002;stroke-linecap:butt;stroke-linejoin:miter;stroke-miterlimit:4;stroke-opacity:1;stroke-dasharray:none;marker-end:url(#marker6230)"
       d="m 395.22081,746.67148 0,-429.72791 72.82151,-1.14292"
       id="path7279"
       inkscape:connector-curvature="0" /><path
       style="fill:none;stroke:#000000;stroke-width:1.60000002;stroke-linecap:butt;stroke-linejoin:miter;stroke-miterlimit:4;stroke-opacity:1;stroke-dasharray:none;marker-end:url(#marker6230)"
       d="m 641.8921,890.57231 168.67259,0 0,-94.05343"
       id="path7507"
       inkscape:connector-curvature="0" /><text
       xml:space="preserve"
       style="font-size:32px;font-style:normal;font-weight:bold;line-height:125%;letter-spacing:0px;word-spacing:0px;fill:#000000;fill-opacity:1;stroke:none;font-family:Sans;-inkscape-font-specification:Sans Bold"
       x="460.73782"
       y="-875.69464"
       id="text7754"
       sodipodi:linespacing="125%"
       transform="scale(1,-1)"><tspan
         sodipodi:role="line"
         id="tspan7756"
         x="460.73782"
         y="-875.69464"
         style="font-size:24px;font-weight:normal;-inkscape-font-specification:Sans">$2^{512} \rightarrow 2^{35}$</tspan></text>
<path
       style="fill:none;stroke:#000000;stroke-width:1.6427753;stroke-linecap:butt;stroke-linejoin:miter;stroke-miterlimit:4;stroke-opacity:1;stroke-dasharray:none;marker-end:none"
       d="m 783.87583,645.84765 0,-31.11754"
       id="path7758"
       inkscape:connector-curvature="0" /><rect
       style="color:#000000;fill:none;stroke:#000000;stroke-width:1.51532602;stroke-linecap:butt;stroke-linejoin:miter;stroke-miterlimit:4;stroke-opacity:1;stroke-dasharray:none;stroke-dashoffset:0;marker:none;visibility:visible;display:inline;overflow:visible;enable-background:accumulate"
       id="rect7764"
       width="186.34387"
       height="60.690811"
       x="962.3576"
       y="-563.50562"
       transform="scale(1,-1)" /><path
       style="fill:none;stroke:#000000;stroke-width:1.66189933;stroke-linecap:butt;stroke-linejoin:miter;stroke-miterlimit:4;stroke-opacity:1;stroke-dasharray:none;marker-start:none;marker-end:url(#marker6230)"
       d="m 1056.0234,564.0001 0,38.96169"
       id="path7758-1"
       inkscape:connector-curvature="0" /><text
       xml:space="preserve"
       style="font-size:24px;font-style:normal;font-weight:normal;line-height:125%;letter-spacing:0px;word-spacing:0px;fill:#000000;fill-opacity:1;stroke:none;font-family:Sans;-inkscape-font-specification:Sans"
       x="974.92731"
       y="-522.4754"
       id="text9848"
       sodipodi:linespacing="125%"
       transform="scale(1,-1)"><tspan
         sodipodi:role="line"
         id="tspan9850"
         x="974.92731"
         y="-522.4754">If bit = 0</tspan></text>
<text
       xml:space="preserve"
       style="font-size:24px;font-style:normal;font-weight:normal;line-height:125%;letter-spacing:0px;word-spacing:0px;fill:#000000;fill-opacity:1;stroke:none;font-family:Sans;-inkscape-font-specification:Sans"
       x="973.88898"
       y="-626.77631"
       id="text9852"
       sodipodi:linespacing="125%"
       transform="scale(1,-1)"><tspan
         sodipodi:role="line"
         id="tspan9854"
         x="973.88898"
         y="-626.77631">Set bit = 1</tspan></text>
<path
       style="fill:none;stroke:#000000;stroke-width:1.60000002;stroke-linecap:butt;stroke-linejoin:miter;stroke-miterlimit:4;stroke-opacity:1;stroke-dasharray:none;marker-end:url(#marker6230)"
       d="m 621.36092,289.65774 85.41844,0"
       id="path10336"
       inkscape:connector-curvature="0" /><rect
       style="color:#000000;fill:none;stroke:#000000;stroke-width:1.60000002;stroke-linecap:butt;stroke-linejoin:miter;stroke-miterlimit:4;stroke-opacity:1;stroke-dasharray:none;stroke-dashoffset:0;marker:none;visibility:visible;display:inline;overflow:visible;enable-background:accumulate"
       id="rect7764-4-6"
       width="209.90878"
       height="62.420204"
       x="708.89246"
       y="-321.38666"
       transform="scale(1,-1)" /><text
       xml:space="preserve"
       style="font-size:24px;font-style:normal;font-weight:normal;line-height:125%;letter-spacing:0px;word-spacing:0px;fill:#000000;fill-opacity:1;stroke:none;font-family:Sans;-inkscape-font-specification:Sans"
       x="719.70807"
       y="-280.38077"
       id="text9848-5-7"
       sodipodi:linespacing="125%"
       transform="scale(1,-1)"><tspan
         sodipodi:role="line"
         id="tspan9850-1-9"
         x="719.70807"
         y="-280.38077">Add entry</tspan></text>
<path
       style="fill:none;stroke:#000000;stroke-width:1.60000002;stroke-linecap:butt;stroke-linejoin:miter;stroke-miterlimit:4;stroke-opacity:1;stroke-dasharray:none;marker-end:url(#marker6230)"
       d="m 814.77062,355.11183 0,-31.05159"
       id="path10603"
       inkscape:connector-curvature="0" /><rect
       style="fill:none;stroke:#000000;stroke-width:1.60000002;stroke-linecap:butt;stroke-miterlimit:2.4000001;stroke-opacity:1;stroke-dasharray:none;stroke-dashoffset:0"
       id="rect5594-1-74"
       width="149.83847"
       height="24.648281"
       x="1001.7298"
       y="-348.30875"
       transform="scale(1,-1)" /><rect
       style="color:#000000;fill:none;stroke:#000000;stroke-width:1.60000002;stroke-linecap:butt;stroke-linejoin:miter;stroke-miterlimit:4;stroke-opacity:1;stroke-dasharray:none;stroke-dashoffset:0;marker:none;visibility:visible;display:inline;overflow:visible;enable-background:accumulate"
       id="rect7764-8"
       width="304.64487"
       height="51.088863"
       x="516.95441"
       y="-696.17798"
       transform="scale(1,-1)" /><text
       xml:space="preserve"
       style="font-size:24px;font-style:normal;font-weight:normal;line-height:125%;letter-spacing:0px;word-spacing:0px;fill:#000000;fill-opacity:1;stroke:none;font-family:Sans;-inkscape-font-specification:Sans"
       x="526.91309"
       y="-661.41998"
       id="text9848-8"
       sodipodi:linespacing="125%"
       transform="scale(1,-1)"><tspan
         sodipodi:role="line"
         id="tspan9850-5"
         x="526.91309"
         y="-661.41998">Get bit [h mod 8] </tspan></text>
<path
       style="fill:none;stroke:#000000;stroke-width:1.60000002;stroke-linecap:butt;stroke-linejoin:miter;stroke-miterlimit:4;stroke-opacity:1;stroke-dasharray:none;marker-end:url(#marker6230)"
       d="m 785.14962,739.03204 0,-41.02195"
       id="path7758-9"
       inkscape:connector-curvature="0" /><text
       transform="scale(1,-1)"
       sodipodi:linespacing="125%"
       id="text11422"
       y="-843.72809"
       x="815.60535"
       style="font-size:24px;font-style:normal;font-weight:normal;line-height:125%;letter-spacing:0px;word-spacing:0px;fill:#000000;fill-opacity:1;stroke:none;font-family:Sans;-inkscape-font-specification:Sans"
       xml:space="preserve"><tspan
         y="-843.72809"
         x="815.60535"
         id="tspan11424"
         sodipodi:role="line">$h$</tspan></text>
<text
       xml:space="preserve"
       style="font-size:24px;font-style:normal;font-weight:normal;line-height:125%;letter-spacing:0px;word-spacing:0px;fill:#000000;fill-opacity:1;stroke:none;font-family:Sans;-inkscape-font-specification:Sans"
       x="80"
       y="-934.41223"
       id="text11450"
       sodipodi:linespacing="125%"
       transform="scale(1,-1)"><tspan
         sodipodi:role="line"
         id="tspan11452"
         x="80"
         y="-934.41223"
         style="font-size:32px">Inputs</tspan></text>
<text
       xml:space="preserve"
       style="font-size:24px;font-style:normal;font-weight:normal;line-height:125%;letter-spacing:0px;word-spacing:0px;fill:#000000;fill-opacity:1;stroke:none;font-family:Sans;-inkscape-font-specification:Sans"
       x="247.80626"
       y="-933.86847"
       id="text11450-9"
       sodipodi:linespacing="125%"
       transform="scale(1,-1)"><tspan
         sodipodi:role="line"
         id="tspan11452-8"
         x="247.80626"
         y="-933.86847"
         style="font-size:32px">Outputs</tspan></text>
<rect
       style="color:#000000;fill:none;stroke:#000000;stroke-width:1.60000002;stroke-linecap:butt;stroke-linejoin:miter;stroke-miterlimit:4;stroke-opacity:1;stroke-dasharray:none;stroke-dashoffset:0;marker:none;visibility:visible;display:inline;overflow:visible;enable-background:accumulate"
       id="rect7764-4-6-1"
       width="209.90878"
       height="62.420204"
       x="708.89246"
       y="-417.43289"
       transform="scale(1,-1)" /><text
       xml:space="preserve"
       style="font-size:24px;font-style:normal;font-weight:normal;line-height:125%;letter-spacing:0px;word-spacing:0px;fill:#000000;fill-opacity:1;stroke:none;font-family:Sans;-inkscape-font-specification:Sans"
       x="724.86945"
       y="-376.4017"
       id="text9848-5-7-7"
       sodipodi:linespacing="125%"
       transform="scale(1,-1)"><tspan
         sodipodi:role="line"
         id="tspan9850-1-9-4"
         x="724.86945"
         y="-376.4017">If bit = 1</tspan></text>
<rect
       style="color:#000000;fill:none;stroke:#000000;stroke-width:1.51532602;stroke-linecap:butt;stroke-linejoin:miter;stroke-miterlimit:4;stroke-opacity:1;stroke-dasharray:none;stroke-dashoffset:0;marker:none;visibility:visible;display:inline;overflow:visible;enable-background:accumulate"
       id="rect7764-0"
       width="186.34386"
       height="60.690807"
       x="962.3576"
       y="-665.35974"
       transform="scale(1,-1)" /><path
       style="fill:none;stroke:#000000;stroke-width:1.60000002;stroke-linecap:butt;stroke-linejoin:miter;stroke-miterlimit:4;stroke-opacity:1;stroke-dasharray:none;marker-end:url(#marker6230-75)"
       d="m 784.37155,615.8055 68.65862,0 0,-80.62518 107.41089,0"
       id="path11770"
       inkscape:connector-curvature="0" /><path
       style="fill:none;stroke:#000000;stroke-width:1.60000002;stroke-linecap:butt;stroke-linejoin:miter;stroke-miterlimit:4;stroke-opacity:1;stroke-dasharray:none;marker-end:url(#marker6230-75)"
       d="m 1057.5027,666.05454 0,36.10665 -206.84493,0 0,36.49911"
       id="path12232"
       inkscape:connector-curvature="0" /><path
       style="fill:none;stroke:#000000;stroke-width:1.60000002;stroke-linecap:butt;stroke-linejoin:miter;stroke-miterlimit:4;stroke-opacity:1;stroke-dasharray:none;marker-end:url(#marker6230-75)"
       d="m 783.88284,616.41238 0,-198.4"
       id="path12466"
       inkscape:connector-curvature="0" /><path
       style="fill:none;stroke:#000000;stroke-width:1.60000002;stroke-linecap:butt;stroke-linejoin:miter;stroke-miterlimit:4;stroke-opacity:1;stroke-dasharray:none;marker-end:url(#marker6230-75)"
       d="m 918.8,290.41238 39.2,0 0,45.2 43.2,0"
       id="path12698"
       inkscape:connector-curvature="0" /><rect
       style="color:#000000;fill:none;stroke:#000000;stroke-width:1.71726406;stroke-linecap:butt;stroke-linejoin:miter;stroke-miterlimit:4;stroke-opacity:1;stroke-dasharray:none;stroke-dashoffset:0;marker:none;visibility:visible;display:inline;overflow:visible;enable-background:accumulate"
       id="rect13102"
       width="270.81366"
       height="41.511703"
       x="81.244148"
       y="-445.56824"
       transform="scale(1,-1)" /><text
       xml:space="preserve"
       style="font-size:24px;font-style:normal;font-weight:normal;line-height:125%;letter-spacing:0px;word-spacing:0px;fill:#000000;fill-opacity:1;stroke:none;font-family:Sans;-inkscape-font-specification:Sans"
       x="87.999992"
       y="-413.21237"
       id="text13104"
       sodipodi:linespacing="125%"
       transform="scale(1,-1)"><tspan
         sodipodi:role="line"
         id="tspan13106"
         x="87.999992"
         y="-413.21237">Get $2^{34}$ bit index</tspan></text>
<path
       style="fill:none;stroke:#000000;stroke-width:1.60000002;stroke-linecap:butt;stroke-linejoin:miter;stroke-miterlimit:4;stroke-opacity:1;stroke-dasharray:none;marker-end:url(#marker6230-75)"
       d="m 207.60001,744.41489 0,-296.01385"
       id="path13127"
       inkscape:connector-curvature="0" /><rect
       style="fill:none;stroke:#000000;stroke-width:1.60000002;stroke-miterlimit:4;stroke-opacity:1;stroke-dasharray:none"
       id="rect3093-6-6"
       width="96.678047"
       height="320.03482"
       x="80.800003"
       y="-46.514626"
       transform="scale(1,-1)" /><text
       xml:space="preserve"
       style="font-size:160px;font-style:normal;font-weight:normal;line-height:125%;letter-spacing:0px;word-spacing:0px;fill:#000000;fill-opacity:1;stroke:none;font-family:Sans;-inkscape-font-specification:Sans"
       x="80.861565"
       y="-100.74058"
       id="text3095-31-9"
       sodipodi:linespacing="125%"
       transform="scale(1,-1)"><tspan
         sodipodi:role="line"
         x="80.861565"
         y="-100.74058"
         style="font-size:32px;font-style:normal;font-variant:normal;font-weight:normal;font-stretch:normal;font-family:Arial;-inkscape-font-specification:Sans"
         id="tspan11430-9">$2^{34}$</tspan><tspan
         sodipodi:role="line"
         x="80.861565"
         y="-60.740578"
         style="font-size:32px;font-style:normal;font-variant:normal;font-weight:normal;font-stretch:normal;font-family:Arial;-inkscape-font-specification:Sans"
         id="tspan11432-3" /></text>
<text
       xml:space="preserve"
       style="font-size:160px;font-style:normal;font-weight:normal;line-height:125%;letter-spacing:0px;word-spacing:0px;fill:#000000;fill-opacity:1;stroke:none;font-family:Sans;-inkscape-font-specification:Sans"
       x="248.7252"
       y="-100.74058"
       id="text3095-3-36-6"
       sodipodi:linespacing="125%"
       transform="scale(1,-1)"><tspan
         sodipodi:role="line"
         x="248.7252"
         y="-100.74058"
         style="font-size:32px;font-style:normal;font-variant:normal;font-weight:normal;font-stretch:normal;font-family:Arial;-inkscape-font-specification:Sans"
         id="tspan11438-5">$2^{31}$</tspan><tspan
         sodipodi:role="line"
         x="248.7252"
         y="-60.740578"
         style="font-size:32px;font-style:normal;font-variant:normal;font-weight:normal;font-stretch:normal;font-family:Arial;-inkscape-font-specification:Sans"
         id="tspan11440-2" /></text>
<path
       style="fill:none;stroke:#000000;stroke-width:1.60000002;stroke-linecap:butt;stroke-linejoin:miter;stroke-miterlimit:4;stroke-opacity:1;stroke-dasharray:none;marker-end:url(#Arrow2Lend)"
       d="m 177.3478,-125.45225 69.26809,0"
       id="path4023-5-2-6-1"
       inkscape:connector-curvature="0" /><rect
       style="fill:none;stroke:#000000;stroke-width:1.60000002;stroke-miterlimit:4;stroke-opacity:1;stroke-dasharray:none"
       id="rect3093-8-8-80"
       width="96.364952"
       height="55.737434"
       x="248.18478"
       y="-45.651527"
       transform="scale(1,-1)" /><path
       style="fill:none;stroke:#000000;stroke-width:1.60000002;stroke-linecap:butt;stroke-linejoin:miter;stroke-miterlimit:4;stroke-opacity:1;stroke-dasharray:none"
       d="M 248.24945,45.782913 344.21026,-9.8826072"
       id="path3992-5-1"
       inkscape:connector-curvature="0" /><path
       style="fill:none;stroke:#000000;stroke-width:1.60000002;stroke-linecap:butt;stroke-linejoin:miter;stroke-miterlimit:4;stroke-opacity:1;stroke-dasharray:none"
       d="M 344.21026,45.782913 248.24945,-9.8826072"
       id="path3994-4-4"
       inkscape:connector-curvature="0" /><rect
       style="fill:none;stroke:#000000;stroke-width:1.60000002;stroke-miterlimit:4;stroke-opacity:1;stroke-dasharray:none"
       id="rect3093-8-8-8-0"
       width="96.451591"
       height="27.379868"
       x="248.06572"
       y="9.7281752"
       transform="scale(1,-1)" /><rect
       style="fill:none;stroke:#000000;stroke-width:1.60000002;stroke-miterlimit:4;stroke-opacity:1;stroke-dasharray:none"
       id="rect3093-8-8-3-6"
       width="96.364952"
       height="55.737434"
       x="248.18478"
       y="36.954437"
       transform="scale(1,-1)" /><path
       style="fill:none;stroke:#000000;stroke-width:1.60000002;stroke-linecap:butt;stroke-linejoin:miter;stroke-miterlimit:4;stroke-opacity:1;stroke-dasharray:none"
       d="m 248.24944,-36.823077 95.96081,-55.665509"
       id="path3992-5-3-7"
       inkscape:connector-curvature="0" /><path
       style="fill:none;stroke:#000000;stroke-width:1.60000002;stroke-linecap:butt;stroke-linejoin:miter;stroke-miterlimit:4;stroke-opacity:1;stroke-dasharray:none"
       d="M 344.21025,-36.823077 248.24944,-92.488586"
       id="path3994-4-2-5"
       inkscape:connector-curvature="0" /><rect
       style="fill:none;stroke:#000000;stroke-width:1.60000002;stroke-miterlimit:4;stroke-opacity:1;stroke-dasharray:none"
       id="rect3093-8-8-8-1-8"
       width="96.324326"
       height="57.759758"
       x="248.12935"
       y="92.440216"
       transform="scale(1,-1)" /><rect
       style="fill:none;stroke:#000000;stroke-width:1.60000002;stroke-miterlimit:4;stroke-opacity:1;stroke-dasharray:none"
       id="rect3093-8-8-3-3-9"
       width="96.275818"
       height="95.35894"
       x="248.22935"
       y="150.1523"
       transform="scale(1,-1)" /><path
       style="fill:none;stroke:#000000;stroke-width:1.60000002;stroke-linecap:butt;stroke-linejoin:miter;stroke-miterlimit:4;stroke-opacity:1;stroke-dasharray:none"
       d="m 248.29393,-149.92761 95.87204,-95.23592"
       id="path3992-5-3-6-3"
       inkscape:connector-curvature="0" /><path
       style="fill:none;stroke:#000000;stroke-width:1.60000002;stroke-linecap:butt;stroke-linejoin:miter;stroke-miterlimit:4;stroke-opacity:1;stroke-dasharray:none"
       d="m 344.16597,-149.92761 -95.87204,-95.23592"
       id="path3994-4-2-2-9"
       inkscape:connector-curvature="0" /><rect
       style="fill:none;stroke:#000000;stroke-width:1.60000002;stroke-miterlimit:4;stroke-opacity:1;stroke-dasharray:none"
       id="rect3093-8-8-8-1-6-8"
       width="96.444901"
       height="28.698792"
       x="248.06908"
       y="245.2997"
       transform="scale(1,-1)" /><text
       xml:space="preserve"
       style="font-size:40px;font-style:normal;font-weight:normal;line-height:125%;letter-spacing:0px;word-spacing:0px;fill:#000000;fill-opacity:1;stroke:none;font-family:Sans;-inkscape-font-specification:Sans"
       x="82.184982"
       y="-158.24165"
       id="text7323-1-7"
       sodipodi:linespacing="125%"
       transform="scale(1,-1)"><tspan
         sodipodi:role="line"
         id="tspan7325-7-9"
         x="82.184982"
         y="-158.24165"
         style="font-size:40px;font-weight:bold;-inkscape-font-specification:Sans Bold">\textbf{Phase 2}</tspan><tspan
         sodipodi:role="line"
         x="82.184982"
         y="-108.24165"
         style="font-size:40px;font-weight:bold;-inkscape-font-specification:Sans Bold"
         id="tspan3163-6" /></text>
<rect
       style="color:#000000;fill:none;stroke:#000000;stroke-width:1.60000002;stroke-linecap:butt;stroke-linejoin:miter;stroke-miterlimit:2.4000001;stroke-opacity:1;stroke-dasharray:none;stroke-dashoffset:0;marker:none;visibility:visible;display:inline;overflow:visible;enable-background:accumulate"
       id="rect5594-6"
       width="149.79469"
       height="188.02293"
       x="691.56396"
       y="30.824421"
       transform="scale(1,-1)" /><text
       xml:space="preserve"
       style="font-size:160px;font-style:normal;font-weight:normal;line-height:125%;letter-spacing:0px;word-spacing:0px;fill:#000000;fill-opacity:1;stroke:none;font-family:Sans;-inkscape-font-specification:Sans"
       x="689.75049"
       y="16.577114"
       id="text3095-3-36-0-4-4"
       sodipodi:linespacing="125%"
       transform="scale(1,-1)"><tspan
         sodipodi:role="line"
         id="tspan3097-9-4-7-6-8"
         x="689.75049"
         y="16.577114"
         style="font-size:32px;font-style:normal;font-variant:normal;font-weight:normal;font-stretch:normal;font-family:Arial;-inkscape-font-specification:Sans">Hash table</tspan></text>
<rect
       style="fill:none;stroke:#000000;stroke-width:1.59388971;stroke-linecap:butt;stroke-miterlimit:2.4000001;stroke-opacity:1;stroke-dasharray:none;stroke-dashoffset:0"
       id="rect5594-1-2"
       width="149.27699"
       height="98.144547"
       x="893.48376"
       y="75.66153"
       transform="scale(1,-1)" /><text
       xml:space="preserve"
       style="font-size:24px;font-style:normal;font-weight:normal;line-height:125%;letter-spacing:0px;word-spacing:0px;fill:#000000;fill-opacity:1;stroke:none;font-family:Sans;-inkscape-font-specification:Sans"
       x="893.91284"
       y="66.742401"
       id="text3095-3-36-0-4-6-8"
       sodipodi:linespacing="125%"
       transform="scale(1,-1)"><tspan
         sodipodi:role="line"
         id="tspan3097-9-4-7-6-4-1"
         x="893.91284"
         y="66.742401"
         style="font-size:24px;font-style:normal;font-variant:normal;font-weight:normal;font-stretch:normal;font-family:Arial;-inkscape-font-specification:Sans">Table entry</tspan></text>
<rect
       style="fill:none;stroke:#000000;stroke-width:1.12330675;stroke-linecap:butt;stroke-miterlimit:2.4000001;stroke-opacity:1;stroke-dasharray:none;stroke-dashoffset:0"
       id="rect5594-1-7-0"
       width="149.6131"
       height="48.637318"
       x="893.06018"
       y="125.49831"
       transform="scale(1,-1)" /><text
       xml:space="preserve"
       style="font-size:24px;font-style:normal;font-weight:normal;line-height:125%;letter-spacing:0px;word-spacing:0px;fill:#000000;fill-opacity:1;stroke:none;font-family:Sans;-inkscape-font-specification:Sans"
       x="899.66479"
       y="112.49783"
       id="text7028-7"
       sodipodi:linespacing="125%"
       transform="scale(1,-1)"><tspan
         sodipodi:role="line"
         id="tspan7030-6"
         x="899.66479"
         y="112.49783">Key</tspan></text>
<text
       xml:space="preserve"
       style="font-size:24px;font-style:normal;font-weight:normal;line-height:125%;letter-spacing:0px;word-spacing:0px;fill:#000000;fill-opacity:1;stroke:none;font-family:Sans;-inkscape-font-specification:Sans"
       x="901.07104"
       y="162.74989"
       id="text7028-8-1"
       sodipodi:linespacing="125%"
       transform="scale(1,-1)"><tspan
         sodipodi:role="line"
         id="tspan7030-7-5"
         x="901.07104"
         y="162.74989">Data</tspan></text>
<rect
       style="color:#000000;fill:none;stroke:#000000;stroke-width:1.71450973;stroke-linecap:butt;stroke-linejoin:miter;stroke-miterlimit:4;stroke-opacity:1;stroke-dasharray:none;stroke-dashoffset:0;marker:none;visibility:visible;display:inline;overflow:visible;enable-background:accumulate"
       id="rect7764-4-6-3"
       width="241.47266"
       height="62.305695"
       x="398.56552"
       y="92.275108"
       transform="scale(1,-1)" /><text
       xml:space="preserve"
       style="font-size:24px;font-style:normal;font-weight:normal;line-height:125%;letter-spacing:0px;word-spacing:0px;fill:#000000;fill-opacity:1;stroke:none;font-family:Sans;-inkscape-font-specification:Sans"
       x="409.32388"
       y="133.22382"
       id="text9848-5-7-1"
       sodipodi:linespacing="125%"
       transform="scale(1,-1)"><tspan
         sodipodi:role="line"
         id="tspan9850-1-9-8"
         x="409.32388"
         y="133.22382">Search for key</tspan></text>
<rect
       style="fill:none;stroke:#000000;stroke-width:1.60000002;stroke-linecap:butt;stroke-miterlimit:2.4000001;stroke-opacity:1;stroke-dasharray:none;stroke-dashoffset:0"
       id="rect5594-1-74-4"
       width="149.83847"
       height="24.648281"
       x="691.45081"
       y="111.682"
       transform="scale(1,-1)" /><text
       xml:space="preserve"
       style="font-size:24px;font-style:normal;font-weight:normal;line-height:125%;letter-spacing:0px;word-spacing:0px;fill:#000000;fill-opacity:1;stroke:none;font-family:Sans;-inkscape-font-specification:Sans"
       x="80.17717"
       y="-64.865273"
       id="text11450-5"
       sodipodi:linespacing="125%"
       transform="scale(1,-1)"><tspan
         sodipodi:role="line"
         id="tspan11452-89"
         x="80.17717"
         y="-64.865273"
         style="font-size:32px">Inputs</tspan></text>
<text
       xml:space="preserve"
       style="font-size:24px;font-style:normal;font-weight:normal;line-height:125%;letter-spacing:0px;word-spacing:0px;fill:#000000;fill-opacity:1;stroke:none;font-family:Sans;-inkscape-font-specification:Sans"
       x="247.98344"
       y="-64.32151"
       id="text11450-9-1"
       sodipodi:linespacing="125%"
       transform="scale(1,-1)"><tspan
         sodipodi:role="line"
         id="tspan11452-8-0"
         x="247.98344"
         y="-64.32151"
         style="font-size:32px">Outputs</tspan></text>
<rect
       style="color:#000000;fill:none;stroke:#000000;stroke-width:1.71726394;stroke-linecap:butt;stroke-linejoin:miter;stroke-miterlimit:4;stroke-opacity:1;stroke-dasharray:none;stroke-dashoffset:0;marker:none;visibility:visible;display:inline;overflow:visible;enable-background:accumulate"
       id="rect13102-6"
       width="270.81366"
       height="41.511703"
       x="81.421318"
       y="310.84161"
       transform="scale(1,-1)" /><text
       xml:space="preserve"
       style="font-size:24px;font-style:normal;font-weight:normal;line-height:125%;letter-spacing:0px;word-spacing:0px;fill:#000000;fill-opacity:1;stroke:none;font-family:Sans;-inkscape-font-specification:Sans"
       x="88.177162"
       y="343.19748"
       id="text13104-5"
       sodipodi:linespacing="125%"
       transform="scale(1,-1)"><tspan
         sodipodi:role="line"
         id="tspan13106-6"
         x="88.177162"
         y="343.19748">Get $2^{34}$ bit index</tspan></text>
<path
       style="fill:none;stroke:#000000;stroke-width:1.60000002;stroke-linecap:butt;stroke-linejoin:miter;stroke-miterlimit:4;stroke-opacity:1;stroke-dasharray:none;marker-end:url(#marker6230-75)"
       d="m 207.7779,-124.97093 0,-184.03731"
       id="path13127-8"
       inkscape:connector-curvature="0" /><path
       style="fill:none;stroke:#000000;stroke-width:1.60000002;stroke-linecap:butt;stroke-linejoin:miter;stroke-miterlimit:4;stroke-opacity:1;stroke-dasharray:none;marker-end:url(#Arrow2Lend)"
       d="m 344.7916,-125.45171 50.06388,0"
       id="path4023-5-2-6-1-3"
       inkscape:connector-curvature="0" /><path
       style="fill:none;stroke:#000000;stroke-width:1.60000002;stroke-linecap:butt;stroke-linejoin:miter;stroke-miterlimit:4;stroke-opacity:1;stroke-dasharray:none;marker-end:url(#Arrow2Lend)"
       d="m 639.46371,-125.45142 50.06388,0"
       id="path4023-5-2-6-1-3-3"
       inkscape:connector-curvature="0" /><path
       style="fill:none;stroke:#000000;stroke-width:1.60000002;stroke-linecap:butt;stroke-linejoin:miter;stroke-miterlimit:4;stroke-opacity:1;stroke-dasharray:none;marker-end:url(#Arrow2Lend)"
       d="m 841.00686,-125.45142 50.06388,0"
       id="path4023-5-2-6-1-3-3-2"
       inkscape:connector-curvature="0" /><path
       style="fill:none;stroke:#000000;stroke-width:1.60000002;stroke-linecap:butt;stroke-linejoin:miter;stroke-miterlimit:4;stroke-opacity:1;stroke-dasharray:none;marker-end:url(#Arrow2Lend-19)"
       d="m 351.82283,-332.06644 493.6,0"
       id="path13982"
       inkscape:connector-curvature="0" /><rect
       style="color:#000000;fill:none;stroke:#000000;stroke-width:1.60000002;stroke-linecap:butt;stroke-linejoin:miter;stroke-miterlimit:4;stroke-opacity:1;stroke-dasharray:none;stroke-dashoffset:0;marker:none;visibility:visible;display:inline;overflow:visible;enable-background:accumulate"
       id="rect7764-4-6-3-3"
       width="209.90878"
       height="62.420204"
       x="846.06848"
       y="300.85641"
       transform="scale(1,-1)" /><path
       style="fill:none;stroke:#000000;stroke-width:1.60000002;stroke-linecap:butt;stroke-linejoin:miter;stroke-miterlimit:4;stroke-opacity:1;stroke-dasharray:none;marker-end:url(#Arrow2Lend-19)"
       d="m 1043.4264,-147.48094 57.7829,0 0,-185.59254 -28.5257,0 -15.922,0"
       id="path14266"
       inkscape:connector-curvature="0" /><text
       xml:space="preserve"
       style="font-size:24px;font-style:normal;font-weight:normal;line-height:125%;letter-spacing:0px;word-spacing:0px;fill:#000000;fill-opacity:1;stroke:none;font-family:Sans;-inkscape-font-specification:Sans"
       x="854.81189"
       y="344.66379"
       id="text14532"
       sodipodi:linespacing="125%"
       transform="scale(1,-1)"><tspan
         sodipodi:role="line"
         id="tspan14534"
         x="854.81189"
         y="344.66379">If not equals</tspan></text>
<path
       style="fill:none;stroke:#000000;stroke-width:1.60000002;stroke-linecap:butt;stroke-linejoin:miter;stroke-miterlimit:4;stroke-opacity:1;stroke-dasharray:none;marker-end:url(#Arrow2Lend-19)"
       d="m 954.22283,-363.60353 0,-28"
       id="path14536"
       inkscape:connector-curvature="0" /><text
       xml:space="preserve"
       style="font-size:32px;font-style:normal;font-weight:normal;line-height:125%;letter-spacing:0px;word-spacing:0px;fill:#000000;fill-opacity:1;stroke:none;font-family:Sans;-inkscape-font-specification:Sans"
       x="828.55621"
       y="417.20355"
       id="text14802"
       sodipodi:linespacing="125%"
       transform="scale(1,-1)"><tspan
         sodipodi:role="line"
         id="tspan14804"
         x="828.55621"
         y="417.20355">\textbf{Collision found}</tspan></text>
</g></svg>