\relax 
\providecommand{\transparent@use}[1]{}
\providecommand\hyper@newdestlabel[2]{}
\providecommand\HyperFirstAtBeginDocument{\AtBeginDocument}
\HyperFirstAtBeginDocument{\ifx\hyper@anchor\@undefined
\global\let\oldcontentsline\contentsline
\gdef\contentsline#1#2#3#4{\oldcontentsline{#1}{#2}{#3}}
\global\let\oldnewlabel\newlabel
\gdef\newlabel#1#2{\newlabelxx{#1}#2}
\gdef\newlabelxx#1#2#3#4#5#6{\oldnewlabel{#1}{{#2}{#3}}}
\AtEndDocument{\ifx\hyper@anchor\@undefined
\let\contentsline\oldcontentsline
\let\newlabel\oldnewlabel
\fi}
\fi}
\global\let\hyper@last\relax 
\gdef\HyperFirstAtBeginDocument#1{#1}
\providecommand\HyField@AuxAddToFields[1]{}
\providecommand\HyField@AuxAddToCoFields[2]{}
\bibstyle{biblatex}
\bibdata{tesi-blx,bib}
\citation{biblatex-control}
\@writefile{toc}{\boolfalse {citerequest}\boolfalse {citetracker}\boolfalse {pagetracker}\boolfalse {backtracker}\relax }
\@writefile{lof}{\boolfalse {citerequest}\boolfalse {citetracker}\boolfalse {pagetracker}\boolfalse {backtracker}\relax }
\@writefile{lot}{\boolfalse {citerequest}\boolfalse {citetracker}\boolfalse {pagetracker}\boolfalse {backtracker}\relax }
\@writefile{toc}{\defcounter {refsection}{0}\relax }\@writefile{toc}{\contentsline {section}{\numberline {1}Introduction}{1}{section.1}}
\newlabel{Introduction}{{1}{1}{Introduction}{section.1}{}}
\@writefile{toc}{\defcounter {refsection}{0}\relax }\@writefile{toc}{\contentsline {section}{\numberline {2}Description of Keccak}{3}{section.2}}
\newlabel{description}{{2}{3}{Description of Keccak}{section.2}{}}
\@writefile{lof}{\defcounter {refsection}{0}\relax }\@writefile{lof}{\contentsline {figure}{\numberline {1}{\ignorespaces Keccak high-level view\relax }}{3}{figure.caption.1}}
\providecommand*\caption@xref[2]{\@setref\relax\@undefined{#1}}
\newlabel{fig:general}{{1}{3}{Keccak high-level view\relax }{figure.caption.1}{}}
\@writefile{toc}{\defcounter {refsection}{0}\relax }\@writefile{toc}{\contentsline {subsection}{\numberline {2.1}Keccak-\textit  {f}}{3}{subsection.2.1}}
\newlabel{keccak-f}{{2.1}{3}{Keccak-\textit {f}}{subsection.2.1}{}}
\@writefile{lof}{\defcounter {refsection}{0}\relax }\@writefile{lof}{\contentsline {figure}{\numberline {2}{\ignorespaces \relax \fontsize  {12}{14.5}\selectfont  \abovedisplayskip 12\p@ plus3\p@ minus7\p@ \abovedisplayshortskip \z@ plus3\p@ \belowdisplayshortskip 6.5\p@ plus3.5\p@ minus3\p@ \belowdisplayskip \abovedisplayskip \let \leftmargin \leftmargini \parsep 5\p@ plus2.5\p@ minus\p@ \topsep 10\p@ plus4\p@ minus6\p@ \itemsep 5\p@ plus2.5\p@ minus\p@ \leftmargin \leftmargini \parsep 5\p@ plus2.5\p@ minus\p@ \topsep 10\p@ plus4\p@ minus6\p@ \itemsep 5\p@ plus2.5\p@ minus\p@ {Keccak-\textit  {f}[200] input matrix with $\textit  {l}=3$}\relax }}{4}{figure.caption.2}}
\newlabel{fig:input}{{2}{4}{\normalsize {Keccak-\textit {f}[200] input matrix with $\textit {l}=3$}\relax }{figure.caption.2}{}}
\newlabel{eq:b}{{1}{4}{Keccak-\textit {f}}{equation.2.1}{}}
\newlabel{eq:nr}{{2}{4}{Keccak-\textit {f}}{equation.2.2}{}}
\newlabel{eq:round}{{3}{4}{Keccak-\textit {f}}{equation.2.3}{}}
\@writefile{toc}{\defcounter {refsection}{0}\relax }\@writefile{toc}{\contentsline {subsubsection}{\numberline {2.1.1}\relax \fontsize  {12}{14.5}\selectfont  \abovedisplayskip 12\p@ plus3\p@ minus7\p@ \abovedisplayshortskip \z@ plus3\p@ \belowdisplayshortskip 6.5\p@ plus3.5\p@ minus3\p@ \belowdisplayskip \abovedisplayskip \let \leftmargin \leftmargini \parsep 5\p@ plus2.5\p@ minus\p@ \topsep 10\p@ plus4\p@ minus6\p@ \itemsep 5\p@ plus2.5\p@ minus\p@ \leftmargin \leftmargini \parsep 5\p@ plus2.5\p@ minus\p@ \topsep 10\p@ plus4\p@ minus6\p@ \itemsep 5\p@ plus2.5\p@ minus\p@ {Theta $\theta $}}{5}{subsubsection.2.1.1}}
\newlabel{eq:theta}{{4}{5}{\normalsize {Theta $\theta $}}{equation.2.4}{}}
\@writefile{toc}{\defcounter {refsection}{0}\relax }\@writefile{toc}{\contentsline {subsubsection}{\numberline {2.1.2}\relax \fontsize  {12}{14.5}\selectfont  \abovedisplayskip 12\p@ plus3\p@ minus7\p@ \abovedisplayshortskip \z@ plus3\p@ \belowdisplayshortskip 6.5\p@ plus3.5\p@ minus3\p@ \belowdisplayskip \abovedisplayskip \let \leftmargin \leftmargini \parsep 5\p@ plus2.5\p@ minus\p@ \topsep 10\p@ plus4\p@ minus6\p@ \itemsep 5\p@ plus2.5\p@ minus\p@ \leftmargin \leftmargini \parsep 5\p@ plus2.5\p@ minus\p@ \topsep 10\p@ plus4\p@ minus6\p@ \itemsep 5\p@ plus2.5\p@ minus\p@ {Rho $\rho $}}{5}{subsubsection.2.1.2}}
\newlabel{eq:rho}{{5}{5}{\normalsize {Rho $\rho $}}{equation.2.5}{}}
\newlabel{eq:rho_t}{{6}{5}{\normalsize {Rho $\rho $}}{equation.2.6}{}}
\@writefile{toc}{\defcounter {refsection}{0}\relax }\@writefile{toc}{\contentsline {subsubsection}{\numberline {2.1.3}\relax \fontsize  {12}{14.5}\selectfont  \abovedisplayskip 12\p@ plus3\p@ minus7\p@ \abovedisplayshortskip \z@ plus3\p@ \belowdisplayshortskip 6.5\p@ plus3.5\p@ minus3\p@ \belowdisplayskip \abovedisplayskip \let \leftmargin \leftmargini \parsep 5\p@ plus2.5\p@ minus\p@ \topsep 10\p@ plus4\p@ minus6\p@ \itemsep 5\p@ plus2.5\p@ minus\p@ \leftmargin \leftmargini \parsep 5\p@ plus2.5\p@ minus\p@ \topsep 10\p@ plus4\p@ minus6\p@ \itemsep 5\p@ plus2.5\p@ minus\p@ {Pi $\pi $}}{6}{subsubsection.2.1.3}}
\newlabel{eq:pi}{{7}{6}{\normalsize {Pi $\pi $}}{equation.2.7}{}}
\@writefile{toc}{\defcounter {refsection}{0}\relax }\@writefile{toc}{\contentsline {subsubsection}{\numberline {2.1.4}\relax \fontsize  {12}{14.5}\selectfont  \abovedisplayskip 12\p@ plus3\p@ minus7\p@ \abovedisplayshortskip \z@ plus3\p@ \belowdisplayshortskip 6.5\p@ plus3.5\p@ minus3\p@ \belowdisplayskip \abovedisplayskip \let \leftmargin \leftmargini \parsep 5\p@ plus2.5\p@ minus\p@ \topsep 10\p@ plus4\p@ minus6\p@ \itemsep 5\p@ plus2.5\p@ minus\p@ \leftmargin \leftmargini \parsep 5\p@ plus2.5\p@ minus\p@ \topsep 10\p@ plus4\p@ minus6\p@ \itemsep 5\p@ plus2.5\p@ minus\p@ {Chi $\chi $}}{6}{subsubsection.2.1.4}}
\newlabel{eq:chi}{{8}{6}{\normalsize {Chi $\chi $}}{equation.2.8}{}}
\@writefile{toc}{\defcounter {refsection}{0}\relax }\@writefile{toc}{\contentsline {subsubsection}{\numberline {2.1.5}\relax \fontsize  {12}{14.5}\selectfont  \abovedisplayskip 12\p@ plus3\p@ minus7\p@ \abovedisplayshortskip \z@ plus3\p@ \belowdisplayshortskip 6.5\p@ plus3.5\p@ minus3\p@ \belowdisplayskip \abovedisplayskip \let \leftmargin \leftmargini \parsep 5\p@ plus2.5\p@ minus\p@ \topsep 10\p@ plus4\p@ minus6\p@ \itemsep 5\p@ plus2.5\p@ minus\p@ \leftmargin \leftmargini \parsep 5\p@ plus2.5\p@ minus\p@ \topsep 10\p@ plus4\p@ minus6\p@ \itemsep 5\p@ plus2.5\p@ minus\p@ {Iota $\iota $}}{6}{subsubsection.2.1.5}}
\newlabel{eq:iota}{{9}{6}{\normalsize {Iota $\iota $}}{equation.2.9}{}}
\newlabel{eq:iota_rc}{{10}{6}{\normalsize {Iota $\iota $}}{equation.2.10}{}}
\@writefile{toc}{\defcounter {refsection}{0}\relax }\@writefile{toc}{\contentsline {subsection}{\numberline {2.2}Sponge construction}{7}{subsection.2.2}}
\newlabel{sponge}{{2.2}{7}{Sponge construction}{subsection.2.2}{}}
\newlabel{eq:sponge}{{11}{7}{Sponge construction}{equation.2.11}{}}
\newlabel{eq:sponge_padding}{{12}{7}{Sponge construction}{equation.2.12}{}}
\@writefile{toc}{\defcounter {refsection}{0}\relax }\@writefile{toc}{\contentsline {subsubsection}{\numberline {2.2.1}\relax \fontsize  {12}{14.5}\selectfont  \abovedisplayskip 12\p@ plus3\p@ minus7\p@ \abovedisplayshortskip \z@ plus3\p@ \belowdisplayshortskip 6.5\p@ plus3.5\p@ minus3\p@ \belowdisplayskip \abovedisplayskip \let \leftmargin \leftmargini \parsep 5\p@ plus2.5\p@ minus\p@ \topsep 10\p@ plus4\p@ minus6\p@ \itemsep 5\p@ plus2.5\p@ minus\p@ \leftmargin \leftmargini \parsep 5\p@ plus2.5\p@ minus\p@ \topsep 10\p@ plus4\p@ minus6\p@ \itemsep 5\p@ plus2.5\p@ minus\p@ {Absorbing phase}}{7}{subsubsection.2.2.1}}
\@writefile{toc}{\defcounter {refsection}{0}\relax }\@writefile{toc}{\contentsline {subsubsection}{\numberline {2.2.2}\relax \fontsize  {12}{14.5}\selectfont  \abovedisplayskip 12\p@ plus3\p@ minus7\p@ \abovedisplayshortskip \z@ plus3\p@ \belowdisplayshortskip 6.5\p@ plus3.5\p@ minus3\p@ \belowdisplayskip \abovedisplayskip \let \leftmargin \leftmargini \parsep 5\p@ plus2.5\p@ minus\p@ \topsep 10\p@ plus4\p@ minus6\p@ \itemsep 5\p@ plus2.5\p@ minus\p@ \leftmargin \leftmargini \parsep 5\p@ plus2.5\p@ minus\p@ \topsep 10\p@ plus4\p@ minus6\p@ \itemsep 5\p@ plus2.5\p@ minus\p@ {Squeezing phase}}{7}{subsubsection.2.2.2}}
\@writefile{lof}{\defcounter {refsection}{0}\relax }\@writefile{lof}{\contentsline {figure}{\numberline {3}{\ignorespaces Keccak absorbing phase\relax }}{8}{figure.caption.3}}
\newlabel{fig:absorbing}{{3}{8}{Keccak absorbing phase\relax }{figure.caption.3}{}}
\@writefile{lof}{\defcounter {refsection}{0}\relax }\@writefile{lof}{\contentsline {figure}{\numberline {4}{\ignorespaces Keccak squeezing phase\relax }}{8}{figure.caption.4}}
\newlabel{fig:squeezing}{{4}{8}{Keccak squeezing phase\relax }{figure.caption.4}{}}
\@writefile{toc}{\defcounter {refsection}{0}\relax }\@writefile{toc}{\contentsline {section}{\numberline {3}Known attacks and weaknesses}{9}{section.3}}
\newlabel{attacks}{{3}{9}{Known attacks and weaknesses}{section.3}{}}
\@writefile{lof}{\defcounter {refsection}{0}\relax }\@writefile{lof}{\contentsline {figure}{\numberline {5}{\ignorespaces Number of rounds reached in collision attacks. \relax }}{9}{figure.caption.5}}
\newlabel{fig:rounds}{{5}{9}{Number of rounds reached in collision attacks. \relax }{figure.caption.5}{}}
\@writefile{toc}{\defcounter {refsection}{0}\relax }\@writefile{toc}{\contentsline {subsection}{\numberline {3.1}Differential trails}{10}{subsection.3.1}}
\newlabel{trails}{{3.1}{10}{Differential trails}{subsection.3.1}{}}
\@writefile{toc}{\defcounter {refsection}{0}\relax }\@writefile{toc}{\contentsline {subsubsection}{\numberline {3.1.1}\relax \fontsize  {12}{14.5}\selectfont  \abovedisplayskip 12\p@ plus3\p@ minus7\p@ \abovedisplayshortskip \z@ plus3\p@ \belowdisplayshortskip 6.5\p@ plus3.5\p@ minus3\p@ \belowdisplayskip \abovedisplayskip \let \leftmargin \leftmargini \parsep 5\p@ plus2.5\p@ minus\p@ \topsep 10\p@ plus4\p@ minus6\p@ \itemsep 5\p@ plus2.5\p@ minus\p@ \leftmargin \leftmargini \parsep 5\p@ plus2.5\p@ minus\p@ \topsep 10\p@ plus4\p@ minus6\p@ \itemsep 5\p@ plus2.5\p@ minus\p@ {Trail definition}}{10}{subsubsection.3.1.1}}
\newlabel{eq:trail_property}{{13}{11}{\normalsize {Trail definition}}{equation.3.13}{}}
\newlabel{eq:weight}{{14}{11}{\normalsize {Trail definition}}{equation.3.14}{}}
\@writefile{toc}{\defcounter {refsection}{0}\relax }\@writefile{toc}{\contentsline {subsubsection}{\numberline {3.1.2}\relax \fontsize  {12}{14.5}\selectfont  \abovedisplayskip 12\p@ plus3\p@ minus7\p@ \abovedisplayshortskip \z@ plus3\p@ \belowdisplayshortskip 6.5\p@ plus3.5\p@ minus3\p@ \belowdisplayskip \abovedisplayskip \let \leftmargin \leftmargini \parsep 5\p@ plus2.5\p@ minus\p@ \topsep 10\p@ plus4\p@ minus6\p@ \itemsep 5\p@ plus2.5\p@ minus\p@ \leftmargin \leftmargini \parsep 5\p@ plus2.5\p@ minus\p@ \topsep 10\p@ plus4\p@ minus6\p@ \itemsep 5\p@ plus2.5\p@ minus\p@ {Intro to trails generation}}{11}{subsubsection.3.1.2}}
\newlabel{eq:linear_property}{{15}{11}{\normalsize {Intro to trails generation}}{equation.3.15}{}}
\@writefile{lof}{\defcounter {refsection}{0}\relax }\@writefile{lof}{\contentsline {figure}{\numberline {6}{\ignorespaces $\chi $ affine subspace of output differeces, with respective weight, reverse weight and Hamming weight. Source: [\textbf  {3}]. \relax }}{12}{figure.caption.6}}
\newlabel{fig:affine}{{6}{12}{$\chi $ affine subspace of output differeces, with respective weight, reverse weight and Hamming weight. Source: \cite {3}. \relax }{figure.caption.6}{}}
\@writefile{toc}{\defcounter {refsection}{0}\relax }\@writefile{toc}{\contentsline {subsubsection}{\numberline {3.1.3}\relax \fontsize  {12}{14.5}\selectfont  \abovedisplayskip 12\p@ plus3\p@ minus7\p@ \abovedisplayshortskip \z@ plus3\p@ \belowdisplayshortskip 6.5\p@ plus3.5\p@ minus3\p@ \belowdisplayskip \abovedisplayskip \let \leftmargin \leftmargini \parsep 5\p@ plus2.5\p@ minus\p@ \topsep 10\p@ plus4\p@ minus6\p@ \itemsep 5\p@ plus2.5\p@ minus\p@ \leftmargin \leftmargini \parsep 5\p@ plus2.5\p@ minus\p@ \topsep 10\p@ plus4\p@ minus6\p@ \itemsep 5\p@ plus2.5\p@ minus\p@ {Trails generation}}{13}{subsubsection.3.1.3}}
\newlabel{eq:round_functions}{{16}{13}{\normalsize {Trails generation}}{equation.3.16}{}}
\newlabel{eq:trail_steps}{{17}{13}{\normalsize {Trails generation}}{equation.3.17}{}}
\@writefile{lof}{\defcounter {refsection}{0}\relax }\@writefile{lof}{\contentsline {figure}{\numberline {7}{\ignorespaces Structure of a 6-bits vortex\relax }}{14}{figure.caption.7}}
\newlabel{fig:vortex}{{7}{14}{Structure of a 6-bits vortex\relax }{figure.caption.7}{}}
\@writefile{toc}{\defcounter {refsection}{0}\relax }\@writefile{toc}{\contentsline {subsection}{\numberline {3.2}Subset attack}{15}{subsection.3.2}}
\newlabel{subset_known}{{3.2}{15}{Subset attack}{subsection.3.2}{}}
\@writefile{toc}{\defcounter {refsection}{0}\relax }\@writefile{toc}{\contentsline {subsubsection}{\numberline {3.2.1}\relax \fontsize  {12}{14.5}\selectfont  \abovedisplayskip 12\p@ plus3\p@ minus7\p@ \abovedisplayshortskip \z@ plus3\p@ \belowdisplayshortskip 6.5\p@ plus3.5\p@ minus3\p@ \belowdisplayskip \abovedisplayskip \let \leftmargin \leftmargini \parsep 5\p@ plus2.5\p@ minus\p@ \topsep 10\p@ plus4\p@ minus6\p@ \itemsep 5\p@ plus2.5\p@ minus\p@ \leftmargin \leftmargini \parsep 5\p@ plus2.5\p@ minus\p@ \topsep 10\p@ plus4\p@ minus6\p@ \itemsep 5\p@ plus2.5\p@ minus\p@ {The general idea}}{15}{subsubsection.3.2.1}}
\@writefile{toc}{\defcounter {refsection}{0}\relax }\@writefile{toc}{\contentsline {subsubsection}{\numberline {3.2.2}\relax \fontsize  {12}{14.5}\selectfont  \abovedisplayskip 12\p@ plus3\p@ minus7\p@ \abovedisplayshortskip \z@ plus3\p@ \belowdisplayshortskip 6.5\p@ plus3.5\p@ minus3\p@ \belowdisplayskip \abovedisplayskip \let \leftmargin \leftmargini \parsep 5\p@ plus2.5\p@ minus\p@ \topsep 10\p@ plus4\p@ minus6\p@ \itemsep 5\p@ plus2.5\p@ minus\p@ \leftmargin \leftmargini \parsep 5\p@ plus2.5\p@ minus\p@ \topsep 10\p@ plus4\p@ minus6\p@ \itemsep 5\p@ plus2.5\p@ minus\p@ {Internal characteristic}}{15}{subsubsection.3.2.2}}
\@writefile{lof}{\defcounter {refsection}{0}\relax }\@writefile{lof}{\contentsline {figure}{\numberline {8}{\ignorespaces Inputs and outputs space in a subset attack\relax }}{16}{figure.caption.8}}
\newlabel{fig:subsetspace}{{8}{16}{Inputs and outputs space in a subset attack\relax }{figure.caption.8}{}}
\@writefile{lof}{\defcounter {refsection}{0}\relax }\@writefile{lof}{\contentsline {figure}{\numberline {9}{\ignorespaces An example of input (right) with zero-characteristic (left)\relax }}{16}{figure.caption.9}}
\newlabel{fig:subsetinput}{{9}{16}{An example of input (right) with zero-characteristic (left)\relax }{figure.caption.9}{}}
\@writefile{toc}{\defcounter {refsection}{0}\relax }\@writefile{toc}{\contentsline {subsubsection}{\numberline {3.2.3}\relax \fontsize  {12}{14.5}\selectfont  \abovedisplayskip 12\p@ plus3\p@ minus7\p@ \abovedisplayshortskip \z@ plus3\p@ \belowdisplayshortskip 6.5\p@ plus3.5\p@ minus3\p@ \belowdisplayskip \abovedisplayskip \let \leftmargin \leftmargini \parsep 5\p@ plus2.5\p@ minus\p@ \topsep 10\p@ plus4\p@ minus6\p@ \itemsep 5\p@ plus2.5\p@ minus\p@ \leftmargin \leftmargini \parsep 5\p@ plus2.5\p@ minus\p@ \topsep 10\p@ plus4\p@ minus6\p@ \itemsep 5\p@ plus2.5\p@ minus\p@ {Extending the characteristic}}{17}{subsubsection.3.2.3}}
\newlabel{eq:ni}{{18}{17}{\normalsize {Extending the characteristic}}{equation.3.18}{}}
\newlabel{eq:subset_weight_graph}{{19}{17}{\normalsize {Extending the characteristic}}{equation.3.19}{}}
\newlabel{eq:subset_weight}{{20}{17}{\normalsize {Extending the characteristic}}{equation.3.20}{}}
\newlabel{eq:choice_of_i_text}{{21}{18}{\normalsize {Extending the characteristic}}{equation.3.21}{}}
\newlabel{eq:ni_512}{{22}{18}{\normalsize {Extending the characteristic}}{equation.3.22}{}}
\newlabel{eq:choice_of_i}{{23}{18}{\normalsize {Extending the characteristic}}{equation.3.23}{}}
\@writefile{toc}{\defcounter {refsection}{0}\relax }\@writefile{toc}{\contentsline {section}{\numberline {4}This work: implementation, testing and optimization}{20}{section.4}}
\newlabel{mywork}{{4}{20}{This work: implementation, testing and optimization}{section.4}{}}
\@writefile{toc}{\defcounter {refsection}{0}\relax }\@writefile{toc}{\contentsline {subsection}{\numberline {4.1}Keccak implementation}{20}{subsection.4.1}}
\newlabel{implementation}{{4.1}{20}{Keccak implementation}{subsection.4.1}{}}
\@writefile{lof}{\defcounter {refsection}{0}\relax }\@writefile{lof}{\contentsline {figure}{\numberline {10}{\ignorespaces The GUI version of the Keccak implementation *\discretionary {\tmspace  +\thinmuskip {.1667em}\OMS/zplm/m/n/12 \char 2}{}{} *\relax }}{21}{figure.caption.10}}
\newlabel{fig:gui}{{10}{21}{The GUI version of the Keccak implementation\\*\*\\*\relax }{figure.caption.10}{}}
\@writefile{toc}{\defcounter {refsection}{0}\relax }\@writefile{toc}{\contentsline {subsection}{\numberline {4.2}Differential trails}{21}{subsection.4.2}}
\newlabel{mytrails}{{4.2}{21}{Differential trails}{subsection.4.2}{}}
\@writefile{toc}{\defcounter {refsection}{0}\relax }\@writefile{toc}{\contentsline {subsection}{\numberline {4.3}Subset attack}{21}{subsection.4.3}}
\newlabel{mysubset}{{4.3}{21}{Subset attack}{subsection.4.3}{}}
\@writefile{toc}{\defcounter {refsection}{0}\relax }\@writefile{toc}{\contentsline {subsubsection}{\numberline {4.3.1}\relax \fontsize  {12}{14.5}\selectfont  \abovedisplayskip 12\p@ plus3\p@ minus7\p@ \abovedisplayshortskip \z@ plus3\p@ \belowdisplayshortskip 6.5\p@ plus3.5\p@ minus3\p@ \belowdisplayskip \abovedisplayskip \let \leftmargin \leftmargini \parsep 5\p@ plus2.5\p@ minus\p@ \topsep 10\p@ plus4\p@ minus6\p@ \itemsep 5\p@ plus2.5\p@ minus\p@ \leftmargin \leftmargini \parsep 5\p@ plus2.5\p@ minus\p@ \topsep 10\p@ plus4\p@ minus6\p@ \itemsep 5\p@ plus2.5\p@ minus\p@ {Non-practical attack implementation}}{22}{subsubsection.4.3.1}}
\@writefile{toc}{\defcounter {refsection}{0}\relax }\@writefile{toc}{\contentsline {subsubsection}{\numberline {4.3.2}\relax \fontsize  {12}{14.5}\selectfont  \abovedisplayskip 12\p@ plus3\p@ minus7\p@ \abovedisplayshortskip \z@ plus3\p@ \belowdisplayshortskip 6.5\p@ plus3.5\p@ minus3\p@ \belowdisplayskip \abovedisplayskip \let \leftmargin \leftmargini \parsep 5\p@ plus2.5\p@ minus\p@ \topsep 10\p@ plus4\p@ minus6\p@ \itemsep 5\p@ plus2.5\p@ minus\p@ \leftmargin \leftmargini \parsep 5\p@ plus2.5\p@ minus\p@ \topsep 10\p@ plus4\p@ minus6\p@ \itemsep 5\p@ plus2.5\p@ minus\p@ {Practical attack implementation}}{23}{subsubsection.4.3.2}}
\@writefile{lof}{\defcounter {refsection}{0}\relax }\@writefile{lof}{\contentsline {figure}{\numberline {11}{\ignorespaces The inputs and outputs reduction method. The latter reduces the output space. *\relax }}{24}{figure.caption.11}}
\newlabel{fig:reducesize}{{11}{24}{The inputs and outputs reduction method. The latter reduces the output space.\\*\relax }{figure.caption.11}{}}
\@writefile{toc}{\defcounter {refsection}{0}\relax }\@writefile{toc}{\contentsline {subsubsection}{\numberline {4.3.3}\relax \fontsize  {12}{14.5}\selectfont  \abovedisplayskip 12\p@ plus3\p@ minus7\p@ \abovedisplayshortskip \z@ plus3\p@ \belowdisplayshortskip 6.5\p@ plus3.5\p@ minus3\p@ \belowdisplayskip \abovedisplayskip \let \leftmargin \leftmargini \parsep 5\p@ plus2.5\p@ minus\p@ \topsep 10\p@ plus4\p@ minus6\p@ \itemsep 5\p@ plus2.5\p@ minus\p@ \leftmargin \leftmargini \parsep 5\p@ plus2.5\p@ minus\p@ \topsep 10\p@ plus4\p@ minus6\p@ \itemsep 5\p@ plus2.5\p@ minus\p@ {Memory optimization}}{25}{subsubsection.4.3.3}}
\newlabel{eq:poisson_rate}{{24}{25}{\normalsize {Memory optimization}}{equation.4.24}{}}
\newlabel{eq:poisson_n}{{25}{25}{\normalsize {Memory optimization}}{equation.4.25}{}}
\newlabel{eq:hash_table_size}{{26}{25}{\normalsize {Memory optimization}}{equation.4.26}{}}
\newlabel{eq:total_memory_usage}{{27}{26}{\normalsize {Memory optimization}}{equation.4.27}{}}
\newlabel{eq:total_memory_usage_512}{{28}{26}{\normalsize {Memory optimization}}{equation.4.28}{}}
\@writefile{lof}{\defcounter {refsection}{0}\relax }\@writefile{lof}{\contentsline {figure}{\numberline {12}{\ignorespaces Memory usage of the attack with different array sizes. *\relax }}{26}{figure.caption.12}}
\newlabel{fig:poisson}{{12}{26}{Memory usage of the attack with different array sizes.\\*\relax }{figure.caption.12}{}}
\@writefile{lof}{\defcounter {refsection}{0}\relax }\@writefile{lof}{\contentsline {figure}{\numberline {13}{\ignorespaces Structure of the practical three-rounds Keccak-512 attack.\relax }}{27}{figure.caption.13}}
\newlabel{fig:phaseone}{{13}{27}{Structure of the practical three-rounds Keccak-512 attack.\relax }{figure.caption.13}{}}
\newlabel{eq:optimized_memory_512}{{29}{28}{\normalsize {Memory optimization}}{equation.4.29}{}}
\@writefile{toc}{\defcounter {refsection}{0}\relax }\@writefile{toc}{\contentsline {subsubsection}{\numberline {4.3.4}\relax \fontsize  {12}{14.5}\selectfont  \abovedisplayskip 12\p@ plus3\p@ minus7\p@ \abovedisplayshortskip \z@ plus3\p@ \belowdisplayshortskip 6.5\p@ plus3.5\p@ minus3\p@ \belowdisplayskip \abovedisplayskip \let \leftmargin \leftmargini \parsep 5\p@ plus2.5\p@ minus\p@ \topsep 10\p@ plus4\p@ minus6\p@ \itemsep 5\p@ plus2.5\p@ minus\p@ \leftmargin \leftmargini \parsep 5\p@ plus2.5\p@ minus\p@ \topsep 10\p@ plus4\p@ minus6\p@ \itemsep 5\p@ plus2.5\p@ minus\p@ {Time optimization}}{28}{subsubsection.4.3.4}}
\@writefile{toc}{\defcounter {refsection}{0}\relax }\@writefile{toc}{\contentsline {subsubsection}{\numberline {4.3.5}\relax \fontsize  {12}{14.5}\selectfont  \abovedisplayskip 12\p@ plus3\p@ minus7\p@ \abovedisplayshortskip \z@ plus3\p@ \belowdisplayshortskip 6.5\p@ plus3.5\p@ minus3\p@ \belowdisplayskip \abovedisplayskip \let \leftmargin \leftmargini \parsep 5\p@ plus2.5\p@ minus\p@ \topsep 10\p@ plus4\p@ minus6\p@ \itemsep 5\p@ plus2.5\p@ minus\p@ \leftmargin \leftmargini \parsep 5\p@ plus2.5\p@ minus\p@ \topsep 10\p@ plus4\p@ minus6\p@ \itemsep 5\p@ plus2.5\p@ minus\p@ {Results}}{28}{subsubsection.4.3.5}}
\@writefile{toc}{\defcounter {refsection}{0}\relax }\@writefile{toc}{\contentsline {subsubsection}{\numberline {4.3.6}\relax \fontsize  {12}{14.5}\selectfont  \abovedisplayskip 12\p@ plus3\p@ minus7\p@ \abovedisplayshortskip \z@ plus3\p@ \belowdisplayshortskip 6.5\p@ plus3.5\p@ minus3\p@ \belowdisplayskip \abovedisplayskip \let \leftmargin \leftmargini \parsep 5\p@ plus2.5\p@ minus\p@ \topsep 10\p@ plus4\p@ minus6\p@ \itemsep 5\p@ plus2.5\p@ minus\p@ \leftmargin \leftmargini \parsep 5\p@ plus2.5\p@ minus\p@ \topsep 10\p@ plus4\p@ minus6\p@ \itemsep 5\p@ plus2.5\p@ minus\p@ {Other attacks}}{29}{subsubsection.4.3.6}}
\@writefile{toc}{\defcounter {refsection}{0}\relax }\@writefile{toc}{\contentsline {section}{\numberline {5}Results}{31}{section.5}}
\newlabel{results}{{5}{31}{Results}{section.5}{}}
\@writefile{toc}{\defcounter {refsection}{0}\relax }\@writefile{toc}{\contentsline {subsection}{\numberline {5.1}Trails examples}{31}{subsection.5.1}}
\newlabel{trailsresults}{{5.1}{31}{Trails examples}{subsection.5.1}{}}
\@writefile{toc}{\defcounter {refsection}{0}\relax }\@writefile{toc}{\contentsline {subsection}{\numberline {5.2}Collisions examples}{34}{subsection.5.2}}
\newlabel{attacksresults}{{5.2}{34}{Collisions examples}{subsection.5.2}{}}
\@writefile{toc}{\defcounter {refsection}{0}\relax }\@writefile{toc}{\contentsline {section}{\numberline {6}Conclusions}{40}{section.6}}
\newlabel{appendix}{{6}{41}{}{section.6}{}}
\@writefile{toc}{\defcounter {refsection}{0}\relax }\@writefile{toc}{\contentsline {section}{Appendix 1}{41}{section.6}}
\citation{*}
